t,codex,codey,ddx,ddy,dda
0,12,7,6,-1, 6.1
8,11,5,4,-3, 5.0
16,12,3,6,-6, 8.5
24,11,11,4,4, 5.7
32,8,5,1,-3, 3.2
40,7,9,-1,2, 2.2
48,6,7,-2,-1, 2.2
56,7,9,-1,2, 2.2
64,6,7,-2,-1, 2.2
72,3,11,-6,4, 7.2
80,5,8,-3,1, 3.2
88,5,7,-3,-1, 3.2
96,5,10,-3,3, 4.2
104,7,8,-1,1, 1.4
112,6,7,-2,-1, 2.2
120,7,10,-1,3, 3.2
128,9,7,2,-1, 2.2
136,4,8,-4,1, 4.1
144,3,11,-6,4, 7.2
152,2,10,-8,3, 8.5
160,5,8,-3,1, 3.2
168,3,9,-6,2, 6.3
176,4,9,-4,2, 4.5
184,10,6,3,-2, 3.6
192,7,6,-1,-2, 2.2
200,13,4,8,-4, 8.9
208,14,5,12,-3,12.4
216,13,7,8,-1, 8.1
224,10,6,3,-2, 3.6
232,12,5,6,-3, 6.7
240,15,4,16,-4,16.5
248,13,5,8,-3, 8.5
256,11,6,4,-2, 4.5
264,10,7,3,-1, 3.2
272,0,11,-16,4,16.5
280,2,10,-8,3, 8.5
288,0,10,-16,3,16.3
296,7,9,-1,2, 2.2
304,4,8,-4,1, 4.1
312,4,9,-4,2, 4.5
320,3,7,-6,-1, 6.1
328,7,10,-1,3, 3.2
336,9,9,2,2, 2.8
344,2,7,-8,-1, 8.1
352,12,8,6,1, 6.1
360,10,6,3,-2, 3.6
368,13,7,8,-1, 8.1
376,11,6,4,-2, 4.5
384,9,7,2,-1, 2.2
392,8,7,1,-1, 1.4
400,9,9,2,2, 2.8
408,11,6,4,-2, 4.5
416,12,7,6,-1, 6.1
424,7,7,-1,-1, 1.4
432,10,7,3,-1, 3.2
440,2,10,-8,3, 8.5
448,3,8,-6,1, 6.1
456,7,7,-1,-1, 1.4
464,8,8,1,1, 1.4
472,7,7,-1,-1, 1.4
480,8,9,1,2, 2.2
488,5,7,-3,-1, 3.2
496,7,7,-1,-1, 1.4
504,7,10,-1,3, 3.2
512,9,6,2,-2, 2.8
