t,codex,codey,ddx,ddy,dda
0,8,7,1,-1, 1.4
8,8,9,1,2, 2.2
16,8,7,1,-1, 1.4
24,8,10,1,3, 3.2
32,8,8,1,1, 1.4
40,8,8,1,1, 1.4
48,7,10,-1,3, 3.2
56,7,9,-1,2, 2.2
64,8,11,1,4, 4.1
72,4,7,-4,-1, 4.1
80,6,8,-2,1, 2.2
88,4,7,-4,-1, 4.1
96,7,7,-1,-1, 1.4
104,7,5,-1,-3, 3.2
112,7,5,-1,-3, 3.2
120,4,7,-4,-1, 4.1
128,6,5,-2,-3, 3.6
136,5,6,-3,-2, 3.6
144,3,4,-6,-4, 7.2
152,8,6,1,-2, 2.2
160,7,4,-1,-4, 4.1
168,9,6,2,-2, 2.8
176,9,4,2,-4, 4.5
184,13,7,8,-1, 8.1
192,11,8,4,1, 4.1
200,13,5,8,-3, 8.5
208,13,7,8,-1, 8.1
216,13,7,8,-1, 8.1
224,11,12,4,6, 7.2
232,11,11,4,4, 5.7
240,6,12,-2,6, 6.3
248,4,10,-4,3, 5.0
256,2,11,-8,4, 8.9
264,3,9,-6,2, 6.3
272,7,9,-1,2, 2.2
280,5,8,-3,1, 3.2
288,7,12,-1,6, 6.1
296,3,11,-6,4, 7.2
304,2,11,-8,4, 8.9
312,4,7,-4,-1, 4.1
320,3,6,-6,-2, 6.3
328,6,6,-2,-2, 2.8
336,5,6,-3,-2, 3.6
344,9,4,2,-4, 4.5
352,6,4,-2,-4, 4.5
360,11,4,4,-4, 5.7
368,12,3,6,-6, 8.5
376,13,5,8,-3, 8.5
384,12,7,6,-1, 6.1
392,11,5,4,-3, 5.0
400,12,2,6,-8,10.0
408,12,2,6,-8,10.0
416,13,7,8,-1, 8.1
424,11,9,4,2, 4.5
432,12,11,6,4, 7.2
440,11,12,4,6, 7.2
448,9,12,2,6, 6.3
456,6,11,-2,4, 4.5
464,7,13,-1,8, 8.1
472,4,11,-4,4, 5.7
480,2,9,-8,2, 8.2
488,1,10,-12,3,12.4
496,6,8,-2,1, 2.2
504,2,10,-8,3, 8.5
512,2,11,-8,4, 8.9
520,2,9,-8,2, 8.2
528,1,8,-12,1,12.0
536,7,4,-1,-4, 4.1
544,4,3,-4,-6, 7.2
552,7,4,-1,-4, 4.1
560,9,3,2,-6, 6.3
568,8,3,1,-6, 6.1
576,11,4,4,-4, 5.7
584,12,2,6,-8,10.0
592,13,6,8,-2, 8.2
600,12,6,6,-2, 6.3
608,13,4,8,-4, 8.9
616,13,9,8,2, 8.2
624,13,9,8,2, 8.2
632,13,9,8,2, 8.2
640,12,12,6,6, 8.5
648,11,12,4,6, 7.2
656,6,11,-2,4, 4.5
664,7,13,-1,8, 8.1
672,7,11,-1,4, 4.1
680,3,11,-6,4, 7.2
688,5,9,-3,2, 3.6
696,2,11,-8,4, 8.9
704,3,7,-6,-1, 6.1
712,2,7,-8,-1, 8.1
720,3,4,-6,-4, 7.2
728,3,7,-6,-1, 6.1
736,3,7,-6,-1, 6.1
744,2,4,-8,-4, 8.9
752,6,4,-2,-4, 4.5
760,1,2,-12,-8,14.4
768,11,3,4,-6, 7.2
776,10,4,3,-4, 5.0
784,12,7,6,-1, 6.1
792,12,6,6,-2, 6.3
800,13,7,8,-1, 8.1
808,13,6,8,-2, 8.2
816,14,7,12,-1,12.0
824,13,11,8,4, 8.9
832,13,10,8,3, 8.5
840,13,11,8,4, 8.9
848,12,11,6,4, 7.2
856,6,11,-2,4, 4.5
864,4,12,-4,6, 7.2
872,4,12,-4,6, 7.2
880,1,9,-12,2,12.2
888,5,8,-3,1, 3.2
896,2,6,-8,-2, 8.2
904,2,9,-8,2, 8.2
912,2,11,-8,4, 8.9
920,4,8,-4,1, 4.1
928,2,6,-8,-2, 8.2
936,4,6,-4,-2, 4.5
944,5,3,-3,-6, 6.7
952,7,4,-1,-4, 4.1
960,11,4,4,-4, 5.7
968,10,3,3,-6, 6.7
976,11,6,4,-2, 4.5
984,13,7,8,-1, 8.1
992,13,3,8,-6,10.0
1000,13,7,8,-1, 8.1
1008,13,5,8,-3, 8.5
1016,13,8,8,1, 8.1
1024,13,7,8,-1, 8.1
1032,12,12,6,6, 8.5
1040,9,11,2,4, 4.5
1048,12,12,6,6, 8.5
1056,3,11,-6,4, 7.2
1064,4,13,-4,8, 8.9
1072,1,10,-12,3,12.4
1080,6,9,-2,2, 2.8
1088,1,7,-12,-1,12.0
1096,6,7,-2,-1, 2.2
1104,2,9,-8,2, 8.2
1112,1,9,-12,2,12.2
1120,3,4,-6,-4, 7.2
1128,5,4,-3,-4, 5.0
1136,3,4,-6,-4, 7.2
1144,11,4,4,-4, 5.7
1152,8,3,1,-6, 6.1
1160,13,7,8,-1, 8.1
1168,13,8,8,1, 8.1
1176,13,6,8,-2, 8.2
1184,11,9,4,2, 4.5
1192,12,5,6,-3, 6.7
1200,11,8,4,1, 4.1
1208,7,7,-1,-1, 1.4
1216,11,11,4,4, 5.7
1224,4,9,-4,2, 4.5
1232,3,7,-6,-1, 6.1
1240,7,10,-1,3, 3.2
1248,7,8,-1,1, 1.4
1256,7,7,-1,-1, 1.4
1264,7,10,-1,3, 3.2
1272,8,6,1,-2, 2.2
1280,7,7,-1,-1, 1.4
1288,7,9,-1,2, 2.2
