t,codex,codey,ddx,ddy,dda
0,9,7,2,-1, 2.2
8,8,9,1,2, 2.2
16,9,7,2,-1, 2.2
24,9,8,2,1, 2.2
32,11,7,4,-1, 4.1
40,15,10,16,3,16.3
48,8,5,1,-3, 3.2
56,12,7,6,-1, 6.1
64,9,9,2,2, 2.8
72,12,7,6,-1, 6.1
80,9,7,2,-1, 2.2
88,7,9,-1,2, 2.2
96,13,3,8,-6,10.0
104,3,9,-6,2, 6.3
112,3,5,-6,-3, 6.7
120,2,6,-8,-2, 8.2
128,3,6,-6,-2, 6.3
136,3,6,-6,-2, 6.3
144,6,6,-2,-2, 2.8
152,2,4,-8,-4, 8.9
160,3,8,-6,1, 6.1
168,6,6,-2,-2, 2.8
176,2,5,-8,-3, 8.5
184,2,4,-8,-4, 8.9
192,3,6,-6,-2, 6.3
200,6,7,-2,-1, 2.2
208,1,6,-12,-2,12.2
216,6,8,-2,1, 2.2
224,5,11,-3,4, 5.0
232,4,12,-4,6, 7.2
240,4,12,-4,6, 7.2
248,6,12,-2,6, 6.3
256,7,11,-1,4, 4.1
264,9,9,2,2, 2.8
272,7,11,-1,4, 4.1
280,13,11,8,4, 8.9
288,13,9,8,2, 8.2
296,13,11,8,4, 8.9
304,13,11,8,4, 8.9
312,13,9,8,2, 8.2
320,13,11,8,4, 8.9
328,14,13,12,8,14.4
336,12,13,6,8,10.0
344,13,7,8,-1, 8.1
352,13,7,8,-1, 8.1
360,12,7,6,-1, 6.1
368,9,3,2,-6, 6.3
376,11,6,4,-2, 4.5
384,12,3,6,-6, 8.5
392,4,3,-4,-6, 7.2
400,4,2,-4,-8, 8.9
408,3,4,-6,-4, 7.2
416,2,3,-8,-6,10.0
424,4,4,-4,-4, 5.7
432,3,2,-6,-8,10.0
440,2,6,-8,-2, 8.2
448,2,3,-8,-6,10.0
456,2,6,-8,-2, 8.2
464,3,5,-6,-3, 6.7
472,3,4,-6,-4, 7.2
480,3,6,-6,-2, 6.3
488,3,7,-6,-1, 6.1
496,3,12,-6,6, 8.5
504,1,10,-12,3,12.4
512,12,13,6,8,10.0
520,6,14,-2,12,12.2
528,9,9,2,2, 2.8
536,9,11,2,4, 4.5
544,11,12,4,6, 7.2
552,12,12,6,6, 8.5
560,12,12,6,6, 8.5
568,13,12,8,6,10.0
576,13,9,8,2, 8.2
584,13,11,8,4, 8.9
592,13,9,8,2, 8.2
600,12,6,6,-2, 6.3
608,11,7,4,-1, 4.1
616,13,7,8,-1, 8.1
624,13,5,8,-3, 8.5
632,9,2,2,-8, 8.2
640,9,3,2,-6, 6.3
648,11,3,4,-6, 7.2
656,7,6,-1,-2, 2.2
664,9,2,2,-8, 8.2
672,8,4,1,-4, 4.1
680,1,3,-12,-6,13.4
688,6,6,-2,-2, 2.8
696,1,5,-12,-3,12.4
704,2,4,-8,-4, 8.9
712,2,4,-8,-4, 8.9
720,2,6,-8,-2, 8.2
728,1,7,-12,-1,12.0
736,1,12,-12,6,13.4
744,6,13,-2,8, 8.2
752,3,13,-6,8,10.0
760,7,11,-1,4, 4.1
768,6,13,-2,8, 8.2
776,7,12,-1,6, 6.1
784,9,13,2,8, 8.2
792,9,11,2,4, 4.5
800,14,11,12,4,12.6
808,13,7,8,-1, 8.1
816,14,7,12,-1,12.0
824,12,6,6,-2, 6.3
832,12,4,6,-4, 7.2
840,12,3,6,-6, 8.5
848,14,3,12,-6,13.4
856,8,4,1,-4, 4.1
864,10,2,3,-8, 8.5
872,7,2,-1,-8, 8.1
880,7,7,-1,-1, 1.4
888,3,6,-6,-2, 6.3
896,5,6,-3,-2, 3.6
904,2,6,-8,-2, 8.2
912,6,11,-2,4, 4.5
920,2,11,-8,4, 8.9
928,9,12,2,6, 6.3
936,7,12,-1,6, 6.1
944,7,8,-1,1, 1.4
952,8,8,1,1, 1.4
960,7,7,-1,-1, 1.4
968,8,9,1,2, 2.2
976,7,7,-1,-1, 1.4
984,7,9,-1,2, 2.2
992,7,7,-1,-1, 1.4
1000,10,7,3,-1, 3.2
