t,codex,codey,ddx,ddy,dda
0,9,9,2,2, 2.8
8,12,8,6,1, 6.1
16,13,8,8,1, 8.1
24,13,8,8,1, 8.1
32,14,6,12,-2,12.2
40,11,6,4,-2, 4.5
48,14,7,12,-1,12.0
56,9,7,2,-1, 2.2
64,12,7,6,-1, 6.1
72,6,5,-2,-3, 3.6
80,6,6,-2,-2, 2.8
88,2,4,-8,-4, 8.9
96,1,6,-12,-2,12.2
104,2,3,-8,-6,10.0
112,0,6,-16,-2,16.1
120,3,4,-6,-4, 7.2
128,0,4,-16,-4,16.5
136,6,9,-2,2, 2.8
144,1,3,-12,-6,13.4
152,4,4,-4,-4, 5.7
160,3,4,-6,-4, 7.2
168,2,2,-8,-8,11.3
176,7,13,-1,8, 8.1
184,9,14,2,12,12.2
192,8,13,1,8, 8.1
200,9,14,2,12,12.2
208,7,13,-1,8, 8.1
216,9,11,2,4, 4.5
224,5,13,-3,8, 8.5
232,9,11,2,4, 4.5
240,9,11,2,4, 4.5
248,11,11,4,4, 5.7
256,11,11,4,4, 5.7
264,11,12,4,6, 7.2
272,11,13,4,8, 8.9
280,13,7,8,-1, 8.1
288,13,6,8,-2, 8.2
296,13,2,8,-8,11.3
304,14,3,12,-6,13.4
312,13,2,8,-8,11.3
320,12,2,6,-8,10.0
328,14,5,12,-3,12.4
336,13,4,8,-4, 8.9
344,6,4,-2,-4, 4.5
352,9,6,2,-2, 2.8
360,4,4,-4,-4, 5.7
368,6,6,-2,-2, 2.8
376,2,6,-8,-2, 8.2
384,2,6,-8,-2, 8.2
392,1,6,-12,-2,12.2
400,3,7,-6,-1, 6.1
408,1,11,-12,4,12.6
416,3,5,-6,-3, 6.7
424,1,6,-12,-2,12.2
432,2,7,-8,-1, 8.1
440,2,9,-8,2, 8.2
448,1,8,-12,1,12.0
456,3,13,-6,8,10.0
464,10,12,3,6, 6.7
472,8,13,1,8, 8.1
480,7,12,-1,6, 6.1
488,11,11,4,4, 5.7
496,12,12,6,6, 8.5
504,13,12,8,6,10.0
512,14,7,12,-1,12.0
520,13,11,8,4, 8.9
528,15,5,16,-3,16.3
536,11,7,4,-1, 4.1
544,14,6,12,-2,12.2
552,12,5,6,-3, 6.7
560,14,3,12,-6,13.4
568,11,3,4,-6, 7.2
576,8,3,1,-6, 6.1
584,7,6,-1,-2, 2.2
592,9,4,2,-4, 4.5
600,7,4,-1,-4, 4.1
608,3,6,-6,-2, 6.3
616,4,4,-4,-4, 5.7
624,1,6,-12,-2,12.2
632,3,6,-6,-2, 6.3
640,2,8,-8,1, 8.1
648,1,4,-12,-4,12.6
656,3,3,-6,-6, 8.5
664,2,7,-8,-1, 8.1
672,2,7,-8,-1, 8.1
680,1,3,-12,-6,13.4
688,3,11,-6,4, 7.2
696,10,10,3,3, 4.2
704,5,11,-3,4, 5.0
712,7,13,-1,8, 8.1
720,11,14,4,12,12.6
728,8,14,1,12,12.0
736,9,15,2,16,16.1
744,13,11,8,4, 8.9
752,13,11,8,4, 8.9
760,13,9,8,2, 8.2
768,13,6,8,-2, 8.2
776,11,6,4,-2, 4.5
784,12,4,6,-4, 7.2
792,13,3,8,-6,10.0
800,13,3,8,-6,10.0
808,12,3,6,-6, 8.5
816,12,3,6,-6, 8.5
824,12,1,6,-12,13.4
832,7,6,-1,-2, 2.2
840,11,3,4,-6, 7.2
848,5,4,-3,-4, 5.0
856,6,3,-2,-6, 6.3
864,2,7,-8,-1, 8.1
872,1,9,-12,2,12.2
880,3,7,-6,-1, 6.1
888,3,12,-6,6, 8.5
896,3,12,-6,6, 8.5
904,6,12,-2,6, 6.3
912,3,11,-6,4, 7.2
920,3,11,-6,4, 7.2
928,6,9,-2,2, 2.8
936,6,9,-2,2, 2.8
944,10,8,3,1, 3.2
952,11,9,4,2, 4.5
960,11,7,4,-1, 4.1
968,10,8,3,1, 3.2
976,11,4,4,-4, 5.7
