t,codex,codey,ddx,ddy,dda
0,8,11,1,4, 4.1
8,9,11,2,4, 4.5
16,8,9,1,2, 2.2
24,7,7,-1,-1, 1.4
32,9,7,2,-1, 2.2
40,7,5,-1,-3, 3.2
48,7,7,-1,-1, 1.4
56,7,5,-1,-3, 3.2
64,11,7,4,-1, 4.1
72,9,8,2,1, 2.2
80,7,3,-1,-6, 6.1
88,12,7,6,-1, 6.1
96,12,4,6,-4, 7.2
104,8,6,1,-2, 2.2
112,9,6,2,-2, 2.8
120,9,4,2,-4, 4.5
128,4,7,-4,-1, 4.1
136,7,7,-1,-1, 1.4
144,7,7,-1,-1, 1.4
152,3,7,-6,-1, 6.1
160,5,9,-3,2, 3.6
168,3,8,-6,1, 6.1
176,7,7,-1,-1, 1.4
184,6,13,-2,8, 8.2
192,4,8,-4,1, 4.1
200,6,11,-2,4, 4.5
208,7,8,-1,1, 1.4
216,7,8,-1,1, 1.4
224,4,9,-4,2, 4.5
232,5,11,-3,4, 5.0
240,3,11,-6,4, 7.2
248,6,11,-2,4, 4.5
256,3,12,-6,6, 8.5
264,3,12,-6,6, 8.5
272,8,11,1,4, 4.1
280,7,5,-1,-3, 3.2
288,11,7,4,-1, 4.1
296,8,7,1,-1, 1.4
304,9,7,2,-1, 2.2
312,9,3,2,-6, 6.3
320,9,7,2,-1, 2.2
328,7,7,-1,-1, 1.4
336,11,5,4,-3, 5.0
344,11,4,4,-4, 5.7
352,6,6,-2,-2, 2.8
360,11,5,4,-3, 5.0
368,7,7,-1,-1, 1.4
376,8,5,1,-3, 3.2
384,5,6,-3,-2, 3.6
392,8,5,1,-3, 3.2
400,7,5,-1,-3, 3.2
408,11,6,4,-2, 4.5
416,8,7,1,-1, 1.4
424,8,6,1,-2, 2.2
432,9,6,2,-2, 2.8
440,9,7,2,-1, 2.2
448,7,2,-1,-8, 8.1
456,12,11,6,4, 7.2
464,7,7,-1,-1, 1.4
472,9,11,2,4, 4.5
480,11,10,4,3, 5.0
488,8,12,1,6, 6.1
496,9,12,2,6, 6.3
504,11,9,4,2, 4.5
512,7,8,-1,1, 1.4
520,12,12,6,6, 8.5
528,10,9,3,2, 3.6
536,10,11,3,4, 5.0
544,9,12,2,6, 6.3
552,11,11,4,4, 5.7
560,11,12,4,6, 7.2
568,6,7,-2,-1, 2.2
576,7,7,-1,-1, 1.4
584,7,5,-1,-3, 3.2
592,8,2,1,-8, 8.1
600,7,6,-1,-2, 2.2
608,7,2,-1,-8, 8.1
616,12,7,6,-1, 6.1
624,5,3,-3,-6, 6.7
632,4,5,-4,-3, 5.0
640,4,5,-4,-3, 5.0
648,3,4,-6,-4, 7.2
656,3,7,-6,-1, 6.1
664,5,11,-3,4, 5.0
672,4,4,-4,-4, 5.7
680,7,8,-1,1, 1.4
688,3,3,-6,-6, 8.5
696,4,11,-4,4, 5.7
704,5,8,-3,1, 3.2
712,3,8,-6,1, 6.1
720,7,12,-1,6, 6.1
728,4,11,-4,4, 5.7
736,4,11,-4,4, 5.7
744,9,11,2,4, 4.5
752,3,9,-6,2, 6.3
760,4,11,-4,4, 5.7
768,7,9,-1,2, 2.2
776,6,7,-2,-1, 2.2
784,8,7,1,-1, 1.4
792,6,8,-2,1, 2.2
800,13,3,8,-6,10.0
808,12,7,6,-1, 6.1
816,13,7,8,-1, 8.1
824,13,5,8,-3, 8.5
832,12,7,6,-1, 6.1
840,7,8,-1,1, 1.4
848,10,7,3,-1, 3.2
856,7,7,-1,-1, 1.4
864,9,8,2,1, 2.2
872,7,7,-1,-1, 1.4
880,8,7,1,-1, 1.4
888,7,10,-1,3, 3.2
896,7,7,-1,-1, 1.4
