t,codex,codey,ddx,ddy,dda
0,7,7,-1,-1, 1.4
8,10,7,3,-1, 3.2
16,8,7,1,-1, 1.4
24,11,7,4,-1, 4.1
32,7,8,-1,1, 1.4
40,8,7,1,-1, 1.4
48,7,7,-1,-1, 1.4
56,11,8,4,1, 4.1
64,5,7,-3,-1, 3.2
72,7,8,-1,1, 1.4
80,9,7,2,-1, 2.2
88,5,8,-3,1, 3.2
96,5,8,-3,1, 3.2
104,5,9,-3,2, 3.6
112,7,8,-1,1, 1.4
120,7,7,-1,-1, 1.4
128,9,9,2,2, 2.8
136,6,7,-2,-1, 2.2
144,5,10,-3,3, 4.2
152,3,9,-6,2, 6.3
160,4,8,-4,1, 4.1
168,3,9,-6,2, 6.3
176,7,9,-1,2, 2.2
184,7,6,-1,-2, 2.2
192,11,7,4,-1, 4.1
200,13,5,8,-3, 8.5
208,13,5,8,-3, 8.5
216,8,7,1,-1, 1.4
224,11,7,4,-1, 4.1
232,12,8,6,1, 6.1
240,14,3,12,-6,13.4
248,13,8,8,1, 8.1
256,11,5,4,-3, 5.0
264,6,6,-2,-2, 2.8
272,1,11,-12,4,12.6
280,1,9,-12,2,12.2
288,4,9,-4,2, 4.5
296,4,8,-4,1, 4.1
304,6,8,-2,1, 2.2
312,7,8,-1,1, 1.4
320,4,9,-4,2, 4.5
328,6,8,-2,1, 2.2
336,4,8,-4,1, 4.1
344,4,8,-4,1, 4.1
352,4,7,-4,-1, 4.1
360,11,9,4,2, 4.5
368,13,4,8,-4, 8.9
376,13,6,8,-2, 8.2
384,9,7,2,-1, 2.2
392,7,8,-1,1, 1.4
400,10,7,3,-1, 3.2
408,11,7,4,-1, 4.1
416,14,6,12,-2,12.2
424,12,7,6,-1, 6.1
432,8,7,1,-1, 1.4
440,2,9,-8,2, 8.2
448,1,8,-12,1,12.0
456,5,9,-3,2, 3.6
464,7,7,-1,-1, 1.4
472,5,10,-3,3, 4.2
480,6,7,-2,-1, 2.2
488,3,9,-6,2, 6.3
496,5,9,-3,2, 3.6
504,3,10,-6,3, 6.7
512,5,7,-3,-1, 3.2
520,6,9,-2,2, 2.8
528,11,5,4,-3, 5.0
536,13,7,8,-1, 8.1
544,14,5,12,-3,12.4
552,6,5,-2,-3, 3.6
560,9,8,2,1, 2.2
568,7,8,-1,1, 1.4
576,10,7,3,-1, 3.2
584,11,7,4,-1, 4.1
592,9,8,2,1, 2.2
600,9,5,2,-3, 3.6
608,8,7,1,-1, 1.4
616,4,9,-4,2, 4.5
624,4,8,-4,1, 4.1
