t,codex,codey,ddx,ddy,dda
0,7,7,-1,-1, 1.4
8,7,9,-1,2, 2.2
16,8,6,1,-2, 2.2
24,6,7,-2,-1, 2.2
32,7,9,-1,2, 2.2
40,9,5,2,-3, 3.6
48,7,7,-1,-1, 1.4
56,8,7,1,-1, 1.4
64,8,8,1,1, 1.4
72,8,7,1,-1, 1.4
80,9,7,2,-1, 2.2
88,10,7,3,-1, 3.2
96,8,9,1,2, 2.2
104,11,8,4,1, 4.1
112,12,7,6,-1, 6.1
120,12,8,6,1, 6.1
128,10,11,3,4, 5.0
136,9,11,2,4, 4.5
144,6,9,-2,2, 2.8
152,6,9,-2,2, 2.8
160,6,11,-2,4, 4.5
168,6,9,-2,2, 2.8
176,4,11,-4,4, 5.7
184,2,5,-8,-3, 8.5
192,3,8,-6,1, 6.1
200,4,7,-4,-1, 4.1
208,2,5,-8,-3, 8.5
216,4,9,-4,2, 4.5
224,2,6,-8,-2, 8.2
232,6,3,-2,-6, 6.3
240,1,6,-12,-2,12.2
248,14,4,12,-4,12.6
256,6,4,-2,-4, 4.5
264,12,6,6,-2, 6.3
272,12,6,6,-2, 6.3
280,13,6,8,-2, 8.2
288,13,8,8,1, 8.1
296,12,6,6,-2, 6.3
304,14,6,12,-2,12.2
312,12,8,6,1, 6.1
320,13,9,8,2, 8.2
328,11,11,4,4, 5.7
336,12,11,6,4, 7.2
344,3,11,-6,4, 7.2
352,2,11,-8,4, 8.9
360,2,11,-8,4, 8.9
368,1,8,-12,1,12.0
376,3,7,-6,-1, 6.1
384,3,9,-6,2, 6.3
392,2,8,-8,1, 8.1
400,2,7,-8,-1, 8.1
408,1,8,-12,1,12.0
416,3,3,-6,-6, 8.5
424,7,6,-1,-2, 2.2
432,7,5,-1,-3, 3.2
440,8,4,1,-4, 4.1
448,12,6,6,-2, 6.3
456,14,4,12,-4,12.6
464,13,8,8,1, 8.1
472,14,9,12,2,12.2
480,11,6,4,-2, 4.5
488,14,5,12,-3,12.4
496,15,6,16,-2,16.1
504,14,11,12,4,12.6
512,6,11,-2,4, 4.5
520,8,9,1,2, 2.2
528,4,11,-4,4, 5.7
536,2,11,-8,4, 8.9
544,1,7,-12,-1,12.0
552,2,10,-8,3, 8.5
560,2,5,-8,-3, 8.5
568,2,7,-8,-1, 8.1
576,3,11,-6,4, 7.2
584,2,10,-8,3, 8.5
592,2,3,-8,-6,10.0
600,3,7,-6,-1, 6.1
608,3,7,-6,-1, 6.1
616,2,5,-8,-3, 8.5
624,13,6,8,-2, 8.2
632,13,4,8,-4, 8.9
640,14,7,12,-1,12.0
648,14,8,12,1,12.0
656,13,7,8,-1, 8.1
664,14,5,12,-3,12.4
672,14,3,12,-6,13.4
680,13,9,8,2, 8.2
688,11,11,4,4, 5.7
696,10,11,3,4, 5.0
704,5,11,-3,4, 5.0
712,2,11,-8,4, 8.9
720,1,11,-12,4,12.6
728,1,7,-12,-1,12.0
736,5,9,-3,2, 3.6
744,3,7,-6,-1, 6.1
752,2,12,-8,6,10.0
760,7,10,-1,3, 3.2
768,2,5,-8,-3, 8.5
776,4,4,-4,-4, 5.7
784,4,6,-4,-2, 4.5
792,4,4,-4,-4, 5.7
800,12,3,6,-6, 8.5
808,13,7,8,-1, 8.1
816,13,7,8,-1, 8.1
824,13,7,8,-1, 8.1
832,11,9,4,2, 4.5
840,12,4,6,-4, 7.2
848,13,7,8,-1, 8.1
856,13,6,8,-2, 8.2
864,9,11,2,4, 4.5
872,9,11,2,4, 4.5
880,7,11,-1,4, 4.1
888,6,9,-2,2, 2.8
896,3,11,-6,4, 7.2
904,3,7,-6,-1, 6.1
912,2,7,-8,-1, 8.1
920,7,6,-1,-2, 2.2
928,6,8,-2,1, 2.2
936,4,7,-4,-1, 4.1
944,4,8,-4,1, 4.1
952,3,7,-6,-1, 6.1
960,7,8,-1,1, 1.4
968,5,7,-3,-1, 3.2
976,8,6,1,-2, 2.2
984,12,7,6,-1, 6.1
992,13,9,8,2, 8.2
1000,11,7,4,-1, 4.1
1008,6,7,-2,-1, 2.2
1016,8,8,1,1, 1.4
1024,8,7,1,-1, 1.4
1032,7,9,-1,2, 2.2
