t,codex,codey,ddx,ddy,dda
0,7,7,-1,-1, 1.4
8,7,8,-1,1, 1.4
16,7,7,-1,-1, 1.4
24,8,7,1,-1, 1.4
32,7,9,-1,2, 2.2
40,9,7,2,-1, 2.2
48,8,7,1,-1, 1.4
56,7,8,-1,1, 1.4
64,11,7,4,-1, 4.1
72,7,7,-1,-1, 1.4
80,11,8,4,1, 4.1
88,11,7,4,-1, 4.1
96,12,7,6,-1, 6.1
104,9,10,2,3, 3.6
112,8,7,1,-1, 1.4
120,11,11,4,4, 5.7
128,7,10,-1,3, 3.2
136,9,11,2,4, 4.5
144,5,9,-3,2, 3.6
152,6,9,-2,2, 2.8
160,3,7,-6,-1, 6.1
168,3,7,-6,-1, 6.1
176,5,7,-3,-1, 3.2
184,4,7,-4,-1, 4.1
192,3,7,-6,-1, 6.1
200,8,8,1,1, 1.4
208,2,7,-8,-1, 8.1
216,6,5,-2,-3, 3.6
224,5,6,-3,-2, 3.6
232,7,7,-1,-1, 1.4
240,7,5,-1,-3, 3.2
248,8,4,1,-4, 4.1
256,9,7,2,-1, 2.2
264,13,6,8,-2, 8.2
272,10,7,3,-1, 3.2
280,11,8,4,1, 4.1
288,10,7,3,-1, 3.2
296,11,8,4,1, 4.1
304,13,7,8,-1, 8.1
312,13,7,8,-1, 8.1
320,12,12,6,6, 8.5
328,7,8,-1,1, 1.4
336,7,11,-1,4, 4.1
344,7,11,-1,4, 4.1
352,2,9,-8,2, 8.2
360,3,7,-6,-1, 6.1
368,5,11,-3,4, 5.0
376,3,7,-6,-1, 6.1
384,5,8,-3,1, 3.2
392,2,7,-8,-1, 8.1
400,3,11,-6,4, 7.2
408,3,7,-6,-1, 6.1
416,2,3,-8,-6,10.0
424,6,6,-2,-2, 2.8
432,10,7,3,-1, 3.2
440,9,6,2,-2, 2.8
448,12,4,6,-4, 7.2
456,12,6,6,-2, 6.3
464,14,8,12,1,12.0
472,9,7,2,-1, 2.2
480,12,6,6,-2, 6.3
488,14,3,12,-6,13.4
496,12,8,6,1, 6.1
504,12,8,6,1, 6.1
512,11,11,4,4, 5.7
520,6,11,-2,4, 4.5
528,6,11,-2,4, 4.5
536,3,11,-6,4, 7.2
544,2,9,-8,2, 8.2
552,3,9,-6,2, 6.3
560,4,8,-4,1, 4.1
568,3,10,-6,3, 6.7
576,4,7,-4,-1, 4.1
584,3,9,-6,2, 6.3
592,4,8,-4,1, 4.1
600,4,4,-4,-4, 5.7
608,6,4,-2,-4, 4.5
616,6,6,-2,-2, 2.8
624,11,6,4,-2, 4.5
632,6,3,-2,-6, 6.3
640,12,6,6,-2, 6.3
648,12,7,6,-1, 6.1
656,11,6,4,-2, 4.5
664,10,6,3,-2, 3.6
672,11,8,4,1, 4.1
680,12,4,6,-4, 7.2
688,13,7,8,-1, 8.1
696,12,10,6,3, 6.7
704,10,11,3,4, 5.0
712,9,11,2,4, 4.5
720,6,11,-2,4, 4.5
728,6,11,-2,4, 4.5
736,4,11,-4,4, 5.7
744,3,8,-6,1, 6.1
752,3,8,-6,1, 6.1
760,6,5,-2,-3, 3.6
768,3,7,-6,-1, 6.1
776,3,9,-6,2, 6.3
784,3,6,-6,-2, 6.3
792,3,7,-6,-1, 6.1
800,2,6,-8,-2, 8.2
808,3,5,-6,-3, 6.7
816,9,4,2,-4, 4.5
824,12,4,6,-4, 7.2
832,13,7,8,-1, 8.1
840,12,8,6,1, 6.1
848,14,10,12,3,12.4
856,9,6,2,-2, 2.8
864,14,7,12,-1,12.0
872,14,7,12,-1,12.0
880,11,12,4,6, 7.2
888,11,8,4,1, 4.1
896,8,12,1,6, 6.1
904,2,11,-8,4, 8.9
912,4,7,-4,-1, 4.1
920,2,11,-8,4, 8.9
928,2,3,-8,-6,10.0
936,3,8,-6,1, 6.1
944,6,5,-2,-3, 3.6
952,2,10,-8,3, 8.5
960,1,5,-12,-3,12.4
968,7,7,-1,-1, 1.4
976,4,6,-4,-2, 4.5
984,6,4,-2,-4, 4.5
992,7,6,-1,-2, 2.2
1000,13,6,8,-2, 8.2
1008,10,8,3,1, 3.2
1016,13,9,8,2, 8.2
1024,13,7,8,-1, 8.1
1032,10,10,3,3, 4.2
1040,10,7,3,-1, 3.2
1048,9,8,2,1, 2.2
1056,9,7,2,-1, 2.2
1064,10,8,3,1, 3.2
1072,6,7,-2,-1, 2.2
1080,6,11,-2,4, 4.5
1088,4,7,-4,-1, 4.1
