t,codex,codey,ddx,ddy,dda
0,7,8,-1,1, 1.4
8,7,7,-1,-1, 1.4
16,11,6,4,-2, 4.5
24,10,5,3,-3, 4.2
32,9,7,2,-1, 2.2
40,9,8,2,1, 2.2
48,9,7,2,-1, 2.2
56,7,11,-1,4, 4.1
64,9,7,2,-1, 2.2
72,7,8,-1,1, 1.4
80,7,8,-1,1, 1.4
88,7,9,-1,2, 2.2
96,8,8,1,1, 1.4
104,5,7,-3,-1, 3.2
112,7,11,-1,4, 4.1
120,6,7,-2,-1, 2.2
128,7,8,-1,1, 1.4
136,7,7,-1,-1, 1.4
144,7,11,-1,4, 4.1
152,6,7,-2,-1, 2.2
160,6,10,-2,3, 3.6
168,8,6,1,-2, 2.2
176,7,7,-1,-1, 1.4
184,8,9,1,2, 2.2
192,10,6,3,-2, 3.6
200,9,7,2,-1, 2.2
208,11,7,4,-1, 4.1
216,12,8,6,1, 6.1
224,13,6,8,-2, 8.2
232,12,7,6,-1, 6.1
240,8,7,1,-1, 1.4
248,2,7,-8,-1, 8.1
256,3,10,-6,3, 6.7
264,3,6,-6,-2, 6.3
272,5,7,-3,-1, 3.2
280,5,10,-3,3, 4.2
288,6,6,-2,-2, 2.8
296,7,8,-1,1, 1.4
304,8,9,1,2, 2.2
312,6,7,-2,-1, 2.2
320,7,9,-1,2, 2.2
328,10,7,3,-1, 3.2
336,7,10,-1,3, 3.2
344,11,7,4,-1, 4.1
352,9,8,2,1, 2.2
360,10,7,3,-1, 3.2
368,11,7,4,-1, 4.1
376,9,7,2,-1, 2.2
384,7,7,-1,-1, 1.4
392,7,9,-1,2, 2.2
400,4,6,-4,-2, 4.5
408,5,7,-3,-1, 3.2
416,6,7,-2,-1, 2.2
424,6,9,-2,2, 2.8
432,7,7,-1,-1, 1.4
440,7,9,-1,2, 2.2
448,7,7,-1,-1, 1.4
456,7,9,-1,2, 2.2
464,7,7,-1,-1, 1.4
472,10,6,3,-2, 3.6
480,7,7,-1,-1, 1.4
488,10,7,3,-1, 3.2
496,7,7,-1,-1, 1.4
504,7,9,-1,2, 2.2
512,8,5,1,-3, 3.2
520,7,7,-1,-1, 1.4
528,8,8,1,1, 1.4
536,5,6,-3,-2, 3.6
544,3,7,-6,-1, 6.1
552,8,8,1,1, 1.4
560,4,9,-4,2, 4.5
568,3,7,-6,-1, 6.1
576,8,7,1,-1, 1.4
584,10,8,3,1, 3.2
592,10,8,3,1, 3.2
600,8,9,1,2, 2.2
608,7,5,-1,-3, 3.2
616,5,3,-3,-6, 6.7
624,9,6,2,-2, 2.8
632,13,7,8,-1, 8.1
640,12,11,6,4, 7.2
648,8,11,1,4, 4.1
656,6,9,-2,2, 2.8
664,7,3,-1,-6, 6.1
672,9,3,2,-6, 6.3
680,5,8,-3,1, 3.2
688,4,12,-4,6, 7.2
696,6,11,-2,4, 4.5
704,3,7,-6,-1, 6.1
712,2,10,-8,3, 8.5
720,1,7,-12,-1,12.0
728,8,9,1,2, 2.2
736,10,6,3,-2, 3.6
744,13,7,8,-1, 8.1
752,14,8,12,1,12.0
760,9,4,2,-4, 4.5
768,11,7,4,-1, 4.1
776,10,7,3,-1, 3.2
784,11,6,4,-2, 4.5
792,8,6,1,-2, 2.2
800,7,9,-1,2, 2.2
808,7,10,-1,3, 3.2
816,7,10,-1,3, 3.2
824,5,8,-3,1, 3.2
832,6,7,-2,-1, 2.2
840,3,11,-6,4, 7.2
848,1,6,-12,-2,12.2
856,2,10,-8,3, 8.5
864,7,7,-1,-1, 1.4
872,9,8,2,1, 2.2
880,13,6,8,-2, 8.2
888,13,7,8,-1, 8.1
896,13,7,8,-1, 8.1
904,9,7,2,-1, 2.2
912,7,9,-1,2, 2.2
920,11,7,4,-1, 4.1
928,8,7,1,-1, 1.4
936,7,8,-1,1, 1.4
944,9,8,2,1, 2.2
952,7,7,-1,-1, 1.4
960,6,11,-2,4, 4.5
968,7,7,-1,-1, 1.4
976,10,8,3,1, 3.2
984,7,7,-1,-1, 1.4
