t,codex,codey,ddx,ddy,dda
0,11,7,4,-1, 4.1
8,11,8,4,1, 4.1
16,11,7,4,-1, 4.1
24,11,9,4,2, 4.5
32,11,7,4,-1, 4.1
40,8,7,1,-1, 1.4
48,8,9,1,2, 2.2
56,9,7,2,-1, 2.2
64,6,7,-2,-1, 2.2
72,6,11,-2,4, 4.5
80,4,7,-4,-1, 4.1
88,3,8,-6,1, 6.1
96,6,7,-2,-1, 2.2
104,3,9,-6,2, 6.3
112,4,7,-4,-1, 4.1
120,7,9,-1,2, 2.2
128,4,10,-4,3, 5.0
136,5,9,-3,2, 3.6
144,2,11,-8,4, 8.9
152,3,12,-6,6, 8.5
160,5,8,-3,1, 3.2
168,2,8,-8,1, 8.1
176,11,6,4,-2, 4.5
184,8,6,1,-2, 2.2
192,11,6,4,-2, 4.5
200,11,4,4,-4, 5.7
208,13,5,8,-3, 8.5
216,12,5,6,-3, 6.7
224,11,6,4,-2, 4.5
232,11,8,4,1, 4.1
240,14,10,12,3,12.4
248,13,9,8,2, 8.2
256,14,9,12,2,12.2
264,13,6,8,-2, 8.2
272,11,7,4,-1, 4.1
280,7,7,-1,-1, 1.4
288,3,8,-6,1, 6.1
296,4,7,-4,-1, 4.1
304,1,7,-12,-1,12.0
312,0,7,-16,-1,16.0
320,3,5,-6,-3, 6.7
328,5,7,-3,-1, 3.2
336,3,11,-6,4, 7.2
344,4,8,-4,1, 4.1
352,1,11,-12,4,12.6
360,3,9,-6,2, 6.3
368,8,7,1,-1, 1.4
376,8,7,1,-1, 1.4
384,9,9,2,2, 2.8
392,13,5,8,-3, 8.5
400,13,6,8,-2, 8.2
408,13,5,8,-3, 8.5
416,13,9,8,2, 8.2
424,13,11,8,4, 8.9
432,14,7,12,-1,12.0
440,12,7,6,-1, 6.1
448,11,9,4,2, 4.5
456,9,5,2,-3, 3.6
464,9,7,2,-1, 2.2
472,6,11,-2,4, 4.5
480,2,5,-8,-3, 8.5
488,1,6,-12,-2,12.2
496,1,7,-12,-1,12.0
504,6,7,-2,-1, 2.2
512,2,7,-8,-1, 8.1
520,7,9,-1,2, 2.2
528,5,8,-3,1, 3.2
536,2,10,-8,3, 8.5
544,1,10,-12,3,12.4
552,7,7,-1,-1, 1.4
560,5,7,-3,-1, 3.2
568,7,8,-1,1, 1.4
576,11,5,4,-3, 5.0
584,11,6,4,-2, 4.5
592,14,7,12,-1,12.0
600,13,6,8,-2, 8.2
608,10,6,3,-2, 3.6
616,11,8,4,1, 4.1
624,12,7,6,-1, 6.1
632,12,8,6,1, 6.1
640,14,6,12,-2,12.2
648,8,7,1,-1, 1.4
656,7,9,-1,2, 2.2
664,6,7,-2,-1, 2.2
672,3,7,-6,-1, 6.1
680,1,9,-12,2,12.2
688,3,7,-6,-1, 6.1
696,7,7,-1,-1, 1.4
704,6,9,-2,2, 2.8
712,5,7,-3,-1, 3.2
720,3,7,-6,-1, 6.1
728,2,9,-8,2, 8.2
736,2,7,-8,-1, 8.1
744,3,7,-6,-1, 6.1
752,1,9,-12,2,12.2
760,13,7,8,-1, 8.1
768,11,7,4,-1, 4.1
776,13,9,8,2, 8.2
784,14,7,12,-1,12.0
792,12,7,6,-1, 6.1
800,13,9,8,2, 8.2
808,11,7,4,-1, 4.1
816,14,6,12,-2,12.2
824,13,6,8,-2, 8.2
832,14,6,12,-2,12.2
840,10,7,3,-1, 3.2
848,3,7,-6,-1, 6.1
856,4,10,-4,3, 5.0
864,1,8,-12,1,12.0
872,1,8,-12,1,12.0
880,3,9,-6,2, 6.3
888,4,7,-4,-1, 4.1
896,2,7,-8,-1, 8.1
904,1,4,-12,-4,12.6
912,1,7,-12,-1,12.0
920,0,4,-16,-4,16.5
928,6,9,-2,2, 2.8
936,7,7,-1,-1, 1.4
944,7,9,-1,2, 2.2
952,13,7,8,-1, 8.1
960,13,6,8,-2, 8.2
968,14,9,12,2,12.2
976,15,11,16,4,16.5
984,13,9,8,2, 8.2
992,14,7,12,-1,12.0
1000,12,4,6,-4, 7.2
1008,15,5,16,-3,16.3
1016,12,6,6,-2, 6.3
1024,13,7,8,-1, 8.1
1032,11,6,4,-2, 4.5
1040,4,8,-4,1, 4.1
1048,1,9,-12,2,12.2
1056,1,9,-12,2,12.2
1064,2,10,-8,3, 8.5
1072,1,10,-12,3,12.4
1080,3,8,-6,1, 6.1
1088,2,5,-8,-3, 8.5
1096,2,7,-8,-1, 8.1
1104,0,5,-16,-3,16.3
1112,5,9,-3,2, 3.6
1120,7,9,-1,2, 2.2
1128,12,7,6,-1, 6.1
1136,10,11,3,4, 5.0
1144,13,7,8,-1, 8.1
1152,14,9,12,2,12.2
1160,12,8,6,1, 6.1
1168,13,7,8,-1, 8.1
1176,9,7,2,-1, 2.2
1184,13,6,8,-2, 8.2
1192,14,4,12,-4,12.6
1200,10,3,3,-6, 6.7
1208,10,11,3,4, 5.0
1216,4,8,-4,1, 4.1
1224,11,4,4,-4, 5.7
1232,0,12,-16,6,17.1
1240,2,11,-8,4, 8.9
1248,3,11,-6,4, 7.2
1256,4,7,-4,-1, 4.1
1264,1,6,-12,-2,12.2
1272,2,7,-8,-1, 8.1
1280,3,9,-6,2, 6.3
1288,7,9,-1,2, 2.2
1296,12,7,6,-1, 6.1
1304,11,9,4,2, 4.5
1312,14,7,12,-1,12.0
1320,13,11,8,4, 8.9
1328,11,6,4,-2, 4.5
1336,4,7,-4,-1, 4.1
1344,9,9,2,2, 2.8
1352,9,7,2,-1, 2.2
1360,7,7,-1,-1, 1.4
