t,x,y,v,xdecoded,ydecoded,xerror,yerror,abserror
0,0,0,0.250000,0,0,0,0, 0.0
8,2,0,0.279508,2,0,0,0, 0.0
16,4,-1,0.450694,3,-1,-1,0, 1.0
24,7,-3,0.728869,7,-3,0,0, 0.0
32,12,-6,1.185854,12,-6,0,0, 0.0
40,21,-9,1.118034,21,-10,0,-1, 1.0
48,29,-13,1.231107,29,-13,0,0, 0.0
56,38,-17,1.286954,38,-17,0,0, 0.0
64,47,-22,1.463087,46,-22,-1,0, 1.0
72,58,-26,1.286954,58,-26,0,0, 0.0
80,67,-31,1.231107,67,-31,0,0, 0.0
88,76,-35,1.286954,75,-35,-1,0, 1.0
96,85,-40,1.007782,85,-40,0,0, 0.0
104,92,-44,0.625000,92,-44,0,0, 0.0
112,96,-47,0.176777,96,-47,0,0, 0.0
120,97,-48,0.000000,97,-48,0,0, 0.0
128,97,-48,0.000000,97,-48,0,0, 0.0
136,97,-48,0.000000,96,-49,-1,-1, 1.4
144,97,-48,0.176777,97,-48,0,0, 0.0
152,96,-47,0.559017,96,-48,0,-1, 1.0
160,92,-45,1.397542,92,-45,0,0, 0.0
168,82,-40,1.903943,82,-40,0,0, 0.0
176,68,-34,2.576941,68,-34,0,0, 0.0
184,49,-26,3.020761,48,-26,-1,0, 1.0
192,27,-16,2.926175,27,-16,0,0, 0.0
200,5,-8,2.462214,5,-8,0,0, 0.0
208,-13,0,1.305038,-13,-1,0,-1, 1.0
216,-23,3,0.279508,-23,3,0,0, 0.0
224,-25,4,0.125000,-25,4,0,0, 0.0
232,-26,4,0.375000,-26,4,0,0, 0.0
240,-23,4,1.131923,-23,3,0,-1, 1.0
248,-14,3,2.820129,-14,3,0,0, 0.0
256,8,-2,3.824265,7,-3,-1,-1, 1.4
264,38,-8,4.123106,36,-8,-2,0, 2.0
272,70,-16,3.952847,69,-16,-1,0, 1.0
280,100,-26,2.610077,100,-26,0,0, 0.0
288,120,-32,1.118034,119,-32,-1,0, 1.0
296,128,-36,0.279508,126,-36,-2,0, 2.0
304,129,-38,0.176777,129,-38,0,0, 0.0
312,128,-39,0.375000,128,-39,0,0, 0.0
320,125,-39,0.515388,125,-39,0,0, 0.0
328,121,-38,1.068000,121,-38,0,0, 0.0
336,113,-35,1.346291,113,-35,0,0, 0.0
344,103,-31,1.858259,103,-31,0,0, 0.0
352,89,-26,2.371708,89,-26,0,0, 0.0
360,71,-20,2.850439,71,-20,0,0, 0.0
368,49,-14,2.371708,49,-15,0,-1, 1.0
376,31,-8,1.305038,31,-8,0,0, 0.0
384,21,-5,0.279508,21,-5,0,0, 0.0
392,19,-4,0.000000,19,-4,0,0, 0.0
400,19,-4,0.176777,19,-4,0,0, 0.0
408,18,-3,0.250000,18,-3,0,0, 0.0
416,20,-3,0.883883,20,-3,0,0, 0.0
424,27,-4,2.157835,26,-4,-1,0, 1.0
432,44,-7,3.164747,44,-7,0,0, 0.0
440,69,-11,3.041381,68,-11,-1,0, 1.0
448,93,-15,2.304886,93,-16,0,-1, 1.0
456,111,-19,0.790569,110,-19,-1,0, 1.0
464,117,-21,0.000000,115,-21,-2,0, 2.0
472,117,-21,0.125000,117,-21,0,0, 0.0
480,118,-21,0.279508,118,-22,0,-1, 1.0
488,116,-20,0.515388,116,-20,0,0, 0.0
496,112,-19,1.305038,112,-19,0,0, 0.0
504,102,-16,1.741049,102,-16,0,0, 0.0
512,89,-11,2.576941,89,-11,0,0, 0.0
520,70,-3,2.926175,70,-3,0,0, 0.0
528,48,5,3.162278,48,4,0,-1, 1.0
536,24,13,2.610077,24,13,0,0, 0.0
544,4,19,1.397542,4,19,0,0, 0.0
552,-6,24,0.450694,-8,24,-2,0, 2.0
560,-9,26,0.176777,-8,26,1,0, 1.0
568,-10,25,0.000000,-10,25,0,0, 0.0
576,-10,25,0.176777,-10,25,0,0, 0.0
584,-11,26,0.250000,-11,26,0,0, 0.0
592,-9,26,0.750000,-9,26,0,0, 0.0
600,-3,26,1.007782,-3,25,0,-1, 1.0
608,5,25,1.305038,5,25,0,0, 0.0
616,15,22,1.425219,15,22,0,0, 0.0
624,26,19,0.951972,26,18,0,-1, 1.0
632,33,16,0.395285,33,16,0,0, 0.0
640,36,15,0.000000,36,15,0,0, 0.0
