t,x,y,v,xdecoded,ydecoded,xerror,yerror,abserror
0,0,0,0.125000,0,0,0,0, 0.0
8,1,0,0.125000,1,0,0,0, 0.0
16,2,0,0.395285,1,-1,-1,-1, 1.4
24,5,1,0.637377,5,1,0,0, 0.0
32,10,2,0.883883,10,2,0,0, 0.0
40,17,3,1.767767,17,2,0,-1, 1.0
48,31,5,1.625000,30,5,-1,0, 1.0
56,44,5,2.000000,44,5,0,0, 0.0
64,60,5,2.000000,60,4,0,-1, 1.0
72,76,5,2.000000,75,5,-1,0, 1.0
80,92,5,1.767767,92,5,0,0, 0.0
88,106,3,1.667708,106,3,0,0, 0.0
96,119,0,1.463087,119,0,0,0, 0.0
104,130,-4,1.185854,130,-4,0,0, 0.0
112,139,-7,1.118034,139,-7,0,0, 0.0
120,147,-11,1.179248,147,-11,0,0, 0.0
128,155,-16,0.625000,154,-16,-1,0, 1.0
136,159,-19,0.728869,159,-19,0,0, 0.0
144,162,-24,0.707107,162,-24,0,0, 0.0
152,166,-28,0.559017,166,-28,0,0, 0.0
160,168,-32,0.790569,168,-33,0,-1, 1.0
168,170,-38,0.760345,169,-39,-1,-1, 1.4
176,171,-44,1.007782,171,-44,0,0, 0.0
184,172,-52,1.125000,172,-52,0,0, 0.0
192,172,-61,1.125000,172,-61,0,0, 0.0
200,172,-70,1.256234,171,-71,-1,-1, 1.4
208,171,-80,1.152443,171,-80,0,0, 0.0
216,169,-89,1.068000,169,-90,0,-1, 1.0
224,166,-97,0.450694,166,-97,0,0, 0.0
232,164,-100,0.559017,164,-100,0,0, 0.0
240,162,-104,0.353553,161,-104,-1,0, 1.0
248,160,-106,0.279508,160,-106,0,0, 0.0
256,158,-107,0.250000,158,-107,0,0, 0.0
264,156,-107,0.375000,155,-107,-1,0, 1.0
272,153,-107,0.500000,153,-108,0,-1, 1.0
280,149,-107,1.068000,149,-107,0,0, 0.0
288,141,-104,1.463087,141,-104,0,0, 0.0
296,130,-100,1.629801,130,-100,0,0, 0.0
304,119,-93,1.802776,118,-93,-1,0, 1.0
312,107,-85,2.128673,107,-85,0,0, 0.0
320,94,-74,2.481179,94,-74,0,0, 0.0
328,79,-61,2.657536,79,-61,0,0, 0.0
336,63,-47,3.010399,63,-47,0,0, 0.0
344,45,-31,2.828427,45,-31,0,0, 0.0
352,29,-15,2.850439,29,-16,0,-1, 1.0
360,11,-1,2.850439,11,-2,0,-1, 1.0
368,-7,13,2.850439,-8,13,-1,0, 1.0
376,-25,27,2.657536,-25,27,0,0, 0.0
384,-41,41,2.500000,-41,40,0,-1, 1.0
392,-57,53,2.253470,-58,52,-1,-1, 1.4
400,-72,63,1.956559,-72,63,0,0, 0.0
408,-86,70,1.546165,-87,70,-1,0, 1.0
416,-98,73,1.185854,-98,73,0,0, 0.0
424,-107,76,0.673146,-107,75,0,-1, 1.0
432,-112,78,0.625000,-112,78,0,0, 0.0
440,-117,78,0.500000,-118,78,-1,0, 1.0
448,-121,78,0.395285,-121,77,0,-1, 1.0
456,-124,77,0.279508,-125,77,-1,0, 1.0
464,-126,76,0.353553,-126,76,0,0, 0.0
472,-128,74,0.450694,-128,74,0,0, 0.0
480,-130,71,0.790569,-131,71,-1,0, 1.0
488,-132,65,0.760345,-132,65,0,0, 0.0
496,-133,59,1.000000,-134,58,-1,-1, 1.4
504,-133,51,1.644118,-133,50,0,-1, 1.0
512,-131,38,1.629801,-131,38,0,0, 0.0
520,-130,25,1.858259,-130,25,0,0, 0.0
528,-125,11,1.629801,-125,11,0,0, 0.0
536,-118,0,1.414214,-118,0,0,0, 0.0
544,-110,-8,1.250000,-110,-8,0,0, 0.0
552,-102,-14,1.075291,-103,-14,-1,0, 1.0
560,-95,-19,1.030776,-95,-19,0,0, 0.0
568,-87,-21,1.185854,-88,-21,-1,0, 1.0
576,-78,-24,1.250000,-78,-24,0,0, 0.0
584,-68,-24,1.131923,-69,-24,-1,0, 1.0
592,-59,-23,1.068000,-59,-23,0,0, 0.0
600,-51,-20,1.425219,-51,-20,0,0, 0.0
608,-40,-17,1.286954,-40,-18,0,-1, 1.0
616,-31,-12,1.463087,-31,-12,0,0, 0.0
624,-20,-8,1.510381,-20,-8,0,0, 0.0
632,-9,-3,1.510381,-10,-3,-1,0, 1.0
640,2,2,1.510381,2,1,0,-1, 1.0
648,13,7,1.425219,13,7,0,0, 0.0
656,24,10,1.629801,23,10,-1,0, 1.0
664,37,11,1.500000,37,11,0,0, 0.0
672,49,11,1.256234,49,11,0,0, 0.0
680,59,10,1.425219,59,10,0,0, 0.0
688,70,7,1.286954,70,7,0,0, 0.0
696,79,2,1.250000,79,2,0,0, 0.0
704,87,-4,1.237437,87,-4,0,0, 0.0
712,94,-11,1.414214,94,-11,0,0, 0.0
720,102,-19,1.152443,102,-19,0,0, 0.0
728,108,-26,1.352082,108,-26,0,0, 0.0
736,114,-35,1.352082,113,-35,-1,0, 1.0
744,120,-44,1.231107,120,-45,0,-1, 1.0
752,124,-53,1.286954,124,-53,0,0, 0.0
760,129,-62,0.951972,129,-62,0,0, 0.0
768,132,-69,0.910014,132,-69,0,0, 0.0
776,134,-76,0.637377,134,-77,0,-1, 1.0
784,135,-81,0.250000,135,-81,0,0, 0.0
792,135,-83,0.250000,135,-83,0,0, 0.0
800,135,-85,0.125000,134,-86,-1,-1, 1.4
808,135,-86,0.000000,135,-86,0,0, 0.0
816,135,-86,0.176777,135,-87,0,-1, 1.0
824,134,-87,0.000000,134,-87,0,0, 0.0
