t,x,y,v,xdecoded,ydecoded,xerror,yerror,abserror
0,0,0,0.176777,0,0,0,0, 0.0
8,-1,-1,0.125000,-1,-1,0,0, 0.0
16,-2,-1,0.125000,-3,-1,-1,0, 1.0
24,-2,-2,0.176777,-2,-2,0,0, 0.0
32,-3,-3,0.125000,-3,-4,0,-1, 1.0
40,-3,-4,0.125000,-3,-4,0,0, 0.0
48,-3,-5,0.125000,-4,-5,-1,0, 1.0
56,-3,-6,0.176777,-3,-7,0,-1, 1.0
64,-2,-7,0.395285,-3,-7,-1,0, 1.0
72,1,-8,0.395285,1,-8,0,0, 0.0
80,4,-9,0.637377,4,-10,0,-1, 1.0
88,9,-10,0.625000,9,-10,0,0, 0.0
96,14,-10,1.000000,13,-11,-1,-1, 1.4
104,22,-10,0.625000,21,-10,-1,0, 1.0
112,27,-10,0.637377,27,-10,0,0, 0.0
120,32,-9,0.673146,32,-9,0,0, 0.0
128,37,-7,0.838525,36,-7,-1,0, 1.0
136,40,-1,1.068000,39,-1,-1,0, 1.0
144,43,7,1.425219,43,7,0,0, 0.0
152,46,18,1.644118,46,18,0,0, 0.0
160,48,31,2.625000,48,31,0,0, 0.0
168,48,52,2.375000,48,52,0,0, 0.0
176,48,71,2.761340,47,71,-1,0, 1.0
184,46,93,2.549510,45,93,-1,0, 1.0
192,42,113,1.903943,42,113,0,0, 0.0
200,36,127,1.457738,36,127,0,0, 0.0
208,30,137,1.075291,29,137,-1,0, 1.0
216,23,142,0.760345,23,141,0,-1, 1.0
224,17,143,0.760345,16,143,-1,0, 1.0
232,11,142,1.250000,11,142,0,0, 0.0
240,3,136,2.388122,3,135,0,-1, 1.0
248,-10,122,2.915476,-11,122,-1,0, 1.0
256,-22,102,3.020761,-22,101,0,-1, 1.0
264,-32,80,3.162278,-32,79,0,-1, 1.0
272,-40,56,3.288237,-40,56,0,0, 0.0
280,-44,30,3.259601,-44,30,0,0, 0.0
288,-46,4,3.259601,-46,3,0,-1, 1.0
296,-44,-22,2.926175,-44,-22,0,0, 0.0
304,-36,-44,2.121320,-36,-44,0,0, 0.0
312,-24,-56,1.956559,-24,-58,0,-2, 2.0
320,-10,-63,1.750000,-10,-64,0,-1, 1.0
328,4,-63,1.741049,3,-64,-1,-1, 1.4
336,17,-58,1.976424,17,-58,0,0, 0.0
344,30,-49,1.858259,30,-49,0,0, 0.0
352,40,-38,1.741049,40,-38,0,0, 0.0
360,45,-25,1.581139,44,-25,-1,0, 1.0
368,49,-13,1.125000,49,-13,0,0, 0.0
376,49,-4,0.790569,48,-4,-1,0, 1.0
384,47,2,0.910014,46,2,-1,0, 1.0
392,45,9,0.976281,45,9,0,0, 0.0
400,39,14,0.883883,38,14,-1,0, 1.0
408,34,19,1.007782,34,18,0,-1, 1.0
416,27,23,1.030776,27,23,0,0, 0.0
424,19,25,1.000000,19,25,0,0, 0.0
432,11,25,1.152443,10,25,-1,0, 1.0
440,2,23,0.790569,2,23,0,0, 0.0
448,-4,21,1.060660,-4,20,0,-1, 1.0
456,-10,15,1.030776,-11,15,-1,0, 1.0
464,-12,7,1.520691,-12,7,0,0, 0.0
472,-14,-5,1.789728,-14,-5,0,0, 0.0
480,-11,-19,2.225562,-12,-19,-1,0, 1.0
488,0,-33,2.500000,-2,-34,-2,-1, 2.2
496,16,-45,2.490607,16,-45,0,0, 0.0
504,35,-51,2.795085,35,-52,0,-1, 1.0
512,57,-55,2.795085,57,-55,0,0, 0.0
520,79,-51,2.236068,78,-52,-1,-1, 1.4
528,95,-43,1.457738,95,-43,0,0, 0.0
536,101,-33,1.152443,100,-33,-1,0, 1.0
544,103,-24,1.007782,103,-24,0,0, 0.0
552,102,-16,0.901388,102,-16,0,0, 0.0
560,98,-10,1.075291,98,-10,0,0, 0.0
568,91,-5,1.352082,91,-5,0,0, 0.0
576,82,1,1.956559,82,1,0,0, 0.0
584,68,8,1.667708,67,8,-1,0, 1.0
592,55,11,2.015564,55,11,0,0, 0.0
600,39,13,1.750000,39,13,0,0, 0.0
608,25,13,1.397542,25,13,0,0, 0.0
616,14,11,1.185854,14,11,0,0, 0.0
624,5,8,0.800391,5,8,0,0, 0.0
632,0,4,0.901388,0,4,0,0, 0.0
640,-4,-2,1.125000,-4,-2,0,0, 0.0
648,-4,-11,1.457738,-4,-11,0,0, 0.0
656,2,-21,2.388122,2,-21,0,0, 0.0
664,16,-34,3.020761,16,-34,0,0, 0.0
672,38,-44,3.092329,38,-44,0,0, 0.0
680,62,-50,3.259601,62,-50,0,0, 0.0
688,88,-52,3.288237,88,-52,0,0, 0.0
696,114,-48,2.358495,113,-48,-1,0, 1.0
704,130,-38,1.328768,130,-38,0,0, 0.0
712,137,-30,0.883883,135,-30,-2,0, 2.0
720,138,-23,0.637377,138,-23,0,0, 0.0
728,137,-18,0.450694,137,-18,0,0, 0.0
736,135,-15,0.450694,135,-15,0,0, 0.0
744,132,-13,0.760345,132,-13,0,0, 0.0
752,126,-12,0.760345,126,-12,0,0, 0.0
760,120,-11,1.256234,119,-12,-1,-1, 1.4
768,110,-12,1.667708,110,-13,0,-1, 1.0
776,97,-15,1.956559,97,-15,0,0, 0.0
784,83,-22,1.875000,83,-23,0,-1, 1.0
792,71,-31,1.858259,71,-32,0,-1, 1.0
800,60,-41,1.457738,60,-42,0,-1, 1.0
808,54,-51,1.700184,53,-51,-1,0, 1.0
816,50,-64,1.520691,50,-64,0,0, 0.0
824,52,-76,1.505199,51,-76,-1,0, 1.0
832,60,-85,1.352082,60,-85,0,0, 0.0
840,69,-91,1.625000,68,-91,-1,0, 1.0
848,81,-96,2.139655,80,-96,-1,0, 1.0
856,98,-94,2.515576,98,-95,0,-1, 1.0
864,116,-85,2.474874,115,-86,-1,-1, 1.4
872,130,-71,2.298097,130,-71,0,0, 0.0
880,137,-54,1.940522,137,-54,0,0, 0.0
888,141,-39,1.625000,141,-39,0,0, 0.0
896,141,-26,1.425219,141,-26,0,0, 0.0
904,138,-15,1.397542,138,-15,0,0, 0.0
912,133,-5,0.976281,133,-5,0,0, 0.0
920,127,0,0.800391,127,-1,0,-1, 1.0
928,122,4,0.395285,122,4,0,0, 0.0
936,119,5,0.375000,119,5,0,0, 0.0
944,116,5,0.450694,115,5,-1,0, 1.0
952,113,3,0.450694,113,3,0,0, 0.0
960,111,0,0.450694,110,0,-1,0, 1.0
968,109,-3,0.673146,109,-4,0,-1, 1.0
976,107,-8,0.760345,107,-9,0,-1, 1.0
984,106,-14,0.750000,106,-15,0,-1, 1.0
992,106,-20,0.750000,106,-20,0,0, 0.0
1000,106,-26,0.625000,105,-26,-1,0, 1.0
1008,106,-31,0.000000,106,-31,0,0, 0.0
