t,x,y,v,xdecoded,ydecoded,xerror,yerror,abserror
0,0,0,0.125000,0,0,0,0, 0.0
8,1,0,0.279508,1,0,0,0, 0.0
16,2,2,0.279508,1,2,-1,0, 1.0
24,3,4,0.450694,3,3,0,-1, 1.0
32,6,6,0.625000,6,6,0,0, 0.0
40,10,9,0.790569,10,8,0,-1, 1.0
48,16,11,1.274755,16,11,0,0, 0.0
56,26,13,1.375000,26,13,0,0, 0.0
64,37,13,1.875000,37,13,0,0, 0.0
72,52,13,2.000000,52,12,0,-1, 1.0
80,68,13,2.388122,68,13,0,0, 0.0
88,87,11,2.183031,87,11,0,0, 0.0
96,104,7,1.858259,104,7,0,0, 0.0
104,118,2,1.625000,118,2,0,0, 0.0
112,130,-3,1.286954,130,-4,0,-1, 1.0
120,139,-8,0.800391,139,-8,0,0, 0.0
128,144,-12,0.800391,144,-13,0,-1, 1.0
136,149,-16,0.625000,148,-16,-1,0, 1.0
144,153,-19,0.559017,153,-20,0,-1, 1.0
152,155,-23,0.279508,155,-23,0,0, 0.0
160,156,-25,0.279508,156,-25,0,0, 0.0
168,157,-27,0.250000,156,-28,-1,-1, 1.4
176,157,-29,0.125000,157,-29,0,0, 0.0
184,157,-30,0.125000,157,-31,0,-1, 1.0
192,157,-31,0.176777,156,-31,-1,0, 1.0
200,156,-32,0.125000,156,-32,0,0, 0.0
208,155,-32,0.250000,155,-32,0,0, 0.0
216,153,-32,0.250000,153,-33,0,-1, 1.0
224,151,-32,0.375000,150,-32,-1,0, 1.0
232,148,-32,0.637377,148,-32,0,0, 0.0
240,143,-31,1.185854,143,-31,0,0, 0.0
248,134,-28,1.397542,134,-28,0,0, 0.0
256,124,-23,1.903943,124,-23,0,0, 0.0
264,110,-17,2.080415,110,-17,0,0, 0.0
272,96,-8,2.704163,95,-8,-1,0, 1.0
280,78,4,2.704163,78,4,0,0, 0.0
288,60,16,3.051639,60,15,0,-1, 1.0
296,40,30,3.051639,40,30,0,0, 0.0
304,20,44,3.051639,19,44,-1,0, 1.0
312,0,58,2.704163,0,57,0,-1, 1.0
320,-18,70,2.704163,-18,69,0,-1, 1.0
328,-36,82,2.704163,-37,82,-1,0, 1.0
336,-54,94,2.125000,-54,94,0,0, 0.0
344,-69,102,1.858259,-69,102,0,0, 0.0
352,-83,107,1.625000,-83,107,0,0, 0.0
360,-95,112,1.152443,-95,111,0,-1, 1.0
368,-104,114,1.007782,-104,114,0,0, 0.0
376,-112,115,0.875000,-112,115,0,0, 0.0
384,-119,115,0.760345,-119,115,0,0, 0.0
392,-125,114,0.728869,-125,114,0,0, 0.0
400,-130,111,0.728869,-130,111,0,0, 0.0
408,-135,108,0.976281,-136,107,-1,-1, 1.4
416,-140,102,0.901388,-140,102,0,0, 0.0
424,-144,96,0.951972,-145,96,-1,0, 1.0
432,-147,89,0.760345,-147,89,0,0, 0.0
440,-148,83,1.007782,-148,83,0,0, 0.0
448,-149,75,1.125000,-150,75,-1,0, 1.0
456,-149,66,1.250000,-149,66,0,0, 0.0
464,-149,56,1.185854,-149,56,0,0, 0.0
472,-146,47,0.883883,-146,47,0,0, 0.0
480,-141,42,1.231107,-141,42,0,0, 0.0
488,-132,38,1.397542,-132,38,0,0, 0.0
496,-122,33,2.304886,-122,33,0,0, 0.0
504,-104,29,3.010399,-104,29,0,0, 0.0
512,-80,27,3.758324,-80,27,0,0, 0.0
520,-50,25,3.500000,-50,24,0,-1, 1.0
528,-22,25,3.500000,-22,25,0,0, 0.0
536,6,25,3.259601,5,25,-1,0, 1.0
544,32,27,3.010399,31,27,-1,0, 1.0
552,56,29,2.795085,56,28,0,-1, 1.0
560,78,33,2.850439,78,33,0,0, 0.0
568,100,39,2.795085,99,39,-1,0, 1.0
576,122,43,2.304886,122,43,0,0, 0.0
584,140,47,2.015564,139,46,-1,-1, 1.4
592,156,49,1.520691,155,48,-1,-1, 1.4
600,168,51,1.000000,168,51,0,0, 0.0
608,176,51,0.875000,175,51,-1,0, 1.0
616,183,51,0.625000,183,50,0,-1, 1.0
624,188,51,0.515388,188,51,0,0, 0.0
632,192,50,0.728869,192,50,0,0, 0.0
640,197,47,0.883883,197,47,0,0, 0.0
648,202,42,0.883883,201,42,-1,0, 1.0
656,207,37,1.231107,207,36,0,-1, 1.0
664,211,28,1.179248,211,28,0,0, 0.0
672,216,20,1.380670,216,19,0,-1, 1.0
680,217,9,1.644118,217,9,0,0, 0.0
688,219,-4,1.625000,219,-4,0,0, 0.0
696,219,-17,1.375000,219,-18,0,-1, 1.0
704,219,-28,1.397542,218,-28,-1,0, 1.0
712,217,-39,0.875000,216,-39,-1,0, 1.0
720,217,-46,0.375000,217,-46,0,0, 0.0
728,217,-49,0.250000,217,-49,0,0, 0.0
736,217,-51,0.000000,216,-51,-1,0, 1.0
