t,x,y,v,xdecoded,ydecoded,xerror,yerror,abserror
0,0,0,0.125000,0,0,0,0, 0.0
8,1,0,0.450694,1,0,0,0, 0.0
16,4,2,0.530330,4,2,0,0, 0.0
24,7,5,1.007782,6,5,-1,0, 1.0
32,14,9,1.118034,14,9,0,0, 0.0
40,22,13,1.976424,21,12,-1,-1, 1.4
48,37,18,3.335416,36,18,-1,0, 1.0
56,63,24,3.535534,63,23,0,-1, 1.0
64,91,28,4.257347,91,27,0,-1, 1.0
72,125,30,4.506939,125,30,0,0, 0.0
80,161,32,4.750000,161,32,0,0, 0.0
88,199,32,5.250000,199,32,0,0, 0.0
96,241,32,5.024938,241,31,0,-1, 1.0
104,281,28,4.808846,281,28,0,0, 0.0
112,319,22,4.366062,319,22,0,0, 0.0
120,353,14,3.952847,353,14,0,0, 0.0
128,383,4,3.354102,383,4,0,0, 0.0
136,407,-8,2.850439,407,-8,0,0, 0.0
144,425,-22,2.500000,425,-22,0,0, 0.0
152,437,-38,1.976424,437,-38,0,0, 0.0
160,442,-53,2.061553,441,-53,-1,0, 1.0
168,446,-69,2.388122,446,-69,0,0, 0.0
176,444,-88,2.490607,443,-88,-1,0, 1.0
184,438,-107,2.573908,438,-108,0,-1, 1.0
192,428,-125,2.657536,427,-125,-1,0, 1.0
200,414,-141,3.259601,414,-141,0,0, 0.0
208,392,-155,3.020761,393,-155,1,0, 1.0
216,370,-165,3.092329,370,-165,0,0, 0.0
224,346,-171,3.288237,346,-171,0,0, 0.0
232,320,-175,3.500000,320,-175,0,0, 0.0
240,292,-175,3.758324,292,-175,0,0, 0.0
248,262,-173,4.069705,262,-173,0,0, 0.0
256,230,-167,3.881044,230,-167,0,0, 0.0
264,200,-159,4.506939,200,-159,0,0, 0.0
272,166,-147,4.138236,166,-147,0,0, 0.0
280,136,-133,3.473111,136,-133,0,0, 0.0
288,112,-119,3.010399,112,-120,0,-1, 1.0
296,94,-103,2.704163,94,-103,0,0, 0.0
304,82,-85,2.610077,82,-85,0,0, 0.0
312,76,-65,2.750000,76,-65,0,0, 0.0
320,76,-43,3.716517,76,-43,0,0, 0.0
328,86,-15,3.605551,84,-15,-2,0, 2.0
336,102,9,4.069705,100,9,-2,0, 2.0
344,126,31,4.373214,124,31,-2,0, 2.0
352,156,49,4.828302,156,49,0,0, 0.0
360,192,63,5.153882,192,63,0,0, 0.0
368,232,73,5.024938,232,73,0,0, 0.0
376,272,77,6.005206,271,77,-1,0, 1.0
384,320,79,5.255949,318,79,-2,0, 2.0
392,362,77,4.808846,362,77,0,0, 0.0
400,400,71,4.430011,400,71,0,0, 0.0
408,434,61,3.807887,434,61,0,0, 0.0
416,462,49,3.132491,462,49,0,0, 0.0
424,484,37,2.657536,484,36,0,-1, 1.0
432,500,23,2.573908,500,22,0,-1, 1.0
440,510,5,2.183031,510,5,0,0, 0.0
448,514,-12,2.388122,514,-13,0,-1, 1.0
456,512,-31,2.926175,512,-32,0,-1, 1.0
464,504,-53,3.132491,504,-53,0,0, 0.0
472,492,-75,3.400368,492,-75,0,0, 0.0
480,476,-97,3.535534,476,-98,0,-1, 1.0
488,456,-117,3.605551,456,-117,0,0, 0.0
496,432,-133,4.272002,432,-133,0,0, 0.0
504,400,-145,4.069705,400,-145,0,0, 0.0
512,368,-151,4.506939,367,-151,-1,0, 1.0
520,332,-153,4.750000,332,-153,0,0, 0.0
528,294,-153,4.776243,294,-153,0,0, 0.0
536,256,-149,4.854122,255,-149,-1,0, 1.0
544,218,-141,4.743416,218,-141,0,0, 0.0
552,182,-129,5.147815,182,-129,0,0, 0.0
560,146,-109,4.451123,145,-109,-1,0, 1.0
568,118,-87,3.905125,116,-87,-2,0, 2.0
576,98,-63,3.354102,99,-63,1,0, 1.0
584,86,-39,3.041381,86,-40,0,-1, 1.0
592,82,-15,2.850439,81,-15,-1,0, 1.0
600,88,7,2.915476,88,7,0,0, 0.0
608,100,27,3.553168,99,27,-1,0, 1.0
616,122,45,3.691206,122,45,0,0, 0.0
624,148,59,3.952847,148,59,0,0, 0.0
632,178,69,4.315669,178,69,0,0, 0.0
640,212,75,4.257347,212,75,0,0, 0.0
648,246,77,4.506939,245,77,-1,0, 1.0
656,282,79,4.506939,282,78,0,-1, 1.0
664,318,77,4.776243,318,77,0,0, 0.0
672,356,73,4.031129,356,73,0,0, 0.0
680,388,69,3.400368,388,68,0,-1, 1.0
688,414,61,2.462214,414,61,0,0, 0.0
696,432,53,1.776584,432,53,0,0, 0.0
704,443,44,1.231107,442,44,-1,0, 1.0
712,447,35,1.644118,446,34,-1,-1, 1.4
720,449,22,2.610077,449,22,0,0, 0.0
728,443,2,3.250000,444,2,1,0, 1.0
736,433,-22,3.816084,433,-22,0,0, 0.0
744,417,-48,3.905125,416,-48,-1,0, 1.0
752,397,-72,3.905125,397,-72,0,0, 0.0
760,373,-92,3.691206,372,-92,-1,0, 1.0
768,347,-106,3.716517,346,-106,-1,0, 1.0
776,319,-116,3.783186,319,-116,0,0, 0.0
784,289,-120,4.527693,289,-120,0,0, 0.0
792,253,-116,4.670385,253,-116,0,0, 0.0
800,217,-106,3.807887,216,-106,-1,0, 1.0
808,189,-94,4.373214,187,-94,-2,0, 2.0
816,159,-76,3.905125,159,-76,0,0, 0.0
824,135,-56,3.553168,135,-56,0,0, 0.0
832,117,-34,3.250000,117,-34,0,0, 0.0
840,107,-10,2.795085,107,-10,0,0, 0.0
848,103,12,2.512469,103,12,0,0, 0.0
856,105,32,2.348537,105,32,0,0, 0.0
864,113,49,2.128673,113,49,0,0, 0.0
872,124,62,2.186607,124,62,0,0, 0.0
880,139,71,2.348537,139,71,0,0, 0.0
888,156,79,3.041381,156,79,0,0, 0.0
896,180,83,2.512469,179,83,-1,0, 1.0
904,200,85,2.139655,200,85,0,0, 0.0
912,217,83,1.397542,217,83,0,0, 0.0
920,228,81,0.951972,228,80,0,-1, 1.0
928,235,78,0.559017,235,78,0,0, 0.0
936,239,76,0.353553,239,75,0,-1, 1.0
944,241,74,0.279508,241,74,0,0, 0.0
952,242,72,0.000000,242,72,0,0, 0.0
