t,x,y,v,xdecoded,ydecoded,xerror,yerror,abserror
0,0,0,0.673146,0,0,0,0, 0.0
8,2,5,1.397542,2,5,0,0, 0.0
16,7,15,1.845603,7,14,0,-1, 1.0
24,14,28,2.186607,14,27,0,-1, 1.0
32,23,43,2.741464,23,43,0,0, 0.0
40,38,59,2.358495,38,58,0,-1, 1.0
48,54,69,2.215006,54,69,0,0, 0.0
56,71,74,2.427061,71,74,0,0, 0.0
64,90,78,2.125000,90,78,0,0, 0.0
72,107,78,2.015564,107,78,0,0, 0.0
80,123,76,1.546165,123,76,0,0, 0.0
88,135,73,1.352082,135,73,0,0, 0.0
96,144,67,1.250000,144,67,0,0, 0.0
104,150,59,1.007782,150,59,0,0, 0.0
112,154,52,0.838525,154,52,0,0, 0.0
120,157,46,0.951972,157,46,0,0, 0.0
128,160,39,1.030776,159,39,-1,0, 1.0
136,162,31,1.700184,162,31,0,0, 0.0
144,166,18,2.253470,166,17,0,-1, 1.0
152,167,0,2.761340,167,0,0,0, 0.0
160,169,-22,2.500000,169,-23,0,-1, 1.0
168,169,-42,2.015564,169,-42,0,0, 0.0
176,167,-58,1.976424,167,-58,0,0, 0.0
184,162,-73,1.286954,162,-73,0,0, 0.0
192,157,-82,0.707107,156,-82,-1,0, 1.0
200,153,-86,0.450694,153,-87,0,-1, 1.0
208,150,-88,0.375000,149,-88,-1,0, 1.0
216,147,-88,0.450694,147,-88,0,0, 0.0
224,144,-86,0.800391,144,-86,0,0, 0.0
232,139,-82,1.566246,139,-82,0,0, 0.0
240,133,-71,2.531057,133,-72,0,-1, 1.0
248,122,-54,3.132491,121,-54,-1,0, 1.0
256,110,-32,3.605551,110,-32,0,0, 0.0
264,94,-8,3.952847,93,-8,-1,0, 1.0
272,76,18,4.451123,75,18,-1,0, 1.0
280,54,46,4.257347,54,46,0,0, 0.0
288,32,72,4.069705,32,72,0,0, 0.0
296,10,96,3.889087,9,96,-1,0, 1.0
304,-12,118,3.363406,-12,118,0,0, 0.0
312,-32,136,3.051639,-32,136,0,0, 0.0
320,-52,150,2.462214,-53,150,-1,0, 1.0
328,-70,158,2.455860,-70,158,0,0, 0.0
336,-89,163,2.139655,-89,163,0,0, 0.0
344,-106,165,1.750000,-106,165,0,0, 0.0
352,-120,165,1.754459,-120,165,0,0, 0.0
360,-134,164,1.463087,-135,164,-1,0, 1.0
368,-145,160,1.185854,-146,160,-1,0, 1.0
376,-154,157,1.352082,-154,157,0,0, 0.0
384,-163,151,1.328768,-163,151,0,0, 0.0
392,-171,144,1.566246,-171,144,0,0, 0.0
400,-177,133,1.546165,-177,133,0,0, 0.0
408,-180,121,1.891593,-180,121,0,0, 0.0
416,-182,106,2.000000,-182,106,0,0, 0.0
424,-182,90,2.061553,-182,90,0,0, 0.0
432,-178,74,1.845603,-178,73,0,-1, 1.0
440,-171,61,1.767767,-171,60,0,-1, 1.0
448,-161,51,2.325134,-161,51,0,0, 0.0
456,-146,40,2.069118,-147,40,-1,0, 1.0
464,-131,33,1.956559,-131,33,0,0, 0.0
472,-117,26,2.236068,-117,25,0,-1, 1.0
480,-101,18,2.183031,-101,18,0,0, 0.0
488,-84,14,2.125000,-84,14,0,0, 0.0
496,-67,14,2.061553,-68,14,-1,0, 1.0
504,-51,18,2.926175,-51,18,0,0, 0.0
512,-29,26,2.915476,-30,26,-1,0, 1.0
520,-9,38,2.850439,-10,38,-1,0, 1.0
528,9,52,3.010399,9,52,0,0, 0.0
536,27,68,2.828427,27,68,0,0, 0.0
544,43,84,2.474874,43,83,0,-1, 1.0
552,57,98,2.128673,57,97,0,-1, 1.0
560,68,111,1.681703,68,110,0,-1, 1.0
568,78,120,1.250000,78,120,0,0, 0.0
576,86,126,0.673146,86,126,0,0, 0.0
584,91,128,0.673146,91,128,0,0, 0.0
592,96,130,0.750000,95,129,-1,-1, 1.4
600,102,130,0.838525,102,129,0,-1, 1.0
608,108,127,0.800391,108,127,0,0, 0.0
616,113,123,1.237437,113,123,0,0, 0.0
624,120,116,1.952562,120,116,0,0, 0.0
632,130,104,2.601082,130,103,0,-1, 1.0
640,142,87,3.400368,142,87,0,0, 0.0
648,158,65,3.259601,158,65,0,0, 0.0
656,172,43,3.132491,172,42,0,-1, 1.0
664,184,21,2.795085,184,21,0,0, 0.0
672,194,1,2.294695,194,1,0,0, 0.0
680,203,-15,1.328768,203,-15,0,0, 0.0
688,210,-23,0.530330,210,-23,0,0, 0.0
696,213,-26,0.176777,213,-27,0,-1, 1.0
704,214,-27,0.125000,214,-27,0,0, 0.0
712,213,-27,0.176777,213,-28,0,-1, 1.0
720,212,-26,0.125000,211,-26,-1,0, 1.0
728,211,-26,0.559017,211,-26,0,0, 0.0
736,207,-24,1.457738,207,-24,0,0, 0.0
744,197,-18,2.766993,197,-18,0,0, 0.0
752,176,-11,4.506939,175,-11,-1,0, 1.0
760,142,1,4.743416,141,0,-1,-1, 1.4
768,106,13,4.981215,106,13,0,0, 0.0
776,68,25,4.911721,68,25,0,0, 0.0
784,30,35,4.670385,29,35,-1,0, 1.0
792,-6,45,4.315669,-6,44,0,-1, 1.0
800,-40,51,3.783186,-40,51,0,0, 0.0
808,-70,55,3.010399,-70,55,0,0, 0.0
816,-94,57,2.375000,-94,57,0,0, 0.0
824,-113,57,1.644118,-114,57,-1,0, 1.0
832,-126,55,0.910014,-126,55,0,0, 0.0
840,-133,53,0.625000,-134,52,-1,-1, 1.4
848,-136,49,0.530330,-136,48,0,-1, 1.0
856,-139,46,0.637377,-139,46,0,0, 0.0
864,-140,41,0.750000,-140,41,0,0, 0.0
872,-140,35,0.838525,-140,35,0,0, 0.0
880,-137,29,0.707107,-137,28,0,-1, 1.0
888,-133,25,0.530330,-133,25,0,0, 0.0
896,-130,22,0.625000,-130,21,0,-1, 1.0
904,-127,18,0.450694,-128,18,-1,0, 1.0
912,-124,16,0.279508,-124,16,0,0, 0.0
920,-122,15,0.000000,-122,15,0,0, 0.0
