t,x,y,v,xdecoded,ydecoded,xerror,yerror,abserror
0,0,0,0.125000,0,0,0,0, 0.0
8,0,-1,0.125000,0,-1,0,0, 0.0
16,-1,-1,0.176777,-1,-1,0,0, 0.0
24,-2,-2,0.450694,-3,-2,-1,0, 1.0
32,0,-5,0.901388,-1,-5,-1,0, 1.0
40,4,-11,1.237437,4,-11,0,0, 0.0
48,11,-18,1.352082,11,-18,0,0, 0.0
56,20,-24,1.566246,20,-24,0,0, 0.0
64,31,-30,1.463087,31,-31,0,-1, 1.0
72,42,-34,1.463087,41,-34,-1,0, 1.0
80,53,-38,1.425219,53,-38,0,0, 0.0
88,64,-41,1.397542,64,-41,0,0, 0.0
96,75,-43,1.125000,74,-43,-1,0, 1.0
104,84,-43,1.131923,83,-43,-1,0, 1.0
112,93,-42,0.883883,93,-42,0,0, 0.0
120,100,-41,0.838525,100,-42,0,-1, 1.0
128,106,-38,0.707107,106,-38,0,0, 0.0
136,110,-34,0.530330,110,-35,0,-1, 1.0
144,113,-31,0.625000,113,-31,0,0, 0.0
152,116,-27,0.750000,115,-28,-1,-1, 1.4
160,116,-21,0.883883,116,-21,0,0, 0.0
168,115,-14,1.068000,115,-15,0,-1, 1.0
176,112,-6,0.910014,112,-6,0,0, 0.0
184,110,1,0.951972,110,1,0,0, 0.0
192,107,8,0.910014,107,7,0,-1, 1.0
200,105,15,0.760345,105,15,0,0, 0.0
208,106,21,0.728869,106,21,0,0, 0.0
216,109,26,1.075291,109,26,0,0, 0.0
224,116,31,1.700184,116,30,0,-1, 1.0
232,129,35,2.651650,129,35,0,0, 0.0
240,150,38,3.508917,150,38,0,0, 0.0
248,178,40,3.377314,177,40,-1,0, 1.0
256,205,41,2.627975,205,41,0,0, 0.0
264,226,42,1.644118,225,41,-1,-1, 1.4
272,239,44,1.007782,239,44,0,0, 0.0
280,247,45,0.637377,247,45,0,0, 0.0
288,252,46,0.353553,252,45,0,-1, 1.0
296,254,48,0.125000,254,48,0,0, 0.0
304,254,49,0.250000,254,49,0,0, 0.0
312,254,51,0.515388,253,51,-1,0, 1.0
320,253,55,0.450694,253,55,0,0, 0.0
328,251,58,0.673146,251,58,0,0, 0.0
336,249,63,0.637377,248,63,-1,0, 1.0
344,248,68,0.750000,248,67,0,-1, 1.0
352,248,74,0.910014,247,74,-1,0, 1.0
360,250,81,0.976281,250,80,0,-1, 1.0
368,255,87,1.250000,255,87,0,0, 0.0
376,263,93,1.625000,263,93,0,0, 0.0
384,275,98,1.858259,275,98,0,0, 0.0
392,289,103,1.789728,289,102,0,-1, 1.0
400,303,106,1.463087,302,105,-1,-1, 1.4
408,314,110,1.068000,314,110,0,0, 0.0
416,322,113,0.673146,322,113,0,0, 0.0
424,327,115,0.450694,327,115,0,0, 0.0
432,330,117,0.279508,330,116,0,-1, 1.0
440,331,119,0.375000,331,119,0,0, 0.0
448,331,122,0.375000,331,121,0,-1, 1.0
456,331,125,0.559017,330,125,-1,0, 1.0
464,329,129,0.707107,328,128,-1,-1, 1.4
472,325,133,0.625000,325,133,0,0, 0.0
480,322,137,0.353553,321,137,-1,0, 1.0
488,320,139,0.176777,320,139,0,0, 0.0
496,319,140,0.000000,318,140,-1,0, 1.0
504,319,140,0.000000,319,140,0,0, 0.0
512,319,140,0.125000,319,139,0,-1, 1.0
520,318,140,0.250000,318,140,0,0, 0.0
528,318,138,0.279508,318,138,0,0, 0.0
536,317,136,0.375000,317,135,0,-1, 1.0
544,317,133,0.625000,317,133,0,0, 0.0
552,314,129,1.179248,314,129,0,0, 0.0
560,306,124,1.231107,305,124,-1,0, 1.0
568,297,120,1.520691,297,120,0,0, 0.0
576,285,118,2.157835,285,118,0,0, 0.0
584,268,115,2.304886,267,115,-1,0, 1.0
592,250,111,1.789728,250,111,0,0, 0.0
600,236,108,1.397542,236,108,0,0, 0.0
608,225,106,1.250000,225,106,0,0, 0.0
616,215,106,1.425219,215,106,0,0, 0.0
624,204,103,2.015564,204,103,0,0, 0.0
632,190,95,2.121320,190,94,0,-1, 1.0
640,178,83,1.546165,178,83,0,0, 0.0
648,175,71,0.910014,174,71,-1,0, 1.0
656,177,64,0.559017,176,63,-1,-1, 1.4
664,179,60,0.395285,179,59,0,-1, 1.0
672,180,57,0.883883,180,57,0,0, 0.0
680,181,50,1.754459,180,49,-1,-1, 1.4
688,182,36,1.754459,182,35,0,-1, 1.0
696,181,22,0.976281,181,22,0,0, 0.0
704,176,16,0.951972,176,15,0,-1, 1.0
712,169,13,1.700184,169,12,0,-1, 1.0
720,156,9,2.761340,156,8,0,-1, 1.0
728,134,7,3.752083,135,7,1,0, 1.0
736,104,6,4.251838,102,5,-2,-1, 2.2
744,70,5,3.633610,70,5,0,0, 0.0
752,41,3,2.388122,41,3,0,0, 0.0
760,22,1,1.425219,20,0,-2,-1, 2.2
768,11,-2,1.152443,11,-2,0,0, 0.0
776,4,-8,0.951972,4,-8,0,0, 0.0
784,1,-15,1.000000,1,-15,0,0, 0.0
792,1,-23,1.346291,1,-23,0,0, 0.0
800,5,-33,1.625000,5,-33,0,0, 0.0
808,10,-45,1.397542,10,-45,0,0, 0.0
816,15,-55,0.951972,14,-55,-1,0, 1.0
824,18,-62,0.515388,17,-62,-1,0, 1.0
832,19,-66,0.395285,19,-66,0,0, 0.0
840,18,-69,0.530330,18,-69,0,0, 0.0
848,15,-72,1.131923,15,-73,0,-1, 1.0
856,6,-73,2.636878,6,-73,0,0, 0.0
864,-15,-75,3.502231,-15,-75,0,0, 0.0
872,-43,-74,3.877016,-44,-74,-1,0, 1.0
880,-74,-73,3.500000,-74,-74,0,-1, 1.0
888,-102,-73,2.378287,-102,-73,0,0, 0.0
896,-121,-74,1.397542,-122,-74,-1,0, 1.0
904,-132,-76,0.728869,-134,-76,-2,0, 2.0
912,-137,-79,0.530330,-138,-79,-1,0, 1.0
920,-140,-82,0.450694,-140,-83,0,-1, 1.0
928,-142,-85,0.375000,-143,-85,-1,0, 1.0
936,-142,-88,0.559017,-142,-88,0,0, 0.0
944,-140,-92,0.450694,-140,-92,0,0, 0.0
952,-138,-95,0.353553,-139,-95,-1,0, 1.0
960,-136,-97,0.353553,-136,-97,0,0, 0.0
968,-134,-99,0.000000,-134,-100,0,-1, 1.0
976,-134,-99,0.000000,-134,-99,0,0, 0.0
984,-134,-99,0.176777,-135,-99,-1,0, 1.0
992,-133,-98,0.176777,-133,-98,0,0, 0.0
1000,-132,-97,0.000000,-132,-98,0,-1, 1.0
