t,x,y,v,xdecoded,ydecoded,xerror,yerror,abserror
0,0,0,0.450694,0,0,0,0, 0.0
8,3,-2,1.068000,3,-2,0,0, 0.0
16,11,-5,1.625000,10,-5,-1,0, 1.0
24,23,-10,1.741049,23,-10,0,0, 0.0
32,36,-15,2.348537,35,-16,-1,-1, 1.4
40,53,-23,2.298097,53,-23,0,0, 0.0
48,70,-30,2.253470,70,-31,0,-1, 1.0
56,87,-36,2.253470,86,-36,-1,0, 1.0
64,104,-42,1.625000,104,-42,0,0, 0.0
72,116,-47,1.667708,116,-47,0,0, 0.0
80,129,-50,1.068000,129,-50,0,0, 0.0
88,137,-53,0.951972,136,-54,-1,-1, 1.4
96,144,-56,0.395285,144,-56,0,0, 0.0
104,147,-57,0.125000,146,-57,-1,0, 1.0
112,148,-57,0.125000,147,-57,-1,0, 1.0
120,149,-57,0.000000,149,-58,0,-1, 1.0
128,149,-57,0.125000,149,-57,0,0, 0.0
136,148,-57,0.000000,148,-57,0,0, 0.0
144,148,-57,0.000000,148,-58,0,-1, 1.0
152,148,-57,0.176777,147,-57,-1,0, 1.0
160,147,-56,0.450694,147,-57,0,-1, 1.0
168,144,-54,1.231107,144,-54,0,0, 0.0
176,135,-50,1.845603,135,-50,0,0, 0.0
184,122,-43,2.298097,122,-43,0,0, 0.0
192,105,-36,2.692582,105,-37,0,-1, 1.0
200,85,-28,2.692582,85,-28,0,0, 0.0
208,65,-20,1.976424,64,-20,-1,0, 1.0
216,50,-15,0.951972,49,-15,-1,0, 1.0
224,43,-12,0.559017,42,-12,-1,0, 1.0
232,39,-10,0.279508,39,-10,0,0, 0.0
240,37,-9,0.000000,37,-9,0,0, 0.0
248,37,-9,0.125000,37,-9,0,0, 0.0
256,38,-9,0.125000,38,-10,0,-1, 1.0
264,39,-9,0.375000,38,-9,-1,0, 1.0
272,42,-9,0.750000,42,-9,0,0, 0.0
280,48,-9,0.673146,48,-10,0,-1, 1.0
288,53,-11,0.883883,53,-12,0,-1, 1.0
296,60,-12,0.515388,60,-12,0,0, 0.0
304,64,-13,0.125000,64,-13,0,0, 0.0
312,65,-13,0.176777,65,-13,0,0, 0.0
320,66,-14,0.000000,65,-14,-1,0, 1.0
328,66,-14,0.125000,66,-14,0,0, 0.0
336,65,-14,0.125000,65,-15,0,-1, 1.0
344,64,-14,0.279508,63,-14,-1,0, 1.0
352,62,-13,0.760345,62,-14,0,-1, 1.0
360,56,-12,0.838525,55,-12,-1,0, 1.0
368,50,-9,0.910014,50,-9,0,0, 0.0
376,43,-7,0.760345,43,-7,0,0, 0.0
384,37,-6,0.353553,37,-6,0,0, 0.0
392,35,-4,0.125000,35,-4,0,0, 0.0
400,34,-4,0.000000,34,-4,0,0, 0.0
408,34,-4,0.125000,34,-5,0,-1, 1.0
416,35,-4,0.250000,35,-4,0,0, 0.0
424,37,-4,0.875000,37,-4,0,0, 0.0
432,44,-4,1.274755,43,-5,-1,-1, 1.4
440,54,-6,1.940522,53,-7,-1,-1, 1.4
448,69,-10,1.463087,69,-10,0,0, 0.0
456,80,-14,1.068000,79,-14,-1,0, 1.0
464,88,-17,0.559017,88,-17,0,0, 0.0
472,92,-19,0.000000,91,-19,-1,0, 1.0
480,92,-19,0.279508,92,-19,0,0, 0.0
488,90,-18,0.000000,90,-18,0,0, 0.0
496,90,-18,0.125000,90,-18,0,0, 0.0
504,89,-18,0.125000,89,-19,0,-1, 1.0
512,88,-18,0.395285,87,-18,-1,0, 1.0
520,85,-17,0.450694,84,-18,-1,-1, 1.4
528,82,-15,0.395285,82,-15,0,0, 0.0
536,79,-14,0.395285,79,-14,0,0, 0.0
544,76,-13,0.279508,75,-14,-1,-1, 1.4
552,74,-12,0.176777,74,-12,0,0, 0.0
560,73,-11,0.000000,72,-11,-1,0, 1.0
568,73,-11,0.000000,73,-11,0,0, 0.0
576,73,-11,0.000000,73,-12,0,-1, 1.0
