t,x,y,v,xdecoded,ydecoded,xerror,yerror,abserror
0,0,0,0.353553,0,0,0,0, 0.0
8,2,2,0.838525,2,2,0,0, 0.0
16,5,8,1.397542,5,8,0,0, 0.0
24,10,18,1.677051,10,18,0,0, 0.0
32,16,30,1.510381,16,30,0,0, 0.0
40,21,41,1.525819,21,41,0,0, 0.0
48,28,51,1.152443,28,51,0,0, 0.0
56,34,58,0.976281,34,58,0,0, 0.0
64,39,64,0.728869,39,64,0,0, 0.0
72,44,67,1.068000,43,67,-1,0, 1.0
80,52,70,1.152443,51,69,-1,-1, 1.4
88,61,72,1.274755,61,72,0,0, 0.0
96,71,70,1.976424,70,69,-1,-1, 1.4
104,86,65,2.692582,85,65,-1,0, 1.0
112,106,57,3.020761,106,57,0,0, 0.0
120,128,47,3.354102,128,47,0,0, 0.0
128,152,35,3.816084,152,35,0,0, 0.0
136,178,19,3.400368,178,19,0,0, 0.0
144,200,3,3.553168,200,2,0,-1, 1.0
152,222,-15,3.535534,221,-16,-1,-1, 1.4
160,242,-35,3.051639,241,-35,-1,0, 1.0
168,256,-55,2.573908,255,-55,-1,0, 1.0
176,266,-73,2.253470,266,-73,0,0, 0.0
184,272,-90,2.157835,271,-90,-1,0, 1.0
192,275,-107,1.397542,275,-108,0,-1, 1.0
200,277,-118,1.152443,277,-118,0,0, 0.0
208,275,-127,0.800391,275,-127,0,0, 0.0
216,271,-132,0.707107,271,-132,0,0, 0.0
224,267,-136,0.951972,266,-136,-1,0, 1.0
232,260,-139,1.256234,260,-139,0,0, 0.0
240,250,-140,1.667708,250,-140,0,0, 0.0
248,237,-137,2.414151,237,-137,0,0, 0.0
256,219,-130,3.132491,218,-130,-1,0, 1.0
264,197,-118,3.816084,197,-119,0,-1, 1.0
272,171,-102,5.202163,170,-102,-1,0, 1.0
280,137,-78,5.153882,137,-79,0,-1, 1.0
288,105,-52,5.000000,105,-52,0,0, 0.0
296,73,-28,4.802343,72,-28,-1,0, 1.0
304,43,-4,4.451123,43,-5,0,-1, 1.0
312,15,18,4.100305,15,17,0,-1, 1.0
320,-11,38,3.605551,-11,38,0,0, 0.0
328,-35,54,3.259601,-35,53,0,-1, 1.0
336,-57,68,3.132491,-57,67,0,-1, 1.0
344,-79,80,2.795085,-80,80,-1,0, 1.0
352,-99,90,2.019437,-99,90,0,0, 0.0
360,-114,96,2.183031,-114,96,0,0, 0.0
368,-131,100,1.629801,-131,100,0,0, 0.0
376,-144,101,1.750000,-144,101,0,0, 0.0
384,-158,101,1.667708,-158,101,0,0, 0.0
392,-171,98,2.095382,-171,98,0,0, 0.0
400,-187,93,2.125000,-187,93,0,0, 0.0
408,-202,85,2.325134,-202,85,0,0, 0.0
416,-217,74,2.298097,-218,74,-1,0, 1.0
424,-230,61,2.128673,-230,61,0,0, 0.0
432,-241,48,2.465385,-241,47,0,-1, 1.0
440,-251,31,2.462214,-251,31,0,0, 0.0
448,-259,13,2.490607,-259,13,0,0, 0.0
456,-265,-6,3.335416,-265,-6,0,0, 0.0
464,-271,-32,3.010399,-272,-33,-1,-1, 1.4
472,-273,-56,3.010399,-273,-56,0,0, 0.0
480,-275,-80,2.500000,-275,-80,0,0, 0.0
488,-275,-100,2.183031,-275,-100,0,0, 0.0
496,-271,-117,1.397542,-271,-117,0,0, 0.0
504,-266,-127,1.152443,-266,-128,0,-1, 1.0
512,-259,-133,1.425219,-259,-133,0,0, 0.0
520,-248,-136,1.397542,-248,-136,0,0, 0.0
528,-237,-138,1.940522,-238,-138,-1,0, 1.0
536,-222,-134,2.490607,-222,-134,0,0, 0.0
544,-203,-128,3.020761,-203,-128,0,0, 0.0
552,-181,-118,3.605551,-181,-118,0,0, 0.0
560,-157,-102,4.301163,-157,-102,0,0, 0.0
568,-129,-82,5.153882,-129,-82,0,0, 0.0
576,-97,-56,4.962358,-97,-56,0,0, 0.0
584,-67,-30,4.802343,-67,-31,0,-1, 1.0
592,-37,-6,4.301163,-38,-7,-1,-1, 1.4
600,-9,14,3.913119,-10,14,-1,0, 1.0
608,19,28,3.716517,19,27,0,-1, 1.0
616,47,38,3.535534,47,38,0,0, 0.0
624,75,42,4.007805,74,41,-1,-1, 1.4
632,107,44,3.783186,107,43,0,-1, 1.0
640,137,40,3.400368,137,39,0,-1, 1.0
648,163,32,3.020761,163,32,0,0, 0.0
656,185,22,2.657536,185,22,0,0, 0.0
664,201,8,2.225562,201,8,0,0, 0.0
672,212,-6,1.677051,211,-7,-1,-1, 1.4
680,218,-18,1.912132,218,-18,0,0, 0.0
688,221,-33,1.767767,221,-33,0,0, 0.0
696,223,-47,2.427061,223,-47,0,0, 0.0
704,219,-66,2.348537,219,-67,0,-1, 1.0
712,211,-83,2.325134,211,-83,0,0, 0.0
720,200,-98,2.657536,200,-98,0,0, 0.0
728,184,-112,2.462214,183,-112,-1,0, 1.0
736,166,-120,2.918154,165,-120,-1,0, 1.0
744,143,-124,3.250000,143,-124,0,0, 0.0
752,117,-124,3.041381,117,-124,0,0, 0.0
760,93,-120,3.824265,93,-120,0,0, 0.0
768,63,-114,4.430011,63,-114,0,0, 0.0
776,29,-104,4.506939,29,-104,0,0, 0.0
784,-5,-92,4.981215,-6,-92,-1,0, 1.0
792,-43,-80,4.670385,-43,-81,0,-1, 1.0
800,-79,-70,4.911721,-79,-71,0,-1, 1.0
808,-117,-60,3.824265,-117,-60,0,0, 0.0
816,-147,-54,3.041381,-147,-55,0,-1, 1.0
824,-171,-50,2.015564,-171,-51,0,-1, 1.0
832,-187,-48,0.875000,-187,-48,0,0, 0.0
840,-194,-48,0.375000,-195,-48,-1,0, 1.0
848,-197,-48,0.279508,-197,-49,0,-1, 1.0
856,-199,-49,0.176777,-200,-49,-1,0, 1.0
864,-200,-50,0.125000,-200,-50,0,0, 0.0
872,-200,-51,0.250000,-201,-52,-1,-1, 1.4
880,-200,-53,0.250000,-200,-53,0,0, 0.0
888,-200,-55,0.279508,-200,-55,0,0, 0.0
896,-199,-57,0.125000,-199,-58,0,-1, 1.0
904,-199,-58,0.125000,-199,-58,0,0, 0.0
912,-199,-59,0.000000,-200,-59,-1,0, 1.0
