t,x,y,v,xdecoded,ydecoded,xerror,yerror,abserror
0,0,0,0.125000,0,0,0,0, 0.0
8,1,0,0.250000,1,0,0,0, 0.0
16,3,0,0.790569,3,-1,0,-1, 1.0
24,9,-2,2.136001,9,-3,0,-1, 1.0
32,25,-8,2.531057,23,-8,-2,0, 2.0
40,44,-15,3.250000,43,-15,-1,0, 1.0
48,68,-25,3.644345,67,-25,-1,0, 1.0
56,95,-36,2.531057,95,-36,0,0, 0.0
64,114,-43,2.136001,115,-43,1,0, 1.0
72,130,-49,1.068000,129,-49,-1,0, 1.0
80,138,-52,0.450694,137,-52,-1,0, 1.0
88,141,-54,0.279508,141,-54,0,0, 0.0
96,143,-55,0.000000,143,-55,0,0, 0.0
104,143,-55,0.000000,143,-55,0,0, 0.0
112,143,-55,0.125000,142,-56,-1,-1, 1.4
120,142,-55,0.125000,142,-55,0,0, 0.0
128,141,-55,0.450694,141,-55,0,0, 0.0
136,138,-53,0.901388,138,-53,0,0, 0.0
144,132,-49,2.069118,132,-49,0,0, 0.0
152,117,-42,2.404423,118,-42,1,0, 1.0
160,100,-33,3.132491,100,-33,0,0, 0.0
168,78,-21,3.807887,78,-21,0,0, 0.0
176,50,-9,3.482097,50,-10,0,-1, 1.0
184,24,1,3.250000,24,0,0,-1, 1.0
192,0,11,1.667708,0,11,0,0, 0.0
200,-13,14,0.515388,-12,14,1,0, 1.0
208,-17,15,0.125000,-18,15,-1,0, 1.0
216,-17,16,0.176777,-18,15,-1,-1, 1.4
224,-16,17,0.395285,-16,17,0,0, 0.0
232,-13,16,1.185854,-13,16,0,0, 0.0
240,-4,13,2.648703,-4,13,0,0, 0.0
248,16,6,3.716517,17,6,1,0, 1.0
256,44,-4,3.250000,44,-4,0,0, 0.0
264,68,-14,2.692582,68,-15,0,-1, 1.0
272,88,-22,1.457738,88,-22,0,0, 0.0
280,98,-28,0.559017,96,-28,-2,0, 2.0
288,102,-30,0.250000,102,-30,0,0, 0.0
296,102,-32,0.279508,102,-33,0,-1, 1.0
304,100,-33,0.375000,100,-33,0,0, 0.0
312,97,-33,0.637377,97,-34,0,-1, 1.0
320,92,-32,1.007782,92,-32,0,0, 0.0
328,84,-31,1.667708,84,-31,0,0, 0.0
336,71,-28,2.136001,70,-28,-1,0, 1.0
344,55,-22,1.858259,55,-22,0,0, 0.0
352,41,-17,1.858259,41,-17,0,0, 0.0
360,27,-12,1.305038,26,-13,-1,-1, 1.4
368,17,-9,0.728869,17,-10,0,-1, 1.0
376,12,-6,0.176777,12,-6,0,0, 0.0
384,11,-5,0.000000,11,-5,0,0, 0.0
392,11,-5,0.125000,11,-5,0,0, 0.0
400,12,-5,0.500000,12,-6,0,-1, 1.0
408,16,-5,1.250000,16,-5,0,0, 0.0
416,26,-5,1.505199,26,-5,0,0, 0.0
424,38,-6,1.820027,38,-6,0,0, 0.0
432,52,-10,1.425219,52,-10,0,0, 0.0
440,63,-13,0.637377,63,-13,0,0, 0.0
448,68,-14,0.125000,68,-14,0,0, 0.0
456,69,-14,0.176777,69,-14,0,0, 0.0
464,70,-15,0.176777,69,-15,-1,0, 1.0
472,71,-16,0.000000,71,-17,0,-1, 1.0
480,71,-16,0.375000,71,-16,0,0, 0.0
488,68,-16,0.500000,68,-16,0,0, 0.0
496,64,-16,0.500000,64,-17,0,-1, 1.0
504,60,-16,0.760345,59,-16,-1,0, 1.0
512,54,-15,0.637377,53,-16,-1,-1, 1.4
520,49,-14,0.515388,49,-14,0,0, 0.0
528,45,-13,0.279508,44,-13,-1,0, 1.0
536,43,-12,0.000000,43,-13,0,-1, 1.0
