t,x,y,v,xdecoded,ydecoded,xerror,yerror,abserror
0,0,0,0.279508,0,0,0,0, 0.0
8,2,-1,1.030776,2,-1,0,0, 0.0
16,10,-3,1.625000,10,-3,0,0, 0.0
24,22,-8,2.683864,22,-8,0,0, 0.0
32,41,-18,2.926175,41,-18,0,0, 0.0
40,63,-26,3.020761,63,-26,0,0, 0.0
48,85,-36,2.926175,85,-36,0,0, 0.0
56,107,-44,2.692582,107,-44,0,0, 0.0
64,127,-52,2.692582,127,-52,0,0, 0.0
72,147,-60,2.183031,147,-60,0,0, 0.0
80,163,-67,1.510381,163,-67,0,0, 0.0
88,174,-72,1.068000,174,-72,0,0, 0.0
96,182,-75,0.728869,182,-75,0,0, 0.0
104,187,-78,0.353553,187,-78,0,0, 0.0
112,189,-80,0.125000,189,-80,0,0, 0.0
120,190,-80,0.125000,190,-80,0,0, 0.0
128,189,-80,0.176777,189,-80,0,0, 0.0
136,188,-79,0.176777,188,-79,0,0, 0.0
144,187,-78,0.559017,187,-78,0,0, 0.0
152,183,-76,1.457738,183,-76,0,0, 0.0
160,173,-70,2.404423,173,-70,0,0, 0.0
168,156,-61,3.020761,156,-61,0,0, 0.0
176,134,-51,3.579455,134,-51,0,0, 0.0
184,108,-39,4.366062,108,-39,0,0, 0.0
192,76,-25,3.807887,76,-25,0,0, 0.0
200,48,-13,3.716517,48,-13,0,0, 0.0
208,20,-3,2.610077,20,-3,0,0, 0.0
216,0,3,1.305038,0,3,0,0, 0.0
224,-10,6,0.353553,-10,6,0,0, 0.0
232,-12,8,0.250000,-12,8,0,0, 0.0
240,-10,8,1.068000,-10,8,0,0, 0.0
248,-2,5,3.245189,-2,5,0,0, 0.0
256,23,-2,4.190764,23,-2,0,0, 0.0
264,55,-12,4.743416,55,-12,0,0, 0.0
272,91,-24,4.981215,91,-24,0,0, 0.0
280,129,-36,3.250000,129,-36,0,0, 0.0
288,153,-46,1.903943,153,-46,0,0, 0.0
296,167,-52,0.395285,167,-52,0,0, 0.0
304,168,-55,0.395285,168,-55,0,0, 0.0
312,165,-56,0.875000,165,-56,0,0, 0.0
320,158,-56,1.274755,158,-56,0,0, 0.0
328,148,-54,1.879162,148,-54,0,0, 0.0
336,133,-53,2.183031,133,-53,0,0, 0.0
344,116,-49,2.136001,116,-49,0,0, 0.0
352,100,-43,2.850439,100,-43,0,0, 0.0
360,78,-37,2.335193,78,-37,0,0, 0.0
368,60,-32,1.820027,60,-32,0,0, 0.0
376,46,-28,0.838525,46,-28,0,0, 0.0
384,40,-25,0.279508,40,-25,0,0, 0.0
392,38,-24,0.000000,38,-24,0,0, 0.0
400,38,-24,0.125000,38,-24,0,0, 0.0
408,39,-24,0.375000,39,-24,0,0, 0.0
416,42,-24,0.883883,42,-24,0,0, 0.0
424,49,-25,1.644118,49,-25,0,0, 0.0
432,62,-27,1.667708,62,-27,0,0, 0.0
440,75,-30,1.820027,75,-30,0,0, 0.0
448,89,-34,0.883883,89,-34,0,0, 0.0
456,96,-35,0.250000,96,-35,0,0, 0.0
464,98,-35,0.125000,98,-35,0,0, 0.0
472,98,-36,0.000000,98,-36,0,0, 0.0
480,98,-36,0.125000,98,-36,0,0, 0.0
488,99,-36,0.000000,99,-36,0,0, 0.0
496,99,-36,0.250000,99,-36,0,0, 0.0
504,97,-36,0.375000,97,-36,0,0, 0.0
512,94,-36,0.395285,94,-36,0,0, 0.0
520,91,-35,0.375000,91,-35,0,0, 0.0
528,88,-35,0.000000,88,-35,0,0, 0.0
