t,x,y,v,xdecoded,ydecoded,xerror,yerror,abserror
0,0,0,0.250000,0,0,0,0, 0.0
8,0,-2,0.375000,0,-2,0,0, 0.0
16,0,-5,0.673146,0,-5,0,0, 0.0
24,2,-10,0.838525,2,-10,0,0, 0.0
32,5,-16,1.505199,5,-16,0,0, 0.0
40,13,-25,1.767767,13,-25,0,0, 0.0
48,23,-35,2.034853,23,-35,0,0, 0.0
56,35,-46,2.427061,35,-46,0,0, 0.0
64,51,-57,2.348537,51,-57,0,0, 0.0
72,68,-65,2.298097,68,-65,0,0, 0.0
80,85,-72,2.427061,85,-72,0,0, 0.0
88,104,-76,2.761340,104,-76,0,0, 0.0
96,126,-78,3.000000,126,-78,0,0, 0.0
104,150,-78,3.010399,150,-78,0,0, 0.0
112,174,-76,3.092329,174,-76,0,0, 0.0
120,198,-70,2.573908,198,-70,0,0, 0.0
128,216,-60,2.500000,216,-60,0,0, 0.0
136,232,-48,2.752839,232,-48,0,0, 0.0
144,246,-31,3.020761,246,-31,0,0, 0.0
152,256,-9,3.400368,256,-9,0,0, 0.0
160,264,17,3.535534,264,17,0,0, 0.0
168,268,45,4.500000,268,45,0,0, 0.0
176,268,81,4.069705,268,81,0,0, 0.0
184,262,113,3.640055,262,113,0,0, 0.0
192,254,141,3.354102,254,141,0,0, 0.0
200,242,165,3.010399,242,165,0,0, 0.0
208,226,183,2.850439,226,183,0,0, 0.0
216,208,197,2.795085,208,197,0,0, 0.0
224,188,207,2.850439,188,207,0,0, 0.0
232,166,213,3.508917,166,213,0,0, 0.0
240,138,215,3.750000,138,215,0,0, 0.0
248,108,215,4.031129,108,215,0,0, 0.0
256,76,211,4.430011,76,211,0,0, 0.0
264,42,201,4.828302,42,201,0,0, 0.0
272,6,187,5.367728,6,187,0,0, 0.0
280,-32,167,5.408327,-32,167,0,0, 0.0
288,-68,143,5.700877,-68,143,0,0, 0.0
296,-104,115,4.776243,-104,115,0,0, 0.0
304,-130,87,4.160829,-130,87,0,0, 0.0
312,-148,59,3.640055,-148,59,0,0, 0.0
320,-156,31,3.758324,-156,31,0,0, 0.0
328,-154,1,3.952847,-154,1,0,0, 0.0
336,-144,-29,4.589390,-144,-29,0,0, 0.0
344,-126,-61,5.667892,-126,-61,0,0, 0.0
352,-96,-95,5.700877,-96,-95,0,0, 0.0
360,-60,-123,5.814852,-60,-123,0,0, 0.0
368,-18,-143,6.427480,-18,-143,0,0, 0.0
376,32,-155,6.768493,32,-155,0,0, 0.0
384,86,-159,6.543126,86,-159,0,0, 0.0
392,138,-153,7.040064,138,-153,0,0, 0.0
400,192,-137,7.382412,192,-137,0,0, 0.0
408,244,-109,6.403124,244,-109,0,0, 0.0
416,284,-77,5.350234,284,-77,0,0, 0.0
424,310,-43,4.596194,310,-43,0,0, 0.0
432,324,-9,4.031129,324,-9,0,0, 0.0
440,328,23,3.824265,328,23,0,0, 0.0
448,322,53,4.031129,322,53,0,0, 0.0
456,306,81,4.596194,306,81,0,0, 0.0
464,280,107,5.830952,280,107,0,0, 0.0
472,240,131,5.618051,240,131,0,0, 0.0
480,198,147,5.836309,198,147,0,0, 0.0
488,152,155,6.005206,152,155,0,0, 0.0
496,104,157,6.046693,104,157,0,0, 0.0
504,56,151,6.427480,56,151,0,0, 0.0
512,6,139,6.878408,6,139,0,0, 0.0
520,-46,121,7.382412,-46,121,0,0, 0.0
528,-98,93,6.451744,-98,93,0,0, 0.0
536,-140,63,5.482928,-140,63,0,0, 0.0
544,-172,33,4.716991,-172,33,0,0, 0.0
552,-192,1,4.123106,-192,1,0,0, 0.0
560,-200,-31,4.007805,-200,-31,0,0, 0.0
568,-198,-63,4.596194,-198,-63,0,0, 0.0
576,-184,-97,5.505679,-184,-97,0,0, 0.0
584,-156,-131,6.051859,-156,-131,0,0, 0.0
592,-118,-161,6.149187,-118,-161,0,0, 0.0
600,-74,-183,6.490377,-74,-183,0,0, 0.0
608,-24,-197,7.040064,-24,-197,0,0, 0.0
616,32,-203,6.750000,32,-203,0,0, 0.0
624,86,-203,6.619101,86,-203,0,0, 0.0
632,138,-193,6.828250,138,-193,0,0, 0.0
640,188,-171,5.755432,188,-171,0,0, 0.0
648,226,-145,5.000000,226,-145,0,0, 0.0
656,250,-113,4.506939,250,-113,0,0, 0.0
664,262,-79,4.257347,262,-79,0,0, 0.0
672,260,-45,4.596194,260,-45,0,0, 0.0
680,246,-11,5.315073,246,-11,0,0, 0.0
688,218,21,6.051859,218,21,0,0, 0.0
696,180,51,6.828250,180,51,0,0, 0.0
704,130,73,6.427480,130,73,0,0, 0.0
712,80,85,6.269968,80,85,0,0, 0.0
720,30,89,6.294839,30,89,0,0, 0.0
728,-20,83,6.128825,-20,83,0,0, 0.0
736,-68,73,6.010408,-68,73,0,0, 0.0
744,-114,59,5.590170,-114,59,0,0, 0.0
752,-154,39,5.505679,-154,39,0,0, 0.0
760,-188,11,4.802343,-188,11,0,0, 0.0
768,-212,-19,4.038874,-212,-19,0,0, 0.0
776,-224,-49,4.007805,-224,-49,0,0, 0.0
784,-226,-81,4.190764,-226,-81,0,0, 0.0
792,-216,-113,4.716991,-216,-113,0,0, 0.0
800,-196,-145,5.315073,-196,-145,0,0, 0.0
808,-164,-173,7.044501,-164,-173,0,0, 0.0
816,-114,-199,7.352721,-114,-199,0,0, 0.0
824,-58,-217,7.318641,-58,-217,0,0, 0.0
832,0,-225,7.254309,0,-225,0,0, 0.0
840,58,-223,7.158911,58,-223,0,0, 0.0
848,114,-211,6.408003,114,-211,0,0, 0.0
856,162,-193,5.830952,162,-193,0,0, 0.0
864,202,-169,5.667892,202,-169,0,0, 0.0
872,232,-135,4.472136,232,-135,0,0, 0.0
880,248,-103,4.007805,248,-103,0,0, 0.0
888,250,-71,4.038874,250,-71,0,0, 0.0
896,238,-41,4.257347,238,-41,0,0, 0.0
904,216,-15,4.854122,216,-15,0,0, 0.0
912,184,7,5.153882,184,7,0,0, 0.0
920,146,23,5.153882,146,23,0,0, 0.0
928,106,33,5.771698,106,33,0,0, 0.0
936,60,37,5.522681,60,37,0,0, 0.0
944,16,33,5.396758,16,33,0,0, 0.0
952,-26,23,4.828302,-26,23,0,0, 0.0
960,-62,9,4.373214,-62,9,0,0, 0.0
968,-92,-9,4.422952,-92,-9,0,0, 0.0
976,-118,-33,3.952847,-118,-33,0,0, 0.0
984,-136,-59,3.579455,-136,-59,0,0, 0.0
992,-148,-85,3.288237,-148,-85,0,0, 0.0
1000,-152,-111,3.259601,-152,-111,0,0, 0.0
1008,-150,-137,3.716517,-150,-137,0,0, 0.0
1016,-140,-165,3.816084,-140,-165,0,0, 0.0
1024,-124,-191,3.905125,-124,-191,0,0, 0.0
1032,-104,-215,3.553168,-104,-215,0,0, 0.0
1040,-82,-233,2.915476,-82,-233,0,0, 0.0
1048,-62,-245,1.976424,-62,-245,0,0, 0.0
1056,-47,-250,1.581139,-47,-250,0,0, 0.0
1064,-35,-254,0.883883,-35,-254,0,0, 0.0
1072,-28,-255,0.000000,-28,-255,0,0, 0.0
