t,x,y,v,xdecoded,ydecoded,xerror,yerror,abserror
0,0,0,0.125000,0,0,0,0, 0.0
8,1,0,0.515388,1,0,0,0, 0.0
16,5,-1,1.700184,5,-1,0,0, 0.0
24,18,-5,2.610077,18,-5,0,0, 0.0
32,38,-11,2.610077,38,-11,0,0, 0.0
40,58,-17,2.253470,58,-17,0,0, 0.0
48,75,-23,1.397542,75,-23,0,0, 0.0
56,85,-28,0.625000,85,-28,0,0, 0.0
64,89,-31,0.279508,89,-31,0,0, 0.0
72,91,-32,0.125000,91,-32,0,0, 0.0
80,91,-33,0.176777,91,-33,0,0, 0.0
88,90,-34,0.559017,90,-34,0,0, 0.0
96,86,-36,1.346291,86,-36,0,0, 0.0
104,76,-40,3.321333,76,-40,0,0, 0.0
112,51,-49,3.952847,51,-49,0,0, 0.0
120,21,-59,4.506939,21,-59,0,0, 0.0
128,-13,-71,4.743416,-13,-71,0,0, 0.0
136,-49,-83,4.981215,-49,-83,0,0, 0.0
144,-87,-95,4.828302,-87,-95,0,0, 0.0
152,-123,-109,4.366062,-123,-109,0,0, 0.0
160,-155,-123,4.373214,-155,-123,0,0, 0.0
168,-185,-141,3.400368,-185,-141,0,0, 0.0
176,-207,-157,2.304886,-207,-157,0,0, 0.0
184,-219,-171,1.625000,-219,-171,0,0, 0.0
192,-224,-183,1.789728,-224,-183,0,0, 0.0
200,-221,-197,2.950106,-221,-197,0,0, 0.0
208,-207,-216,4.242641,-207,-216,0,0, 0.0
216,-183,-240,6.209871,-183,-240,0,0, 0.0
224,-145,-272,6.914658,-145,-272,0,0, 0.0
232,-103,-308,6.950719,-103,-308,0,0, 0.0
240,-59,-342,6.403124,-59,-342,0,0, 0.0
248,-19,-374,5.153882,-19,-374,0,0, 0.0
256,13,-400,3.716517,13,-400,0,0, 0.0
264,33,-422,1.976424,33,-422,0,0, 0.0
272,42,-435,1.068000,42,-435,0,0, 0.0
280,39,-443,1.677051,39,-443,0,0, 0.0
288,27,-449,3.520032,27,-449,0,0, 0.0
296,0,-457,5.099020,0,-457,0,0, 0.0
304,-40,-465,5.771698,-40,-465,0,0, 0.0
312,-86,-469,6.254998,-86,-469,0,0, 0.0
320,-136,-471,6.504806,-136,-471,0,0, 0.0
328,-188,-473,5.250000,-188,-473,0,0, 0.0
336,-230,-473,3.250000,-230,-473,0,0, 0.0
344,-256,-473,1.375000,-256,-473,0,0, 0.0
352,-267,-473,0.375000,-267,-473,0,0, 0.0
360,-270,-473,0.250000,-270,-473,0,0, 0.0
368,-268,-473,1.125000,-268,-473,0,0, 0.0
376,-259,-473,2.375000,-259,-473,0,0, 0.0
384,-240,-473,4.007805,-240,-473,0,0, 0.0
392,-208,-475,4.756574,-208,-475,0,0, 0.0
400,-170,-477,5.303301,-170,-477,0,0, 0.0
408,-128,-483,5.550901,-128,-483,0,0, 0.0
416,-84,-489,4.123106,-84,-489,0,0, 0.0
424,-52,-497,2.304886,-52,-497,0,0, 0.0
432,-34,-501,1.068000,-34,-501,0,0, 0.0
440,-26,-504,0.279508,-26,-504,0,0, 0.0
448,-24,-505,0.000000,-24,-505,0,0, 0.0
456,-24,-505,0.279508,-24,-505,0,0, 0.0
464,-26,-506,0.760345,-26,-506,0,0, 0.0
472,-32,-507,1.891593,-32,-507,0,0, 0.0
480,-47,-509,2.000000,-47,-509,0,0, 0.0
488,-63,-509,2.000000,-63,-509,0,0, 0.0
496,-79,-509,1.520691,-79,-509,0,0, 0.0
504,-91,-507,0.637377,-91,-507,0,0, 0.0
512,-96,-506,0.279508,-96,-506,0,0, 0.0
520,-98,-505,0.176777,-98,-505,0,0, 0.0
528,-99,-504,0.353553,-99,-504,0,0, 0.0
536,-97,-502,0.625000,-97,-502,0,0, 0.0
544,-93,-499,2.298097,-93,-499,0,0, 0.0
552,-76,-492,2.926175,-76,-492,0,0, 0.0
560,-54,-484,3.335416,-54,-484,0,0, 0.0
568,-28,-478,3.092329,-28,-478,0,0, 0.0
576,-4,-472,3.092329,-4,-472,0,0, 0.0
584,20,-466,2.610077,20,-466,0,0, 0.0
592,40,-460,1.976424,40,-460,0,0, 0.0
600,55,-455,1.075291,55,-455,0,0, 0.0
608,62,-450,0.707107,62,-450,0,0, 0.0
616,66,-446,0.395285,66,-446,0,0, 0.0
624,67,-443,0.515388,67,-443,0,0, 0.0
632,66,-439,1.179248,66,-439,0,0, 0.0
640,61,-431,2.211476,61,-431,0,0, 0.0
648,49,-418,3.475360,49,-418,0,0, 0.0
656,27,-401,3.952847,27,-401,0,0, 0.0
664,1,-383,3.952847,1,-383,0,0, 0.0
672,-25,-365,3.750000,-25,-365,0,0, 0.0
680,-49,-347,3.010399,-49,-347,0,0, 0.0
688,-65,-329,2.236068,-65,-329,0,0, 0.0
696,-73,-313,1.750000,-73,-313,0,0, 0.0
704,-73,-299,2.531057,-73,-299,0,0, 0.0
712,-62,-282,3.201562,-62,-282,0,0, 0.0
720,-42,-266,4.250000,-42,-266,0,0, 0.0
728,-12,-250,4.924429,-12,-250,0,0, 0.0
736,24,-234,5.771698,24,-234,0,0, 0.0
744,68,-220,6.184658,68,-220,0,0, 0.0
752,116,-208,5.700877,116,-208,0,0, 0.0
760,160,-196,5.396758,160,-196,0,0, 0.0
768,202,-186,3.716517,202,-186,0,0, 0.0
776,230,-176,2.183031,230,-176,0,0, 0.0
784,246,-169,1.152443,246,-169,0,0, 0.0
792,252,-162,0.760345,252,-162,0,0, 0.0
800,251,-156,1.505199,251,-156,0,0, 0.0
808,243,-147,2.877716,243,-147,0,0, 0.0
816,224,-134,4.250000,224,-134,0,0, 0.0
824,194,-118,5.062114,194,-118,0,0, 0.0
832,156,-104,5.618051,156,-104,0,0, 0.0
840,114,-88,5.533986,114,-88,0,0, 0.0
848,72,-74,5.771698,72,-74,0,0, 0.0
856,28,-60,4.038874,28,-60,0,0, 0.0
864,-2,-48,2.573908,-2,-48,0,0, 0.0
872,-20,-38,1.152443,-20,-38,0,0, 0.0
880,-26,-31,0.637377,-26,-31,0,0, 0.0
888,-25,-26,1.328768,-25,-26,0,0, 0.0
896,-17,-19,3.522251,-17,-19,0,0, 0.0
904,8,-6,4.272002,8,-6,0,0, 0.0
912,40,6,5.062114,40,6,0,0, 0.0
920,78,20,5.220153,78,20,0,0, 0.0
928,118,32,5.000000,118,32,0,0, 0.0
936,158,32,4.250000,158,32,0,0, 0.0
944,192,32,3.250000,192,32,0,0, 0.0
952,218,32,2.000000,218,32,0,0, 0.0
960,234,32,1.125000,234,32,0,0, 0.0
968,243,32,0.125000,243,32,0,0, 0.0
976,244,32,0.500000,244,32,0,0, 0.0
984,240,32,1.375000,240,32,0,0, 0.0
992,229,32,2.500000,229,32,0,0, 0.0
1000,209,32,3.250000,209,32,0,0, 0.0
1008,183,32,3.750000,183,32,0,0, 0.0
1016,153,32,4.000000,153,32,0,0, 0.0
1024,121,32,4.000000,121,32,0,0, 0.0
1032,89,32,3.500000,89,32,0,0, 0.0
1040,61,32,2.500000,61,32,0,0, 0.0
1048,41,32,1.125000,41,32,0,0, 0.0
1056,32,32,0.125000,32,32,0,0, 0.0
1064,31,32,0.500000,31,32,0,0, 0.0
1072,35,32,1.250000,35,32,0,0, 0.0
1080,45,32,2.625000,45,32,0,0, 0.0
1088,66,32,3.500000,66,32,0,0, 0.0
1096,94,32,4.000000,94,32,0,0, 0.0
1104,126,32,4.500000,126,32,0,0, 0.0
1112,162,32,4.500000,162,32,0,0, 0.0
1120,198,32,3.500000,198,32,0,0, 0.0
1128,226,32,2.125000,226,32,0,0, 0.0
1136,243,32,1.000000,243,32,0,0, 0.0
1144,251,32,0.375000,251,32,0,0, 0.0
1152,254,32,0.176777,254,32,0,0, 0.0
1160,255,33,0.125000,255,33,0,0, 0.0
1168,254,33,0.125000,254,33,0,0, 0.0
1176,253,33,0.125000,253,33,0,0, 0.0
1184,253,32,0.176777,253,32,0,0, 0.0
1192,254,31,0.000000,254,31,0,0, 0.0
1200,254,31,0.125000,254,31,0,0, 0.0
1208,253,31,0.125000,253,31,0,0, 0.0
1216,253,30,0.000000,253,30,0,0, 0.0
