t,x,y,v,xdecoded,ydecoded,xerror,yerror,abserror
0,0,0,0.375000,0,0,0,0, 0.0
8,0,3,0.790569,0,3,0,0, 0.0
16,2,9,1.118034,2,9,0,0, 0.0
24,6,17,1.352082,6,17,0,0, 0.0
32,12,26,1.600781,12,26,0,0, 0.0
40,20,36,2.150581,20,36,0,0, 0.0
48,34,46,2.915476,34,46,0,0, 0.0
56,54,58,3.250000,54,58,0,0, 0.0
64,78,68,4.123106,78,68,0,0, 0.0
72,110,76,5.303301,110,76,0,0, 0.0
80,152,82,5.771698,152,82,0,0, 0.0
88,198,86,6.250000,198,86,0,0, 0.0
96,248,86,6.504806,248,86,0,0, 0.0
104,300,84,6.791539,300,84,0,0, 0.0
112,354,78,6.329494,354,78,0,0, 0.0
120,404,70,6.184658,404,70,0,0, 0.0
128,452,58,6.087898,452,58,0,0, 0.0
136,498,42,5.031153,498,42,0,0, 0.0
144,534,24,4.301163,534,24,0,0, 0.0
152,562,4,3.889087,562,4,0,0, 0.0
160,584,-18,3.816084,584,-18,0,0, 0.0
168,600,-44,3.250000,600,-44,0,0, 0.0
176,610,-68,3.288237,610,-68,0,0, 0.0
184,614,-94,4.069705,614,-94,0,0, 0.0
192,608,-126,4.038874,608,-126,0,0, 0.0
200,596,-156,4.301163,596,-156,0,0, 0.0
208,576,-184,4.242641,576,-184,0,0, 0.0
216,552,-208,4.506939,552,-208,0,0, 0.0
224,522,-228,4.924429,522,-228,0,0, 0.0
232,486,-244,5.153882,486,-244,0,0, 0.0
240,446,-254,5.798707,446,-254,0,0, 0.0
248,400,-260,7.516648,400,-260,0,0, 0.0
256,340,-264,7.004463,340,-264,0,0, 0.0
264,284,-262,7.288690,284,-262,0,0, 0.0
272,226,-256,7.356969,226,-256,0,0, 0.0
280,168,-246,7.040064,168,-246,0,0, 0.0
288,114,-230,6.600189,114,-230,0,0, 0.0
296,66,-208,6.103278,66,-208,0,0, 0.0
304,26,-180,6.020797,26,-180,0,0, 0.0
312,-6,-144,5.147815,-6,-144,0,0, 0.0
320,-26,-108,4.670385,-26,-108,0,0, 0.0
328,-36,-72,4.257347,-36,-72,0,0, 0.0
336,-34,-38,3.952847,-34,-38,0,0, 0.0
344,-24,-8,3.952847,-24,-8,0,0, 0.0
352,-6,18,4.069705,-6,18,0,0, 0.0
360,18,40,4.472136,18,40,0,0, 0.0
368,50,56,5.700877,50,56,0,0, 0.0
376,94,68,6.082763,94,68,0,0, 0.0
384,142,76,6.020797,142,76,0,0, 0.0
392,190,80,6.254998,190,80,0,0, 0.0
400,240,82,6.020797,240,82,0,0, 0.0
408,288,78,5.344390,288,78,0,0, 0.0
416,330,70,4.911721,330,70,0,0, 0.0
424,368,60,4.808846,368,60,0,0, 0.0
432,402,42,3.553168,402,42,0,0, 0.0
440,424,24,3.259601,424,24,0,0, 0.0
448,438,2,3.162278,438,2,0,0, 0.0
456,446,-22,3.535534,446,-22,0,0, 0.0
464,442,-50,3.807887,442,-50,0,0, 0.0
472,430,-78,4.716991,430,-78,0,0, 0.0
480,410,-110,5.836309,410,-110,0,0, 0.0
488,378,-144,6.051859,378,-144,0,0, 0.0
496,340,-174,5.590170,340,-174,0,0, 0.0
504,300,-194,5.460082,300,-194,0,0, 0.0
512,258,-206,5.798707,258,-206,0,0, 0.0
520,212,-212,5.750000,212,-212,0,0, 0.0
528,166,-212,5.344390,166,-212,0,0, 0.0
536,124,-204,5.153882,124,-204,0,0, 0.0
544,86,-188,5.202163,86,-188,0,0, 0.0
552,52,-164,4.257347,52,-164,0,0, 0.0
560,30,-138,3.807887,30,-138,0,0, 0.0
568,18,-110,3.579455,18,-110,0,0, 0.0
576,12,-82,3.535534,12,-82,0,0, 0.0
584,16,-54,4.038874,16,-54,0,0, 0.0
592,28,-24,3.952847,28,-24,0,0, 0.0
600,46,2,3.889087,46,2,0,0, 0.0
608,68,24,3.605551,68,24,0,0, 0.0
616,92,40,4.038874,92,40,0,0, 0.0
624,122,52,4.854122,122,52,0,0, 0.0
632,160,60,4.776243,160,60,0,0, 0.0
640,198,64,4.500000,198,64,0,0, 0.0
648,234,64,4.527693,234,64,0,0, 0.0
656,270,60,3.824265,270,60,0,0, 0.0
664,300,54,3.400368,300,54,0,0, 0.0
672,326,46,2.795085,326,46,0,0, 0.0
680,346,36,2.657536,346,36,0,0, 0.0
688,362,22,1.700184,362,22,0,0, 0.0
696,370,11,1.030776,370,11,0,0, 0.0
704,372,3,0.760345,372,3,0,0, 0.0
712,371,-3,0.883883,371,-3,0,0, 0.0
720,366,-8,1.274755,366,-8,0,0, 0.0
728,356,-10,2.139655,356,-10,0,0, 0.0
736,339,-12,3.508917,339,-12,0,0, 0.0
744,311,-10,5.640257,311,-10,0,0, 0.0
752,267,0,6.010408,267,0,0,0, 0.0
760,221,14,6.324555,221,14,0,0, 0.0
768,173,30,6.408003,173,30,0,0, 0.0
776,125,48,5.852350,125,48,0,0, 0.0
784,81,64,5.153882,81,64,0,0, 0.0
792,43,80,3.913119,43,80,0,0, 0.0
800,15,94,2.358495,15,94,0,0, 0.0
808,-1,104,0.901388,-1,104,0,0, 0.0
816,-7,108,0.250000,-7,108,0,0, 0.0
824,-7,110,0.515388,-7,110,0,0, 0.0
832,-3,111,1.644118,-3,111,0,0, 0.0
840,10,109,3.400368,10,109,0,0, 0.0
848,36,101,4.596194,36,101,0,0, 0.0
856,70,87,5.814852,70,87,0,0, 0.0
864,112,67,5.814852,112,67,0,0, 0.0
872,154,47,5.618051,154,47,0,0, 0.0
880,192,23,5.550901,192,23,0,0, 0.0
888,228,-3,5.129571,228,-3,0,0, 0.0
896,258,-31,4.451123,258,-31,0,0, 0.0
904,280,-59,4.250000,280,-59,0,0, 0.0
912,296,-89,4.315669,296,-89,0,0, 0.0
920,302,-123,3.259601,302,-123,0,0, 0.0
928,300,-149,2.692582,300,-149,0,0, 0.0
936,292,-169,2.304886,292,-169,0,0, 0.0
944,278,-181,2.095382,278,-181,0,0, 0.0
952,262,-186,2.378287,262,-186,0,0, 0.0
960,243,-185,3.354102,243,-185,0,0, 0.0
968,219,-173,4.257347,219,-173,0,0, 0.0
976,193,-151,4.451123,193,-151,0,0, 0.0
984,171,-123,4.373214,171,-123,0,0, 0.0
992,153,-93,4.272002,153,-93,0,0, 0.0
1000,141,-61,3.824265,141,-61,0,0, 0.0
1008,135,-31,3.288237,135,-31,0,0, 0.0
1016,131,-5,2.761340,131,-5,0,0, 0.0
1024,133,17,1.912132,133,17,0,0, 0.0
1032,136,32,1.068000,136,32,0,0, 0.0
1040,139,40,0.530330,139,40,0,0, 0.0
1048,142,43,0.279508,142,43,0,0, 0.0
1056,144,44,0.176777,144,44,0,0, 0.0
1064,143,45,0.000000,143,45,0,0, 0.0
