t,x,y,v,xdecoded,ydecoded,xerror,yerror,abserror
0,0,0,0.125000,0,0,0,0, 0.0
8,1,0,0.395285,1,0,0,0, 0.0
16,4,-1,0.790569,4,-1,0,0, 0.0
24,10,-3,0.838525,10,-3,0,0, 0.0
32,16,-6,1.231107,16,-6,0,0, 0.0
40,25,-10,1.741049,25,-10,0,0, 0.0
48,38,-15,1.741049,38,-15,0,0, 0.0
56,51,-20,1.858259,51,-20,0,0, 0.0
64,65,-25,1.903943,65,-25,0,0, 0.0
72,79,-31,1.956559,79,-31,0,0, 0.0
80,93,-38,1.118034,93,-38,0,0, 0.0
88,101,-42,0.728869,101,-42,0,0, 0.0
96,106,-45,0.279508,106,-45,0,0, 0.0
104,108,-46,0.125000,108,-46,0,0, 0.0
112,109,-46,0.125000,109,-46,0,0, 0.0
120,109,-47,0.000000,109,-47,0,0, 0.0
128,109,-47,0.000000,109,-47,0,0, 0.0
136,109,-47,0.125000,109,-47,0,0, 0.0
144,108,-47,0.250000,108,-47,0,0, 0.0
152,106,-47,0.515388,106,-47,0,0, 0.0
160,102,-46,0.838525,102,-46,0,0, 0.0
168,96,-43,1.274755,96,-43,0,0, 0.0
176,86,-41,1.510381,86,-41,0,0, 0.0
184,75,-36,2.095382,75,-36,0,0, 0.0
192,59,-31,1.903943,59,-31,0,0, 0.0
200,45,-25,1.625000,45,-25,0,0, 0.0
208,33,-20,1.231107,33,-20,0,0, 0.0
216,24,-16,0.728869,24,-16,0,0, 0.0
224,19,-13,0.279508,19,-13,0,0, 0.0
232,17,-12,0.125000,17,-12,0,0, 0.0
240,16,-12,0.125000,16,-12,0,0, 0.0
248,17,-12,0.250000,17,-12,0,0, 0.0
256,19,-12,0.625000,19,-12,0,0, 0.0
264,24,-12,1.256234,24,-12,0,0, 0.0
272,34,-13,2.610077,34,-13,0,0, 0.0
280,54,-19,3.162278,54,-19,0,0, 0.0
288,78,-27,2.926175,78,-27,0,0, 0.0
296,100,-35,2.462214,100,-35,0,0, 0.0
304,118,-43,1.397542,118,-43,0,0, 0.0
312,128,-48,0.559017,128,-48,0,0, 0.0
320,132,-50,0.176777,132,-50,0,0, 0.0
328,133,-51,0.000000,133,-51,0,0, 0.0
336,133,-51,0.176777,133,-51,0,0, 0.0
344,132,-52,0.375000,132,-52,0,0, 0.0
352,129,-52,0.750000,129,-52,0,0, 0.0
360,123,-52,1.305038,123,-52,0,0, 0.0
368,113,-49,1.667708,113,-49,0,0, 0.0
376,100,-46,2.095382,100,-46,0,0, 0.0
384,84,-41,2.348537,84,-41,0,0, 0.0
392,67,-33,1.858259,67,-33,0,0, 0.0
400,53,-28,1.305038,53,-28,0,0, 0.0
408,43,-25,0.559017,43,-25,0,0, 0.0
416,39,-23,0.176777,39,-23,0,0, 0.0
424,38,-22,0.125000,38,-22,0,0, 0.0
432,38,-21,0.250000,38,-21,0,0, 0.0
440,40,-21,0.875000,40,-21,0,0, 0.0
448,47,-21,1.520691,47,-21,0,0, 0.0
456,59,-23,2.034853,59,-23,0,0, 0.0
464,75,-26,2.427061,75,-26,0,0, 0.0
472,94,-30,2.019437,94,-30,0,0, 0.0
480,109,-36,1.185854,109,-36,0,0, 0.0
488,118,-39,0.559017,118,-39,0,0, 0.0
496,122,-41,0.176777,122,-41,0,0, 0.0
504,123,-42,0.125000,123,-42,0,0, 0.0
512,124,-42,0.125000,124,-42,0,0, 0.0
520,124,-43,0.279508,124,-43,0,0, 0.0
528,122,-44,0.375000,122,-44,0,0, 0.0
536,119,-44,0.500000,119,-44,0,0, 0.0
544,115,-44,0.500000,115,-44,0,0, 0.0
552,111,-44,0.625000,111,-44,0,0, 0.0
560,106,-44,0.760345,106,-44,0,0, 0.0
568,100,-43,0.637377,100,-43,0,0, 0.0
576,95,-42,0.395285,95,-42,0,0, 0.0
584,92,-41,0.279508,92,-41,0,0, 0.0
592,90,-40,0.250000,90,-40,0,0, 0.0
600,88,-40,0.125000,88,-40,0,0, 0.0
608,87,-40,0.125000,87,-40,0,0, 0.0
616,86,-40,0.125000,86,-40,0,0, 0.0
624,86,-39,0.125000,86,-39,0,0, 0.0
632,87,-39,0.125000,87,-39,0,0, 0.0
640,88,-39,0.125000,88,-39,0,0, 0.0
648,89,-39,0.125000,89,-39,0,0, 0.0
656,90,-39,0.000000,90,-39,0,0, 0.0
