t,x,y,v,xdecoded,ydecoded,xerror,yerror,abserror
0,0,0,0.279508,0,0,0,0, 0.0
8,2,1,0.625000,2,1,0,0, 0.0
16,6,4,1.346291,6,4,0,0, 0.0
24,16,8,2.335193,16,8,0,0, 0.0
32,34,13,3.579455,34,13,0,0, 0.0
40,62,19,4.527693,62,19,0,0, 0.0
48,98,23,5.255949,98,23,0,0, 0.0
56,140,25,6.754628,140,25,0,0, 0.0
64,194,27,7.000000,194,27,0,0, 0.0
72,250,27,7.754031,250,27,0,0, 0.0
80,312,25,7.516648,312,25,0,0, 0.0
88,372,21,7.288690,372,21,0,0, 0.0
96,430,15,6.373774,430,15,0,0, 0.0
104,480,5,4.981215,480,5,0,0, 0.0
112,518,-7,4.373214,518,-7,0,0, 0.0
120,548,-25,3.201562,548,-25,0,0, 0.0
128,564,-45,3.092329,564,-45,0,0, 0.0
136,570,-69,3.579455,570,-69,0,0, 0.0
144,564,-97,3.579455,564,-97,0,0, 0.0
152,552,-123,4.716991,552,-123,0,0, 0.0
160,532,-155,5.700877,532,-155,0,0, 0.0
168,504,-191,6.403124,504,-191,0,0, 0.0
176,472,-231,7.810250,472,-231,0,0, 0.0
184,432,-279,7.071068,432,-279,0,0, 0.0
192,392,-319,6.103278,392,-319,0,0, 0.0
200,352,-347,5.255949,352,-347,0,0, 0.0
208,314,-365,4.609772,314,-365,0,0, 0.0
216,278,-373,4.506939,278,-373,0,0, 0.0
224,242,-375,4.527693,242,-375,0,0, 0.0
232,206,-371,4.981215,206,-371,0,0, 0.0
240,168,-359,4.924429,168,-359,0,0, 0.0
248,132,-343,4.930771,132,-343,0,0, 0.0
256,98,-323,4.802343,98,-323,0,0, 0.0
264,68,-299,4.776243,68,-299,0,0, 0.0
272,42,-271,5.062114,42,-271,0,0, 0.0
280,20,-237,5.711830,20,-237,0,0, 0.0
288,2,-195,5.396758,2,-195,0,0, 0.0
296,-8,-153,4.756574,-8,-153,0,0, 0.0
304,-10,-115,4.123106,-10,-115,0,0, 0.0
312,-2,-83,3.605551,-2,-83,0,0, 0.0
320,14,-59,3.816084,14,-59,0,0, 0.0
328,40,-43,4.190764,40,-43,0,0, 0.0
336,72,-33,5.798707,72,-33,0,0, 0.0
344,118,-27,6.254998,118,-27,0,0, 0.0
352,168,-25,6.254998,168,-25,0,0, 0.0
360,218,-27,6.519202,218,-27,0,0, 0.0
368,270,-31,6.082763,270,-31,0,0, 0.0
376,318,-39,5.884301,318,-39,0,0, 0.0
384,364,-49,4.981215,364,-49,0,0, 0.0
392,402,-61,4.138236,402,-61,0,0, 0.0
400,432,-75,3.201562,432,-75,0,0, 0.0
408,452,-91,2.358495,452,-91,0,0, 0.0
416,462,-107,1.767767,462,-107,0,0, 0.0
424,464,-121,2.236068,464,-121,0,0, 0.0
432,456,-137,3.094855,456,-137,0,0, 0.0
440,439,-155,4.160829,439,-155,0,0, 0.0
448,411,-173,4.808846,411,-173,0,0, 0.0
456,377,-191,6.087898,377,-191,0,0, 0.0
464,331,-207,6.329494,331,-207,0,0, 0.0
472,281,-215,6.254998,281,-215,0,0, 0.0
480,231,-217,6.046693,231,-217,0,0, 0.0
488,183,-211,6.184658,183,-211,0,0, 0.0
496,135,-199,6.087898,135,-199,0,0, 0.0
504,89,-183,5.488625,89,-183,0,0, 0.0
512,51,-161,5.315073,51,-161,0,0, 0.0
520,19,-133,4.160829,19,-133,0,0, 0.0
528,1,-105,3.952847,1,-105,0,0, 0.0
536,-9,-75,3.508917,-9,-75,0,0, 0.0
544,-7,-47,3.716517,-7,-47,0,0, 0.0
552,3,-19,3.905125,3,-19,0,0, 0.0
560,23,5,4.451123,23,5,0,0, 0.0
568,51,27,5.385165,51,27,0,0, 0.0
576,91,43,5.396758,91,43,0,0, 0.0
584,133,53,5.522681,133,53,0,0, 0.0
592,177,57,5.505679,177,57,0,0, 0.0
600,221,59,5.505679,221,59,0,0, 0.0
608,265,57,5.550901,265,57,0,0, 0.0
616,309,51,4.854122,309,51,0,0, 0.0
624,347,43,4.506939,347,43,0,0, 0.0
632,381,31,3.473111,381,31,0,0, 0.0
640,405,17,2.657536,405,17,0,0, 0.0
648,419,1,2.069118,419,1,0,0, 0.0
656,426,-14,2.388122,426,-14,0,0, 0.0
664,424,-33,3.250000,424,-33,0,0, 0.0
672,414,-57,3.952847,414,-57,0,0, 0.0
680,396,-83,4.949747,396,-83,0,0, 0.0
688,368,-111,6.209871,368,-111,0,0, 0.0
696,330,-143,6.451744,330,-143,0,0, 0.0
704,288,-173,6.174545,288,-173,0,0, 0.0
712,246,-199,6.149187,246,-199,0,0, 0.0
720,202,-221,5.700877,202,-221,0,0, 0.0
728,158,-233,5.255949,158,-233,0,0, 0.0
736,116,-235,5.153882,116,-235,0,0, 0.0
744,76,-225,5.618051,76,-225,0,0, 0.0
752,38,-201,5.303301,38,-201,0,0, 0.0
760,8,-171,5.062114,8,-171,0,0, 0.0
768,-14,-137,4.828302,-14,-137,0,0, 0.0
776,-28,-101,4.315669,-28,-101,0,0, 0.0
784,-34,-67,4.007805,-34,-67,0,0, 0.0
792,-36,-35,3.535534,-36,-35,0,0, 0.0
800,-32,-7,3.132491,-32,-7,0,0, 0.0
808,-20,15,3.201562,-20,15,0,0, 0.0
816,0,31,3.482097,0,31,0,0, 0.0
824,26,41,4.031129,26,41,0,0, 0.0
832,58,45,4.808846,58,45,0,0, 0.0
840,96,39,4.981215,96,39,0,0, 0.0
848,134,27,5.385165,134,27,0,0, 0.0
856,174,11,5.367728,174,11,0,0, 0.0
864,212,-9,5.550901,212,-9,0,0, 0.0
872,248,-35,4.776243,248,-35,0,0, 0.0
880,276,-61,3.952847,276,-61,0,0, 0.0
888,294,-87,3.400368,294,-87,0,0, 0.0
896,302,-113,2.549510,302,-113,0,0, 0.0
904,306,-133,1.754459,306,-133,0,0, 0.0
912,305,-147,1.179248,305,-147,0,0, 0.0
920,300,-155,1.305038,300,-155,0,0, 0.0
928,290,-158,1.879162,290,-158,0,0, 0.0
936,275,-159,2.388122,275,-159,0,0, 0.0
944,256,-157,2.549510,256,-157,0,0, 0.0
952,236,-153,2.215006,236,-153,0,0, 0.0
960,219,-148,1.736555,219,-148,0,0, 0.0
968,207,-141,1.525819,207,-141,0,0, 0.0
976,197,-134,1.060660,197,-134,0,0, 0.0
984,191,-128,0.450694,191,-128,0,0, 0.0
992,189,-125,0.000000,189,-125,0,0, 0.0
