t,x,y,v,xdecoded,ydecoded,xerror,yerror,abserror
0,0,0,0.279508,0,0,0,0, 0.0
8,1,2,0.901388,1,2,0,0, 0.0
16,7,6,1.776584,7,6,0,0, 0.0
24,18,15,3.051639,18,15,0,0, 0.0
32,38,29,2.704163,38,29,0,0, 0.0
40,56,41,2.573908,56,41,0,0, 0.0
48,74,51,2.125000,74,51,0,0, 0.0
56,89,59,1.858259,89,59,0,0, 0.0
64,103,64,1.789728,103,64,0,0, 0.0
72,117,67,1.463087,117,67,0,0, 0.0
80,128,71,1.380670,128,71,0,0, 0.0
88,139,72,1.125000,139,72,0,0, 0.0
96,148,72,0.750000,148,72,0,0, 0.0
104,154,72,0.625000,154,72,0,0, 0.0
112,159,72,0.450694,159,72,0,0, 0.0
120,162,70,0.673146,162,70,0,0, 0.0
128,167,68,0.625000,167,68,0,0, 0.0
136,170,64,0.728869,170,64,0,0, 0.0
144,175,61,0.976281,175,61,0,0, 0.0
152,180,55,1.414214,180,55,0,0, 0.0
160,188,47,2.050152,188,47,0,0, 0.0
168,198,34,2.601082,198,34,0,0, 0.0
176,210,17,2.704163,210,17,0,0, 0.0
184,222,-1,2.186607,222,-1,0,0, 0.0
192,231,-16,1.845603,231,-16,0,0, 0.0
200,238,-29,1.510381,238,-29,0,0, 0.0
208,243,-40,1.185854,243,-40,0,0, 0.0
216,246,-49,0.910014,246,-49,0,0, 0.0
224,248,-56,0.750000,248,-56,0,0, 0.0
232,248,-62,0.500000,248,-62,0,0, 0.0
240,248,-66,0.250000,248,-66,0,0, 0.0
248,248,-68,0.279508,248,-68,0,0, 0.0
256,246,-69,0.515388,246,-69,0,0, 0.0
264,242,-70,1.000000,242,-70,0,0, 0.0
272,234,-70,1.546165,234,-70,0,0, 0.0
280,222,-67,2.490607,222,-67,0,0, 0.0
288,203,-61,3.162278,203,-61,0,0, 0.0
296,179,-53,3.354102,179,-53,0,0, 0.0
304,155,-41,3.579455,155,-41,0,0, 0.0
312,129,-29,4.373214,129,-29,0,0, 0.0
320,99,-11,3.952847,99,-11,0,0, 0.0
328,73,7,3.952847,73,7,0,0, 0.0
336,47,25,3.553168,47,25,0,0, 0.0
344,25,43,3.716517,25,43,0,0, 0.0
352,3,63,3.363406,3,63,0,0, 0.0
360,-17,81,3.363406,-17,81,0,0, 0.0
368,-37,99,3.010399,-37,99,0,0, 0.0
376,-55,115,2.828427,-55,115,0,0, 0.0
384,-71,131,2.657536,-71,131,0,0, 0.0
392,-87,145,1.976424,-87,145,0,0, 0.0
400,-100,154,1.525819,-100,154,0,0, 0.0
408,-110,161,1.231107,-110,161,0,0, 0.0
416,-119,165,0.910014,-119,165,0,0, 0.0
424,-126,167,0.760345,-126,167,0,0, 0.0
432,-132,168,1.000000,-132,168,0,0, 0.0
440,-140,168,1.007782,-140,168,0,0, 0.0
448,-148,167,1.185854,-148,167,0,0, 0.0
456,-157,164,1.068000,-157,164,0,0, 0.0
464,-165,161,1.397542,-165,161,0,0, 0.0
472,-176,159,1.007782,-176,159,0,0, 0.0
480,-183,155,1.075291,-183,155,0,0, 0.0
488,-190,150,1.352082,-190,150,0,0, 0.0
496,-196,141,1.457738,-196,141,0,0, 0.0
504,-202,131,1.667708,-202,131,0,0, 0.0
512,-205,118,2.061553,-205,118,0,0, 0.0
520,-209,102,1.767767,-209,102,0,0, 0.0
528,-211,88,2.250000,-211,88,0,0, 0.0
536,-211,70,1.820027,-211,70,0,0, 0.0
544,-207,56,1.736555,-207,56,0,0, 0.0
552,-200,44,1.767767,-200,44,0,0, 0.0
560,-190,34,1.625000,-190,34,0,0, 0.0
568,-178,29,1.912132,-178,29,0,0, 0.0
576,-163,26,3.010399,-163,26,0,0, 0.0
584,-139,24,4.007805,-139,24,0,0, 0.0
592,-107,26,3.824265,-107,26,0,0, 0.0
600,-77,32,4.190764,-77,32,0,0, 0.0
608,-45,42,4.038874,-45,42,0,0, 0.0
616,-15,54,3.807887,-15,54,0,0, 0.0
624,13,66,3.579455,13,66,0,0, 0.0
632,39,78,3.020761,39,78,0,0, 0.0
640,61,88,3.020761,61,88,0,0, 0.0
648,83,98,2.610077,83,98,0,0, 0.0
656,103,104,2.215006,103,104,0,0, 0.0
664,120,109,1.767767,120,109,0,0, 0.0
672,134,111,1.767767,134,111,0,0, 0.0
680,148,113,1.125000,148,113,0,0, 0.0
688,157,113,1.030776,157,113,0,0, 0.0
696,165,111,0.910014,165,111,0,0, 0.0
704,172,109,0.728869,172,109,0,0, 0.0
712,177,106,0.530330,177,106,0,0, 0.0
720,180,103,0.800391,180,103,0,0, 0.0
728,184,98,1.118034,184,98,0,0, 0.0
736,188,90,1.425219,188,90,0,0, 0.0
744,191,79,1.891593,191,79,0,0, 0.0
752,193,64,2.388122,193,64,0,0, 0.0
760,195,45,3.000000,195,45,0,0, 0.0
768,195,21,3.750000,195,21,0,0, 0.0
776,195,-9,3.500000,195,-9,0,0, 0.0
784,195,-37,3.250000,195,-37,0,0, 0.0
792,195,-63,2.750000,195,-63,0,0, 0.0
800,195,-85,2.125000,195,-85,0,0, 0.0
808,195,-102,1.520691,195,-102,0,0, 0.0
816,193,-114,1.075291,193,-114,0,0, 0.0
824,188,-121,1.075291,188,-121,0,0, 0.0
832,181,-126,1.068000,181,-126,0,0, 0.0
840,173,-129,1.667708,173,-129,0,0, 0.0
848,160,-132,2.263846,160,-132,0,0, 0.0
856,142,-134,2.750000,142,-134,0,0, 0.0
864,120,-134,3.010399,120,-134,0,0, 0.0
872,96,-132,3.041381,96,-132,0,0, 0.0
880,72,-128,3.579455,72,-128,0,0, 0.0
888,44,-122,2.850439,44,-122,0,0, 0.0
896,22,-116,2.610077,22,-116,0,0, 0.0
904,2,-110,1.397542,2,-110,0,0, 0.0
912,-8,-105,0.637377,-8,-105,0,0, 0.0
920,-13,-104,0.000000,-13,-104,0,0, 0.0
