t,x,y,v,xdecoded,ydecoded,xerror,yerror,abserror
0,0,0,0.125000,0,0,0,0, 0.0
8,1,0,0.625000,1,0,0,0, 0.0
16,6,0,1.625000,6,0,0,0, 0.0
24,19,0,2.761340,19,0,0,0, 0.0
32,41,-2,3.010399,41,-2,0,0, 0.0
40,65,-4,3.259601,65,-4,0,0, 0.0
48,91,-6,3.250000,91,-6,0,0, 0.0
56,117,-6,3.259601,117,-6,0,0, 0.0
64,143,-8,3.000000,143,-8,0,0, 0.0
72,167,-8,3.000000,167,-8,0,0, 0.0
80,191,-8,2.125000,191,-8,0,0, 0.0
88,208,-8,1.250000,208,-8,0,0, 0.0
96,218,-8,0.395285,218,-8,0,0, 0.0
104,221,-7,0.279508,221,-7,0,0, 0.0
112,223,-6,0.250000,223,-6,0,0, 0.0
120,223,-4,0.395285,223,-4,0,0, 0.0
128,222,-1,0.976281,222,-1,0,0, 0.0
136,216,4,1.425219,216,4,0,0, 0.0
144,207,11,2.809026,207,11,0,0, 0.0
152,188,23,3.913119,188,23,0,0, 0.0
160,160,37,5.255949,160,37,0,0, 0.0
168,122,55,5.385165,122,55,0,0, 0.0
176,82,71,5.942432,82,71,0,0, 0.0
184,38,89,5.711830,38,89,0,0, 0.0
192,-4,107,4.697074,-4,107,0,0, 0.0
200,-38,123,3.691206,-38,123,0,0, 0.0
208,-64,137,2.500000,-64,137,0,0, 0.0
216,-80,149,1.068000,-80,149,0,0, 0.0
224,-83,157,1.237437,-83,157,0,0, 0.0
232,-76,164,2.648703,-76,164,0,0, 0.0
240,-56,171,4.911721,-56,171,0,0, 0.0
248,-18,181,8.097067,-18,181,0,0, 0.0
256,46,191,8.558621,46,191,0,0, 0.0
264,114,199,8.806957,114,199,0,0, 0.0
272,184,207,8.284021,184,207,0,0, 0.0
280,250,213,7.040064,250,213,0,0, 0.0
288,306,219,5.055937,306,219,0,0, 0.0
296,346,225,2.850439,346,225,0,0, 0.0
304,368,231,1.075291,368,231,0,0, 0.0
312,375,236,0.637377,375,236,0,0, 0.0
320,374,241,1.397542,374,241,0,0, 0.0
328,364,246,3.242780,364,246,0,0, 0.0
336,341,258,5.297405,341,258,0,0, 0.0
344,301,272,6.010408,301,272,0,0, 0.0
352,255,286,6.490377,255,286,0,0, 0.0
360,205,300,6.731456,205,300,0,0, 0.0
368,153,314,6.490377,153,314,0,0, 0.0
376,103,328,5.618051,103,328,0,0, 0.0
384,61,344,4.031129,61,344,0,0, 0.0
392,33,360,3.010399,33,360,0,0, 0.0
400,17,378,1.940522,17,378,0,0, 0.0
408,13,393,1.956559,13,393,0,0, 0.0
416,20,407,3.010399,20,407,0,0, 0.0
424,38,423,3.816084,38,423,0,0, 0.0
432,64,439,4.697074,64,439,0,0, 0.0
440,98,455,5.153882,98,455,0,0, 0.0
448,136,471,6.010408,136,471,0,0, 0.0
456,182,485,5.220153,182,485,0,0, 0.0
464,222,497,4.272002,222,497,0,0, 0.0
472,254,509,3.250000,254,509,0,0, 0.0
480,278,519,2.050152,278,519,0,0, 0.0
488,291,529,1.328768,291,529,0,0, 0.0
496,298,537,0.750000,298,537,0,0, 0.0
504,298,543,1.352082,298,543,0,0, 0.0
512,292,552,2.833946,292,552,0,0, 0.0
520,275,567,3.905125,275,567,0,0, 0.0
528,251,587,4.506939,251,587,0,0, 0.0
536,221,607,5.062114,221,607,0,0, 0.0
544,187,629,5.273756,187,629,0,0, 0.0
552,151,651,5.062114,151,651,0,0, 0.0
560,117,673,4.100305,117,673,0,0, 0.0
568,91,693,3.363406,91,693,0,0, 0.0
576,73,713,1.776584,73,713,0,0, 0.0
584,64,724,0.875000,64,724,0,0, 0.0
592,64,731,1.060660,64,731,0,0, 0.0
600,70,737,1.976424,70,737,0,0, 0.0
608,85,742,3.250000,85,742,0,0, 0.0
616,111,742,4.750000,111,742,0,0, 0.0
624,149,742,4.750000,149,742,0,0, 0.0
632,187,742,4.500000,187,742,0,0, 0.0
640,223,742,3.750000,223,742,0,0, 0.0
648,253,742,2.500000,253,742,0,0, 0.0
656,273,742,0.875000,273,742,0,0, 0.0
664,280,742,0.000000,280,742,0,0, 0.0
672,280,742,0.125000,280,742,0,0, 0.0
680,281,742,0.375000,281,742,0,0, 0.0
688,278,742,0.875000,278,742,0,0, 0.0
696,271,742,2.125000,271,742,0,0, 0.0
704,254,742,3.125000,254,742,0,0, 0.0
712,229,742,4.000000,229,742,0,0, 0.0
720,197,742,4.000000,197,742,0,0, 0.0
728,165,742,3.500000,165,742,0,0, 0.0
736,137,742,2.250000,137,742,0,0, 0.0
744,119,742,0.750000,119,742,0,0, 0.0
752,113,742,0.125000,113,742,0,0, 0.0
760,112,742,0.375000,112,742,0,0, 0.0
768,115,742,1.375000,115,742,0,0, 0.0
776,126,742,2.500000,126,742,0,0, 0.0
784,146,742,3.750000,146,742,0,0, 0.0
792,176,742,4.250000,176,742,0,0, 0.0
800,210,742,4.250000,210,742,0,0, 0.0
808,244,742,4.250000,244,742,0,0, 0.0
816,278,742,3.000000,278,742,0,0, 0.0
824,302,742,1.375000,302,742,0,0, 0.0
832,313,742,0.375000,313,742,0,0, 0.0
840,316,742,0.125000,316,742,0,0, 0.0
848,317,742,0.125000,317,742,0,0, 0.0
856,316,742,0.500000,316,742,0,0, 0.0
864,312,742,1.125000,312,742,0,0, 0.0
872,303,742,1.875000,303,742,0,0, 0.0
880,288,742,2.375000,288,742,0,0, 0.0
888,269,742,2.125000,269,742,0,0, 0.0
896,252,742,1.625000,252,742,0,0, 0.0
904,239,742,0.750000,239,742,0,0, 0.0
912,233,742,0.250000,233,742,0,0, 0.0
920,231,742,0.000000,231,742,0,0, 0.0
928,231,742,0.125000,231,742,0,0, 0.0
936,232,742,0.559017,232,742,0,0, 0.0
944,236,740,1.030776,236,740,0,0, 0.0
952,244,738,1.625000,244,738,0,0, 0.0
960,256,733,2.455860,256,733,0,0, 0.0
968,275,728,2.692582,275,728,0,0, 0.0
976,295,720,2.125000,295,720,0,0, 0.0
984,310,712,1.525819,310,712,0,0, 0.0
992,320,705,0.707107,320,705,0,0, 0.0
1000,324,701,0.279508,324,701,0,0, 0.0
1008,325,699,0.395285,325,699,0,0, 0.0
1016,324,696,0.625000,324,696,0,0, 0.0
1024,320,693,2.627975,320,693,0,0, 0.0
1032,301,684,4.038874,301,684,0,0, 0.0
1040,271,672,4.981215,271,672,0,0, 0.0
1048,233,660,5.884301,233,660,0,0, 0.0
1056,187,650,6.373774,187,650,0,0, 0.0
1064,137,640,6.373774,137,640,0,0, 0.0
1072,87,630,5.884301,87,630,0,0, 0.0
1080,41,620,5.220153,41,620,0,0, 0.0
1088,1,608,3.162278,1,608,0,0, 0.0
1096,-23,600,1.510381,-23,600,0,0, 0.0
1104,-34,595,0.637377,-34,595,0,0, 0.0
1112,-35,590,1.075291,-35,590,0,0, 0.0
1120,-30,583,2.304886,-30,583,0,0, 0.0
1128,-16,571,3.605551,-16,571,0,0, 0.0
1136,8,555,4.589390,8,555,0,0, 0.0
1144,40,537,4.808846,40,537,0,0, 0.0
1152,74,519,5.706356,74,519,0,0, 0.0
1160,114,497,4.930771,114,497,0,0, 0.0
1168,148,477,3.952847,148,477,0,0, 0.0
1176,174,459,2.657536,174,459,0,0, 0.0
1184,190,445,1.237437,190,445,0,0, 0.0
1192,197,438,0.395285,197,438,0,0, 0.0
1200,198,435,0.559017,198,435,0,0, 0.0
1208,196,431,1.908042,196,431,0,0, 0.0
1216,183,423,3.134984,183,423,0,0, 0.0
1224,160,413,3.952847,160,413,0,0, 0.0
1232,130,403,4.430011,130,403,0,0, 0.0
1240,96,393,4.670385,96,393,0,0, 0.0
1248,60,383,4.430011,60,383,0,0, 0.0
1256,26,373,3.400368,26,373,0,0, 0.0
1264,0,365,2.462214,0,365,0,0, 0.0
1272,-18,357,1.179248,-18,357,0,0, 0.0
1280,-26,352,0.395285,-26,352,0,0, 0.0
1288,-27,349,0.728869,-27,349,0,0, 0.0
1296,-24,344,1.976424,-24,344,0,0, 0.0
1304,-11,335,3.023347,-11,335,0,0, 0.0
1312,10,323,4.250000,10,323,0,0, 0.0
1320,40,307,5.255949,40,307,0,0, 0.0
1328,78,289,4.697074,78,289,0,0, 0.0
1336,112,273,4.031129,112,273,0,0, 0.0
1344,140,257,2.704163,140,257,0,0, 0.0
1352,158,245,1.590990,158,245,0,0, 0.0
1360,167,236,0.625000,167,236,0,0, 0.0
1368,170,232,0.450694,170,232,0,0, 0.0
1376,168,229,1.802776,168,229,0,0, 0.0
1384,156,221,2.627975,156,221,0,0, 0.0
1392,137,212,3.807887,137,212,0,0, 0.0
1400,109,200,4.190764,109,200,0,0, 0.0
1408,77,190,4.123106,77,190,0,0, 0.0
1416,45,182,4.123106,45,182,0,0, 0.0
1424,13,174,3.092329,13,174,0,0, 0.0
1432,-11,168,2.061553,-11,168,0,0, 0.0
1440,-27,164,0.838525,-27,164,0,0, 0.0
1448,-33,161,0.176777,-33,161,0,0, 0.0
1456,-34,160,0.353553,-34,160,0,0, 0.0
1464,-32,158,1.030776,-32,158,0,0, 0.0
1472,-24,156,1.625000,-24,156,0,0, 0.0
1480,-12,151,2.490607,-12,151,0,0, 0.0
1488,7,145,2.253470,7,145,0,0, 0.0
1496,24,139,1.397542,24,139,0,0, 0.0
1504,34,134,0.707107,34,134,0,0, 0.0
1512,38,130,0.176777,38,130,0,0, 0.0
1520,39,129,0.125000,39,129,0,0, 0.0
1528,38,129,0.375000,38,129,0,0, 0.0
1536,38,132,0.000000,38,132,0,0, 0.0
