t,x,y,v,xdecoded,ydecoded,xerror,yerror,abserror
0,0,0,0.125000,0,0,0,0, 0.0
8,0,1,0.375000,0,1,0,0, 0.0
16,0,4,0.375000,0,4,0,0, 0.0
24,0,7,0.559017,0,7,0,0, 0.0
32,2,11,0.673146,2,11,0,0, 0.0
40,4,16,0.450694,4,16,0,0, 0.0
48,6,19,0.625000,6,19,0,0, 0.0
56,10,22,0.625000,10,22,0,0, 0.0
64,14,25,0.910014,14,25,0,0, 0.0
72,21,27,1.397542,21,27,0,0, 0.0
80,32,29,2.000000,32,29,0,0, 0.0
88,48,29,2.375000,48,29,0,0, 0.0
96,67,29,2.388122,67,29,0,0, 0.0
104,86,27,2.183031,86,27,0,0, 0.0
112,103,23,1.546165,103,23,0,0, 0.0
120,115,20,1.286954,115,20,0,0, 0.0
128,124,15,1.007782,124,15,0,0, 0.0
136,131,11,0.800391,131,11,0,0, 0.0
144,136,7,0.800391,136,7,0,0, 0.0
152,140,2,0.883883,140,2,0,0, 0.0
160,145,-3,0.728869,145,-3,0,0, 0.0
168,148,-8,0.790569,148,-8,0,0, 0.0
176,150,-14,0.910014,150,-14,0,0, 0.0
184,152,-21,0.750000,152,-21,0,0, 0.0
192,152,-27,0.750000,152,-27,0,0, 0.0
200,152,-33,0.673146,152,-33,0,0, 0.0
208,150,-38,0.637377,150,-38,0,0, 0.0
216,149,-43,0.450694,149,-43,0,0, 0.0
224,147,-46,0.395285,147,-46,0,0, 0.0
232,144,-47,0.395285,144,-47,0,0, 0.0
240,141,-48,0.515388,141,-48,0,0, 0.0
248,137,-49,0.760345,137,-49,0,0, 0.0
256,131,-50,1.000000,131,-50,0,0, 0.0
264,123,-50,1.000000,123,-50,0,0, 0.0
272,115,-50,1.375000,115,-50,0,0, 0.0
280,104,-50,1.505199,104,-50,0,0, 0.0
288,92,-49,1.767767,92,-49,0,0, 0.0
296,78,-47,1.667708,78,-47,0,0, 0.0
304,65,-44,1.903943,65,-44,0,0, 0.0
312,51,-38,1.677051,51,-38,0,0, 0.0
320,39,-32,1.414214,39,-32,0,0, 0.0
328,31,-24,1.250000,31,-24,0,0, 0.0
336,25,-16,1.346291,25,-16,0,0, 0.0
344,21,-6,1.767767,21,-6,0,0, 0.0
352,19,8,1.891593,19,8,0,0, 0.0
360,17,23,2.000000,17,23,0,0, 0.0
368,17,39,1.767767,17,39,0,0, 0.0
376,19,53,1.125000,19,53,0,0, 0.0
384,19,62,0.625000,19,62,0,0, 0.0
392,19,67,0.279508,19,67,0,0, 0.0
400,18,69,0.250000,18,69,0,0, 0.0
408,18,71,0.176777,18,71,0,0, 0.0
416,17,72,0.375000,17,72,0,0, 0.0
424,14,72,0.500000,14,72,0,0, 0.0
432,10,72,1.131923,10,72,0,0, 0.0
440,1,71,1.667708,1,71,0,0, 0.0
448,-12,68,2.490607,-12,68,0,0, 0.0
456,-31,62,2.610077,-31,62,0,0, 0.0
464,-51,56,2.692582,-51,56,0,0, 0.0
472,-71,48,3.250000,-71,48,0,0, 0.0
480,-95,38,3.473111,-95,38,0,0, 0.0
488,-119,24,3.259601,-119,24,0,0, 0.0
496,-141,10,3.400368,-141,10,0,0, 0.0
504,-163,-6,3.010399,-163,-6,0,0, 0.0
512,-181,-22,2.211476,-181,-22,0,0, 0.0
520,-193,-35,1.068000,-193,-35,0,0, 0.0
528,-196,-43,0.515388,-196,-43,0,0, 0.0
536,-195,-47,0.790569,-195,-47,0,0, 0.0
544,-189,-49,2.157835,-189,-49,0,0, 0.0
552,-172,-52,4.403479,-172,-52,0,0, 0.0
560,-137,-56,5.344390,-137,-56,0,0, 0.0
568,-95,-64,5.884301,-95,-64,0,0, 0.0
576,-49,-74,5.884301,-49,-74,0,0, 0.0
584,-3,-84,5.396758,-3,-84,0,0, 0.0
592,39,-94,4.609772,39,-94,0,0, 0.0
600,75,-102,4.366062,75,-102,0,0, 0.0
608,109,-110,3.092329,109,-110,0,0, 0.0
616,133,-116,1.820027,133,-116,0,0, 0.0
624,147,-120,0.728869,147,-120,0,0, 0.0
632,152,-123,0.279508,152,-123,0,0, 0.0
640,154,-124,0.176777,154,-124,0,0, 0.0
648,155,-125,0.125000,155,-125,0,0, 0.0
656,154,-125,0.279508,154,-125,0,0, 0.0
664,152,-126,0.395285,152,-126,0,0, 0.0
672,149,-127,0.375000,149,-127,0,0, 0.0
680,146,-127,0.375000,146,-127,0,0, 0.0
688,143,-127,0.250000,143,-127,0,0, 0.0
696,141,-127,0.250000,141,-127,0,0, 0.0
704,139,-127,0.125000,139,-127,0,0, 0.0
712,138,-127,0.125000,138,-127,0,0, 0.0
720,137,-127,0.000000,137,-127,0,0, 0.0
