t,x,y,v,xdecoded,ydecoded,xerror,yerror,abserror
0,0,0,0.125000,0,0,0,0, 0.0
8,0,-1,0.279508,0,-1,0,0, 0.0
16,2,-2,0.790569,2,-2,0,0, 0.0
24,8,-4,1.625000,8,-4,0,0, 0.0
32,20,-9,2.809026,20,-9,0,0, 0.0
40,41,-17,4.038874,41,-17,0,0, 0.0
48,71,-29,4.366062,71,-29,0,0, 0.0
56,103,-43,4.373214,103,-43,0,0, 0.0
64,133,-61,3.952847,133,-61,0,0, 0.0
72,159,-79,3.553168,159,-79,0,0, 0.0
80,181,-97,2.828427,181,-97,0,0, 0.0
88,197,-113,2.050152,197,-113,0,0, 0.0
96,207,-126,1.789728,207,-126,0,0, 0.0
104,210,-140,1.380670,210,-140,0,0, 0.0
112,209,-151,1.940522,209,-151,0,0, 0.0
120,205,-166,2.531057,205,-166,0,0, 0.0
128,198,-185,3.259601,198,-185,0,0, 0.0
136,184,-207,4.242641,184,-207,0,0, 0.0
144,160,-231,4.802343,160,-231,0,0, 0.0
152,130,-255,6.046693,130,-255,0,0, 0.0
160,88,-279,5.711830,88,-279,0,0, 0.0
168,46,-297,5.385165,46,-297,0,0, 0.0
176,6,-313,4.743416,6,-313,0,0, 0.0
184,-30,-325,3.952847,-30,-325,0,0, 0.0
192,-60,-335,2.692582,-60,-335,0,0, 0.0
200,-80,-343,1.231107,-80,-343,0,0, 0.0
208,-89,-347,0.279508,-89,-347,0,0, 0.0
216,-90,-349,0.450694,-90,-349,0,0, 0.0
224,-87,-351,1.677051,-87,-351,0,0, 0.0
232,-75,-357,3.644345,-75,-357,0,0, 0.0
240,-48,-368,4.924429,-48,-368,0,0, 0.0
248,-12,-384,5.618051,-12,-384,0,0, 0.0
256,30,-400,5.618051,30,-400,0,0, 0.0
264,72,-416,5.618051,72,-416,0,0, 0.0
272,114,-432,3.913119,114,-432,0,0, 0.0
280,142,-446,2.015564,142,-446,0,0, 0.0
288,156,-454,0.559017,156,-454,0,0, 0.0
296,158,-458,0.450694,158,-458,0,0, 0.0
304,155,-460,1.976424,155,-460,0,0, 0.0
312,140,-465,3.783186,140,-465,0,0, 0.0
320,110,-469,5.006246,110,-469,0,0, 0.0
328,70,-471,5.500000,70,-471,0,0, 0.0
336,26,-471,5.750000,26,-471,0,0, 0.0
344,-20,-471,5.750000,-20,-471,0,0, 0.0
352,-66,-471,4.000000,-66,-471,0,0, 0.0
360,-98,-471,2.500000,-98,-471,0,0, 0.0
368,-118,-471,0.750000,-118,-471,0,0, 0.0
376,-124,-471,0.000000,-124,-471,0,0, 0.0
384,-124,-471,0.500000,-124,-471,0,0, 0.0
392,-120,-471,1.505199,-120,-471,0,0, 0.0
400,-108,-472,3.535534,-108,-472,0,0, 0.0
408,-80,-476,4.562072,-80,-476,0,0, 0.0
416,-44,-482,4.911721,-44,-482,0,0, 0.0
424,-6,-492,5.700877,-6,-492,0,0, 0.0
432,38,-504,4.123106,38,-504,0,0, 0.0
440,70,-512,2.692582,70,-512,0,0, 0.0
448,90,-520,0.838525,90,-520,0,0, 0.0
456,96,-523,0.176777,96,-523,0,0, 0.0
464,97,-524,0.637377,97,-524,0,0, 0.0
472,92,-525,1.767767,92,-525,0,0, 0.0
480,78,-527,3.384247,78,-527,0,0, 0.0
488,51,-529,4.500000,51,-529,0,0, 0.0
496,15,-529,4.750000,15,-529,0,0, 0.0
504,-23,-529,5.006246,-23,-529,0,0, 0.0
512,-63,-527,4.527693,-63,-527,0,0, 0.0
520,-99,-523,3.824265,-99,-523,0,0, 0.0
528,-129,-517,2.061553,-129,-517,0,0, 0.0
536,-145,-513,0.760345,-145,-513,0,0, 0.0
544,-151,-512,0.176777,-151,-512,0,0, 0.0
552,-152,-511,0.515388,-152,-511,0,0, 0.0
560,-148,-510,1.546165,-148,-510,0,0, 0.0
568,-136,-507,3.134984,-136,-507,0,0, 0.0
576,-111,-505,4.007805,-111,-505,0,0, 0.0
584,-79,-503,4.750000,-79,-503,0,0, 0.0
592,-41,-503,5.250000,-41,-503,0,0, 0.0
600,1,-503,5.250000,1,-503,0,0, 0.0
608,43,-503,5.250000,43,-503,0,0, 0.0
616,85,-503,3.758324,85,-503,0,0, 0.0
624,115,-501,2.304886,115,-501,0,0, 0.0
632,133,-497,1.030776,133,-497,0,0, 0.0
640,141,-495,0.279508,141,-495,0,0, 0.0
648,142,-493,0.559017,142,-493,0,0, 0.0
656,140,-489,1.590990,140,-489,0,0, 0.0
664,131,-480,2.675117,131,-480,0,0, 0.0
672,114,-467,3.750000,114,-467,0,0, 0.0
680,90,-449,4.506939,90,-449,0,0, 0.0
688,60,-429,4.854122,60,-429,0,0, 0.0
696,28,-407,5.350234,28,-407,0,0, 0.0
704,-6,-381,4.069705,-6,-381,0,0, 0.0
712,-30,-359,2.850439,-30,-359,0,0, 0.0
720,-44,-341,1.644118,-44,-341,0,0, 0.0
728,-46,-328,1.566246,-46,-328,0,0, 0.0
736,-40,-317,2.877716,-40,-317,0,0, 0.0
744,-21,-304,4.472136,-21,-304,0,0, 0.0
752,11,-288,6.800735,11,-288,0,0, 0.0
760,63,-272,7.701461,63,-272,0,0, 0.0
768,123,-258,7.945124,123,-258,0,0, 0.0
776,185,-244,7.356969,185,-244,0,0, 0.0
784,243,-234,6.670832,243,-234,0,0, 0.0
792,295,-222,4.981215,295,-222,0,0, 0.0
800,333,-210,3.250000,333,-210,0,0, 0.0
808,357,-200,1.952562,357,-200,0,0, 0.0
816,367,-188,0.883883,367,-188,0,0, 0.0
824,366,-181,2.050152,366,-181,0,0, 0.0
832,353,-171,4.031129,353,-171,0,0, 0.0
840,325,-155,5.297405,325,-155,0,0, 0.0
848,285,-141,6.490377,285,-141,0,0, 0.0
856,235,-127,8.246211,235,-127,0,0, 0.0
864,171,-111,7.458217,171,-111,0,0, 0.0
872,113,-97,6.490377,113,-97,0,0, 0.0
880,63,-83,5.062114,63,-83,0,0, 0.0
888,25,-69,3.354102,25,-69,0,0, 0.0
896,1,-57,1.681703,1,-57,0,0, 0.0
904,-9,-48,0.673146,-9,-48,0,0, 0.0
912,-7,-43,1.566246,-7,-43,0,0, 0.0
920,4,-37,3.400368,4,-37,0,0, 0.0
928,30,-29,4.366062,30,-29,0,0, 0.0
936,64,-21,5.344390,64,-21,0,0, 0.0
944,106,-13,6.082763,106,-13,0,0, 0.0
952,154,-5,5.550901,154,-5,0,0, 0.0
960,198,1,5.303301,198,1,0,0, 0.0
968,240,7,4.069705,240,7,0,0, 0.0
976,272,13,2.692582,272,13,0,0, 0.0
984,292,21,1.068000,292,21,0,0, 0.0
992,300,24,0.515388,300,24,0,0, 0.0
1000,301,28,0.625000,301,28,0,0, 0.0
1008,297,31,2.404423,297,31,0,0, 0.0
1016,280,40,3.716517,280,40,0,0, 0.0
1024,252,50,4.272002,252,50,0,0, 0.0
1032,220,62,4.981215,220,62,0,0, 0.0
1040,182,74,4.981215,182,74,0,0, 0.0
1048,144,86,4.430011,144,86,0,0, 0.0
1056,110,96,3.579455,110,96,0,0, 0.0
1064,84,108,2.186607,84,108,0,0, 0.0
1072,69,117,1.075291,69,117,0,0, 0.0
1080,64,124,0.395285,64,124,0,0, 0.0
1088,65,127,0.901388,65,127,0,0, 0.0
1096,71,131,1.940522,71,131,0,0, 0.0
1104,86,135,2.971216,86,135,0,0, 0.0
1112,109,141,3.579455,109,141,0,0, 0.0
1120,137,147,4.562072,137,147,0,0, 0.0
1128,173,153,3.783186,173,153,0,0, 0.0
1136,203,157,3.010399,203,157,0,0, 0.0
1144,227,159,1.891593,227,159,0,0, 0.0
1152,242,161,0.000000,242,161,0,0, 0.0
