t,x,y,v,xdecoded,ydecoded,xerror,yerror,abserror
0,0,0,0.176777,0,0,0,0, 0.0
8,1,-1,0.279508,1,-1,0,0, 0.0
16,3,-2,0.637377,3,-2,0,0, 0.0
24,8,-3,1.007782,8,-3,0,0, 0.0
32,16,-4,1.976424,16,-4,0,0, 0.0
40,31,-9,1.425219,31,-9,0,0, 0.0
48,42,-12,1.463087,42,-12,0,0, 0.0
56,53,-16,0.951972,53,-16,0,0, 0.0
64,60,-19,0.279508,60,-19,0,0, 0.0
72,62,-20,0.176777,62,-20,0,0, 0.0
80,63,-21,0.176777,63,-21,0,0, 0.0
88,64,-22,0.125000,64,-22,0,0, 0.0
96,64,-23,0.176777,64,-23,0,0, 0.0
104,63,-24,0.450694,63,-24,0,0, 0.0
112,60,-26,1.152443,60,-26,0,0, 0.0
120,53,-32,2.576941,53,-32,0,0, 0.0
128,34,-40,4.081207,34,-40,0,0, 0.0
136,5,-55,5.369183,5,-55,0,0, 0.0
144,-34,-73,5.482928,-34,-73,0,0, 0.0
152,-74,-91,5.711830,-74,-91,0,0, 0.0
160,-116,-109,5.814852,-116,-109,0,0, 0.0
168,-158,-129,5.143260,-158,-129,0,0, 0.0
176,-195,-147,5.590170,-195,-147,0,0, 0.0
184,-235,-167,4.056245,-235,-167,0,0, 0.0
192,-262,-185,3.448279,-262,-185,0,0, 0.0
200,-281,-205,2.019437,-281,-205,0,0, 0.0
208,-287,-220,1.380670,-287,-220,0,0, 0.0
216,-286,-231,2.576941,-286,-231,0,0, 0.0
224,-273,-247,3.363406,-273,-247,0,0, 0.0
232,-253,-265,5.581778,-253,-265,0,0, 0.0
240,-216,-290,5.618051,-216,-290,0,0, 0.0
248,-178,-314,6.217415,-178,-314,0,0, 0.0
256,-135,-339,6.046693,-135,-339,0,0, 0.0
264,-93,-363,5.488625,-93,-363,0,0, 0.0
272,-55,-385,3.201562,-55,-385,0,0, 0.0
280,-35,-401,2.225562,-35,-401,0,0, 0.0
288,-21,-412,0.838525,-21,-412,0,0, 0.0
296,-18,-418,0.728869,-18,-418,0,0, 0.0
304,-21,-423,1.346291,-21,-423,0,0, 0.0
312,-31,-427,2.850439,-31,-427,0,0, 0.0
320,-53,-433,4.776243,-53,-433,0,0, 0.0
328,-91,-437,5.006246,-91,-437,0,0, 0.0
336,-131,-439,5.006246,-131,-439,0,0, 0.0
344,-171,-441,4.500000,-171,-441,0,0, 0.0
352,-207,-441,3.500000,-207,-441,0,0, 0.0
360,-235,-441,2.000000,-235,-441,0,0, 0.0
368,-251,-441,0.625000,-251,-441,0,0, 0.0
376,-256,-441,0.125000,-256,-441,0,0, 0.0
384,-257,-441,0.625000,-257,-441,0,0, 0.0
392,-252,-441,2.000000,-252,-441,0,0, 0.0
400,-236,-441,3.758324,-236,-441,0,0, 0.0
408,-206,-443,4.257347,-206,-443,0,0, 0.0
416,-172,-445,4.808846,-172,-445,0,0, 0.0
424,-134,-451,4.808846,-134,-451,0,0, 0.0
432,-96,-457,4.069705,-96,-457,0,0, 0.0
440,-64,-463,3.335416,-64,-463,0,0, 0.0
448,-38,-469,1.700184,-38,-469,0,0, 0.0
456,-25,-473,0.515388,-25,-473,0,0, 0.0
464,-21,-474,0.125000,-21,-474,0,0, 0.0
472,-20,-474,0.375000,-20,-474,0,0, 0.0
480,-23,-474,0.750000,-23,-474,0,0, 0.0
488,-29,-474,1.625000,-29,-474,0,0, 0.0
496,-42,-474,3.250000,-42,-474,0,0, 0.0
504,-68,-474,3.508917,-68,-474,0,0, 0.0
512,-96,-472,3.535534,-96,-472,0,0, 0.0
520,-124,-468,2.850439,-124,-468,0,0, 0.0
528,-146,-462,1.789728,-146,-462,0,0, 0.0
536,-159,-456,0.707107,-159,-456,0,0, 0.0
544,-163,-452,0.395285,-163,-452,0,0, 0.0
552,-162,-449,0.728869,-162,-449,0,0, 0.0
560,-157,-446,1.858259,-157,-446,0,0, 0.0
568,-143,-441,3.213740,-143,-441,0,0, 0.0
576,-118,-435,4.279311,-118,-435,0,0, 0.0
584,-84,-431,5.006246,-84,-431,0,0, 0.0
592,-44,-429,5.255949,-44,-429,0,0, 0.0
600,-2,-427,5.755432,-2,-427,0,0, 0.0
608,44,-425,4.756574,44,-425,0,0, 0.0
616,82,-423,3.288237,82,-423,0,0, 0.0
624,108,-419,2.136001,108,-419,0,0, 0.0
632,124,-413,0.707107,124,-413,0,0, 0.0
640,128,-409,0.395285,128,-409,0,0, 0.0
648,127,-406,1.152443,127,-406,0,0, 0.0
656,121,-399,2.500000,121,-399,0,0, 0.0
664,105,-387,3.816084,105,-387,0,0, 0.0
672,79,-371,4.930771,79,-371,0,0, 0.0
680,45,-351,5.488625,45,-351,0,0, 0.0
688,7,-329,6.174545,7,-329,0,0, 0.0
696,-35,-303,4.854122,-35,-303,0,0, 0.0
704,-67,-281,3.716517,-67,-281,0,0, 0.0
712,-89,-261,2.704163,-89,-261,0,0, 0.0
720,-101,-243,1.644118,-101,-243,0,0, 0.0
728,-103,-230,1.700184,-103,-230,0,0, 0.0
736,-95,-219,3.154857,-95,-219,0,0, 0.0
744,-74,-205,5.153882,-74,-205,0,0, 0.0
752,-36,-189,5.852350,-36,-189,0,0, 0.0
760,8,-173,6.973163,8,-173,0,0, 0.0
768,62,-159,7.158911,62,-159,0,0, 0.0
776,118,-147,7.158911,118,-147,0,0, 0.0
784,174,-135,6.427480,174,-135,0,0, 0.0
792,224,-123,4.981215,224,-123,0,0, 0.0
800,262,-111,3.473111,262,-111,0,0, 0.0
808,286,-97,1.858259,286,-97,0,0, 0.0
816,296,-86,1.305038,296,-86,0,0, 0.0
824,293,-76,2.034853,293,-76,0,0, 0.0
832,281,-65,3.710206,281,-65,0,0, 0.0
840,256,-49,5.482928,256,-49,0,0, 0.0
848,216,-31,6.408003,216,-31,0,0, 0.0
856,168,-13,7.040064,168,-13,0,0, 0.0
864,114,3,8.003905,114,3,0,0, 0.0
872,52,19,6.973163,52,19,0,0, 0.0
880,-2,33,5.297405,-2,33,0,0, 0.0
888,-42,47,3.354102,-42,47,0,0, 0.0
896,-66,59,1.802776,-66,59,0,0, 0.0
904,-78,67,0.353553,-78,67,0,0, 0.0
912,-80,69,0.450694,-80,69,0,0, 0.0
920,-78,72,0.728869,-78,72,0,0, 0.0
928,-73,75,1.425219,-73,75,0,0, 0.0
936,-62,78,1.912132,-62,78,0,0, 0.0
944,-47,81,2.672195,-47,81,0,0, 0.0
952,-26,85,2.512469,-26,85,0,0, 0.0
960,-6,87,2.375000,-6,87,0,0, 0.0
968,13,87,1.274755,13,87,0,0, 0.0
976,23,89,0.500000,23,89,0,0, 0.0
984,27,89,0.000000,27,89,0,0, 0.0
