MV, 27398653, 2000, 704
MV, 27398661, 2001, 704
MV, 27398669, 2003, 704
MV, 27398677, 2005, 704
MV, 27398685, 2008, 704
MV, 27398693, 2011, 704
MV, 27398701, 2016, 704
MV, 27398709, 2020, 704
MV, 27398717, 2024, 704
MV, 27398725, 2029, 703
MV, 27398733, 2033, 703
MV, 27398741, 2039, 702
MV, 27398749, 2046, 701
MV, 27398757, 2050, 700
MV, 27398765, 2055, 700
MV, 27398773, 2058, 698
MV, 27398781, 2061, 697
MV, 27398789, 2063, 696
MV, 27398797, 2065, 696
MV, 27398805, 2066, 695
MV, 27398813, 2067, 694
MV, 27398829, 2067, 693
MV, 27398837, 2067, 692
MV, 27398845, 2066, 692
MV, 27398853, 2065, 691
MV, 27398861, 2064, 691
MV, 27398869, 2062, 690
MV, 27398877, 2060, 690
MV, 27398885, 2059, 690
MV, 27398893, 2057, 690
MV, 27398901, 2055, 690
MV, 27398909, 2052, 690
MV, 27398917, 2050, 690
MV, 27398925, 2047, 691
MV, 27398933, 2044, 692
MV, 27398941, 2041, 693
MV, 27398949, 2038, 696
MV, 27398957, 2035, 698
MV, 27398965, 2030, 700
MV, 27398973, 2026, 702
MV, 27398981, 2019, 705
MV, 27398989, 2011, 707
MV, 27398997, 1999, 711
MV, 27399005, 1983, 716
MV, 27399013, 1964, 720
MV, 27399021, 1940, 724
MV, 27399029, 1916, 728
MV, 27399037, 1894, 730
MV, 27399045, 1874, 732
MV, 27399053, 1854, 734
MV, 27399061, 1840, 734
MV, 27399069, 1831, 734
MV, 27399077, 1826, 734
MV, 27399085, 1823, 733
MV, 27399093, 1822, 732
MV, 27399101, 1821, 730
MV, 27399109, 1822, 727
MV, 27399117, 1825, 722
MV, 27399125, 1830, 717
MV, 27399133, 1837, 711
MV, 27399141, 1846, 705
MV, 27399149, 1855, 699
MV, 27399157, 1867, 693
MV, 27399165, 1878, 688
MV, 27399173, 1887, 683
MV, 27399181, 1894, 680
MV, 27399189, 1899, 679
MV, 27399197, 1904, 679
MV, 27399205, 1907, 679
MV, 27399213, 1910, 680
MV, 27399221, 1913, 681
MV, 27399229, 1916, 683
MV, 27399237, 1918, 685
MV, 27399245, 1920, 687
MV, 27399253, 1922, 689
MV, 27399261, 1925, 690
MV, 27399269, 1929, 691
MV, 27399277, 1934, 691
MV, 27399285, 1938, 691
MV, 27399293, 1944, 690
MV, 27399301, 1950, 689
MV, 27399309, 1958, 686
MV, 27399317, 1967, 682
MV, 27399325, 1974, 678
MV, 27399333, 1981, 673
MV, 27399341, 1986, 668
MV, 27399349, 1992, 664
MV, 27399357, 1995, 659
MV, 27399365, 1998, 654
MV, 27399373, 1999, 648
MV, 27399381, 2000, 642
MV, 27399389, 1999, 636
MV, 27399397, 1996, 629
MV, 27399405, 1992, 623
MV, 27399413, 1985, 615
MV, 27399421, 1978, 609
MV, 27399429, 1972, 605
MV, 27399437, 1969, 603
MV, 27399445, 1966, 602
