MV, 31170640, 2175, 620
MV, 31170648, 2176, 620
MV, 31170656, 2177, 622
MV, 31170664, 2178, 624
MV, 31170672, 2181, 626
MV, 31170680, 2185, 629
MV, 31170688, 2191, 631
MV, 31170696, 2201, 633
MV, 31170704, 2212, 633
MV, 31170712, 2227, 633
MV, 31170720, 2243, 633
MV, 31170728, 2262, 631
MV, 31170736, 2279, 627
MV, 31170744, 2293, 622
MV, 31170752, 2305, 617
MV, 31170760, 2314, 612
MV, 31170768, 2319, 608
MV, 31170776, 2324, 604
MV, 31170784, 2328, 601
MV, 31170792, 2330, 597
MV, 31170800, 2331, 595
MV, 31170808, 2332, 593
MV, 31170816, 2332, 591
MV, 31170824, 2332, 590
MV, 31170832, 2332, 589
MV, 31170840, 2331, 588
MV, 31170848, 2330, 588
MV, 31170856, 2328, 588
MV, 31170864, 2326, 588
MV, 31170872, 2323, 588
MV, 31170880, 2318, 589
MV, 31170888, 2309, 592
MV, 31170896, 2299, 597
MV, 31170904, 2285, 603
MV, 31170912, 2271, 612
MV, 31170920, 2253, 624
MV, 31170928, 2235, 636
MV, 31170936, 2215, 650
MV, 31170944, 2195, 664
MV, 31170952, 2175, 678
MV, 31170960, 2157, 690
MV, 31170968, 2139, 702
MV, 31170976, 2121, 714
MV, 31170984, 2106, 722
MV, 31170992, 2092, 727
MV, 31171000, 2080, 732
MV, 31171008, 2071, 734
MV, 31171016, 2063, 735
MV, 31171024, 2056, 735
MV, 31171032, 2050, 734
MV, 31171040, 2045, 731
MV, 31171048, 2040, 728
MV, 31171056, 2035, 722
MV, 31171064, 2031, 716
MV, 31171072, 2028, 709
MV, 31171080, 2027, 703
MV, 31171088, 2026, 695
MV, 31171096, 2026, 686
MV, 31171104, 2026, 676
MV, 31171112, 2029, 667
MV, 31171120, 2034, 662
MV, 31171128, 2043, 658
MV, 31171136, 2053, 653
MV, 31171144, 2071, 649
MV, 31171152, 2095, 647
MV, 31171160, 2125, 645
MV, 31171168, 2153, 645
MV, 31171176, 2181, 645
MV, 31171184, 2207, 647
MV, 31171192, 2231, 649
MV, 31171200, 2253, 653
MV, 31171208, 2275, 659
MV, 31171216, 2297, 663
MV, 31171224, 2315, 667
MV, 31171232, 2331, 669
MV, 31171240, 2343, 671
MV, 31171248, 2351, 671
MV, 31171256, 2358, 671
MV, 31171264, 2363, 671
MV, 31171272, 2367, 670
MV, 31171280, 2372, 667
MV, 31171288, 2377, 662
MV, 31171296, 2382, 657
MV, 31171304, 2386, 648
MV, 31171312, 2391, 640
MV, 31171320, 2392, 629
MV, 31171328, 2394, 616
MV, 31171336, 2394, 603
MV, 31171344, 2394, 592
MV, 31171352, 2392, 581
MV, 31171360, 2392, 574
MV, 31171368, 2392, 571
MV, 31171376, 2392, 569
