MV, 30964825, 2235, 618
MV, 30964833, 2236, 619
MV, 30964841, 2238, 622
MV, 30964849, 2243, 627
MV, 30964857, 2248, 633
MV, 30964865, 2254, 641
MV, 30964873, 2261, 648
MV, 30964881, 2271, 654
MV, 30964889, 2280, 659
MV, 30964897, 2289, 662
MV, 30964905, 2301, 663
MV, 30964913, 2314, 665
MV, 30964921, 2330, 665
MV, 30964929, 2346, 661
MV, 30964937, 2363, 656
MV, 30964945, 2380, 650
MV, 30964953, 2394, 643
MV, 30964961, 2409, 636
MV, 30964969, 2419, 627
MV, 30964977, 2429, 619
MV, 30964985, 2437, 609
MV, 30964993, 2443, 598
MV, 30965001, 2448, 586
MV, 30965009, 2450, 573
MV, 30965017, 2450, 560
MV, 30965025, 2447, 546
MV, 30965033, 2441, 533
MV, 30965041, 2434, 519
MV, 30965049, 2428, 509
MV, 30965057, 2420, 503
MV, 30965065, 2413, 498
MV, 30965073, 2407, 496
MV, 30965081, 2400, 494
MV, 30965089, 2392, 493
MV, 30965097, 2382, 495
MV, 30965105, 2369, 498
MV, 30965113, 2355, 503
MV, 30965121, 2341, 512
MV, 30965129, 2323, 526
MV, 30965137, 2305, 542
MV, 30965145, 2285, 558
MV, 30965153, 2265, 576
MV, 30965161, 2243, 594
MV, 30965169, 2223, 610
MV, 30965177, 2205, 624
MV, 30965185, 2183, 636
MV, 30965193, 2163, 644
MV, 30965201, 2143, 652
MV, 30965209, 2121, 658
MV, 30965217, 2104, 660
MV, 30965225, 2087, 661
MV, 30965233, 2074, 661
MV, 30965241, 2060, 658
MV, 30965249, 2049, 655
MV, 30965257, 2038, 650
MV, 30965265, 2024, 639
MV, 30965273, 2008, 628
MV, 30965281, 1995, 614
MV, 30965289, 1981, 601
MV, 30965297, 1972, 586
MV, 30965305, 1964, 569
MV, 30965313, 1958, 552
MV, 30965321, 1955, 533
MV, 30965329, 1953, 516
MV, 30965337, 1953, 504
MV, 30965345, 1956, 495
MV, 30965353, 1961, 488
MV, 30965361, 1968, 484
MV, 30965369, 1981, 481
MV, 30965377, 2001, 481
MV, 30965385, 2029, 485
MV, 30965393, 2061, 495
MV, 30965401, 2097, 507
MV, 30965409, 2133, 523
MV, 30965417, 2171, 539
MV, 30965425, 2207, 557
MV, 30965433, 2245, 573
MV, 30965441, 2279, 587
MV, 30965449, 2309, 599
MV, 30965457, 2337, 605
MV, 30965465, 2365, 609
MV, 30965473, 2391, 611
MV, 30965481, 2415, 607
MV, 30965489, 2439, 599
MV, 30965497, 2459, 589
MV, 30965505, 2473, 577
MV, 30965513, 2482, 562
MV, 30965521, 2488, 546
MV, 30965529, 2491, 529
MV, 30965537, 2493, 508
MV, 30965545, 2489, 480
MV, 30965553, 2481, 454
MV, 30965561, 2469, 430
MV, 30965569, 2453, 408
MV, 30965577, 2433, 390
MV, 30965585, 2409, 376
MV, 30965593, 2383, 366
MV, 30965601, 2355, 360
MV, 30965609, 2325, 358
MV, 30965617, 2297, 360
MV, 30965625, 2273, 364
MV, 30965633, 2253, 370
MV, 30965641, 2236, 375
MV, 30965649, 2224, 381
MV, 30965657, 2216, 385
MV, 30965665, 2210, 389
MV, 30965673, 2206, 392
MV, 30965681, 2204, 394
MV, 30965689, 2202, 395
MV, 30965697, 2201, 396
