MV, 32445125, 2382, 1167
MV, 32445133, 2383, 1167
MV, 32445141, 2387, 1166
MV, 32445149, 2400, 1162
MV, 32445157, 2420, 1156
MV, 32445165, 2440, 1150
MV, 32445173, 2457, 1144
MV, 32445181, 2467, 1139
MV, 32445189, 2471, 1136
MV, 32445197, 2473, 1135
MV, 32445205, 2473, 1134
MV, 32445213, 2472, 1133
MV, 32445221, 2468, 1131
MV, 32445229, 2458, 1127
MV, 32445237, 2433, 1118
MV, 32445245, 2403, 1108
MV, 32445253, 2369, 1096
MV, 32445261, 2333, 1084
MV, 32445269, 2295, 1072
MV, 32445277, 2259, 1058
MV, 32445285, 2227, 1044
MV, 32445293, 2197, 1026
MV, 32445301, 2175, 1010
MV, 32445309, 2163, 996
MV, 32445317, 2158, 984
MV, 32445325, 2161, 970
MV, 32445333, 2175, 951
MV, 32445341, 2199, 927
MV, 32445349, 2237, 895
MV, 32445357, 2279, 859
MV, 32445365, 2323, 825
MV, 32445373, 2363, 793
MV, 32445381, 2395, 767
MV, 32445389, 2415, 745
MV, 32445397, 2424, 732
MV, 32445405, 2421, 724
MV, 32445413, 2409, 718
MV, 32445421, 2382, 710
MV, 32445429, 2342, 702
MV, 32445437, 2296, 698
MV, 32445445, 2246, 696
MV, 32445453, 2194, 694
MV, 32445461, 2152, 694
MV, 32445469, 2126, 694
MV, 32445477, 2115, 694
MV, 32445485, 2112, 694
MV, 32445493, 2114, 694
MV, 32445501, 2123, 694
MV, 32445509, 2142, 694
MV, 32445517, 2174, 692
MV, 32445525, 2212, 690
MV, 32445533, 2254, 684
MV, 32445541, 2298, 678
MV, 32445549, 2330, 670
MV, 32445557, 2348, 666
MV, 32445565, 2356, 663
MV, 32445573, 2358, 662
MV, 32445589, 2356, 661
MV, 32445597, 2350, 660
MV, 32445605, 2335, 658
MV, 32445613, 2319, 658
MV, 32445621, 2303, 658
MV, 32445629, 2291, 660
MV, 32445637, 2286, 661
MV, 32445645, 2284, 662
MV, 32445653, 2283, 663
MV, 32445661, 2285, 665
MV, 32445669, 2289, 668
MV, 32445677, 2306, 675
MV, 32445685, 2328, 683
MV, 32445693, 2354, 689
MV, 32445701, 2378, 695
MV, 32445709, 2402, 701
MV, 32445717, 2422, 707
MV, 32445725, 2437, 712
MV, 32445733, 2444, 717
MV, 32445741, 2448, 721
MV, 32445749, 2449, 724
MV, 32445757, 2448, 728
MV, 32445765, 2443, 736
MV, 32445773, 2431, 749
MV, 32445781, 2409, 766
MV, 32445789, 2383, 784
MV, 32445797, 2357, 802
MV, 32445805, 2333, 820
MV, 32445813, 2317, 838
MV, 32445821, 2309, 854
MV, 32445829, 2309, 868
MV, 32445837, 2320, 885
MV, 32445845, 2340, 901
MV, 32445853, 2370, 917
MV, 32445861, 2406, 933
MV, 32445869, 2450, 947
MV, 32445877, 2498, 959
MV, 32445885, 2542, 971
MV, 32445893, 2584, 981
MV, 32445901, 2612, 991
MV, 32445909, 2628, 998
MV, 32445917, 2634, 1005
MV, 32445925, 2633, 1011
MV, 32445933, 2625, 1020
MV, 32445941, 2606, 1033
MV, 32445949, 2576, 1049
MV, 32445957, 2538, 1063
MV, 32445965, 2496, 1079
MV, 32445973, 2454, 1093
MV, 32445981, 2410, 1107
MV, 32445989, 2380, 1119
MV, 32445997, 2362, 1129
MV, 32446005, 2356, 1136
MV, 32446013, 2357, 1141
MV, 32446021, 2365, 1148
MV, 32446029, 2390, 1161
MV, 32446037, 2422, 1173
MV, 32446045, 2460, 1187
MV, 32446053, 2500, 1199
MV, 32446061, 2540, 1199
MV, 32446069, 2574, 1199
MV, 32446077, 2600, 1199
MV, 32446085, 2616, 1199
MV, 32446093, 2625, 1199
MV, 32446101, 2626, 1199
MV, 32446109, 2622, 1199
MV, 32446117, 2611, 1199
MV, 32446125, 2591, 1199
MV, 32446133, 2565, 1199
MV, 32446141, 2535, 1199
MV, 32446149, 2503, 1199
MV, 32446157, 2471, 1199
MV, 32446165, 2443, 1199
MV, 32446173, 2423, 1199
MV, 32446181, 2414, 1199
MV, 32446189, 2413, 1199
MV, 32446197, 2417, 1199
MV, 32446205, 2427, 1199
MV, 32446213, 2448, 1199
MV, 32446221, 2476, 1199
MV, 32446229, 2508, 1199
MV, 32446237, 2544, 1199
MV, 32446245, 2580, 1199
MV, 32446253, 2608, 1199
MV, 32446261, 2625, 1199
MV, 32446269, 2633, 1199
MV, 32446309, 2635, 1199
MV, 32446317, 2636, 1198
MV, 32446333, 2635, 1198
MV, 32446341, 2635, 1197
