MV, 27824616, 2188, 600
MV, 27824624, 2189, 599
MV, 27824632, 2193, 597
MV, 27824640, 2201, 593
MV, 27824648, 2216, 586
MV, 27824656, 2238, 576
MV, 27824664, 2264, 564
MV, 27824672, 2292, 552
MV, 27824680, 2320, 540
MV, 27824688, 2340, 530
MV, 27824696, 2353, 525
MV, 27824704, 2358, 522
MV, 27824712, 2359, 521
MV, 27824720, 2359, 520
MV, 27824728, 2358, 521
MV, 27824736, 2354, 522
MV, 27824744, 2347, 525
MV, 27824752, 2332, 530
MV, 27824760, 2310, 538
MV, 27824768, 2282, 548
MV, 27824776, 2250, 560
MV, 27824784, 2214, 570
MV, 27824792, 2182, 580
MV, 27824800, 2154, 590
MV, 27824808, 2138, 593
MV, 27824816, 2134, 595
MV, 27824824, 2135, 596
MV, 27824832, 2142, 595
MV, 27824840, 2161, 589
MV, 27824848, 2193, 581
MV, 27824856, 2239, 567
MV, 27824864, 2285, 555
MV, 27824872, 2325, 543
MV, 27824880, 2353, 535
MV, 27824888, 2369, 532
MV, 27824896, 2375, 529
MV, 27824904, 2374, 528
MV, 27824912, 2369, 528
MV, 27824920, 2364, 529
MV, 27824928, 2356, 530
MV, 27824936, 2347, 532
MV, 27824944, 2339, 534
MV, 27824952, 2328, 537
MV, 27824960, 2317, 541
MV, 27824968, 2308, 542
MV, 27824976, 2305, 542
MV, 27824984, 2304, 542
MV, 27825000, 2308, 541
MV, 27825008, 2316, 539
MV, 27825016, 2334, 533
MV, 27825024, 2356, 527
MV, 27825032, 2374, 523
MV, 27825040, 2384, 522
MV, 27825048, 2386, 522
MV, 27825064, 2383, 523
MV, 27825072, 2379, 524
MV, 27825080, 2371, 526
MV, 27825088, 2362, 531
MV, 27825096, 2352, 535
MV, 27825104, 2338, 540
MV, 27825112, 2326, 545
MV, 27825120, 2317, 548
MV, 27825144, 2314, 549
MV, 27825160, 2317, 548
MV, 27825168, 2322, 547
MV, 27825176, 2330, 545
MV, 27825184, 2341, 542
MV, 27825192, 2348, 539
MV, 27825272, 2350, 538
