MV, 32453582, 2168, 845
MV, 32453590, 2168, 844
MV, 32453598, 2170, 843
MV, 32453606, 2176, 841
MV, 32453614, 2188, 836
MV, 32453622, 2209, 828
MV, 32453630, 2239, 816
MV, 32453638, 2271, 802
MV, 32453646, 2301, 784
MV, 32453654, 2327, 766
MV, 32453662, 2349, 748
MV, 32453670, 2365, 732
MV, 32453678, 2375, 719
MV, 32453686, 2378, 705
MV, 32453694, 2377, 694
MV, 32453702, 2373, 679
MV, 32453710, 2366, 660
MV, 32453718, 2352, 638
MV, 32453726, 2328, 614
MV, 32453734, 2298, 590
MV, 32453742, 2256, 566
MV, 32453750, 2214, 548
MV, 32453758, 2174, 532
MV, 32453766, 2138, 520
MV, 32453774, 2108, 510
MV, 32453782, 2088, 502
MV, 32453790, 2079, 498
MV, 32453798, 2078, 496
MV, 32453806, 2081, 494
MV, 32453814, 2093, 488
MV, 32453822, 2120, 477
MV, 32453830, 2156, 461
MV, 32453838, 2198, 445
MV, 32453846, 2240, 429
MV, 32453854, 2282, 413
MV, 32453862, 2310, 399
MV, 32453870, 2324, 391
MV, 32453878, 2326, 387
MV, 32453886, 2323, 385
MV, 32453894, 2308, 380
MV, 32453902, 2278, 376
MV, 32453910, 2238, 374
MV, 32453918, 2194, 374
MV, 32453926, 2148, 374
MV, 32453934, 2102, 374
MV, 32453942, 2070, 374
MV, 32453950, 2050, 374
MV, 32453958, 2044, 374
MV, 32453974, 2048, 374
MV, 32453982, 2060, 373
MV, 32453990, 2088, 369
MV, 32453998, 2124, 363
MV, 32454006, 2162, 353
MV, 32454014, 2206, 341
MV, 32454022, 2238, 333
MV, 32454030, 2258, 325
MV, 32454038, 2264, 322
MV, 32454046, 2265, 321
MV, 32454054, 2260, 320
MV, 32454062, 2246, 318
MV, 32454070, 2219, 316
MV, 32454078, 2183, 316
MV, 32454086, 2145, 316
MV, 32454094, 2105, 318
MV, 32454102, 2069, 322
MV, 32454110, 2039, 328
MV, 32454118, 2023, 332
MV, 32454126, 2017, 333
MV, 32454134, 2016, 334
MV, 32454142, 2020, 335
MV, 32454150, 2032, 338
MV, 32454158, 2057, 340
MV, 32454166, 2089, 342
MV, 32454174, 2127, 342
MV, 32454182, 2169, 342
MV, 32454190, 2211, 342
MV, 32454198, 2253, 342
MV, 32454206, 2283, 344
MV, 32454214, 2301, 348
MV, 32454222, 2309, 350
MV, 32454230, 2310, 352
MV, 32454238, 2308, 356
MV, 32454246, 2299, 365
MV, 32454254, 2282, 378
MV, 32454262, 2258, 396
MV, 32454270, 2228, 416
MV, 32454278, 2196, 438
MV, 32454286, 2162, 464
MV, 32454294, 2138, 486
MV, 32454302, 2124, 504
MV, 32454310, 2122, 517
MV, 32454318, 2128, 528
MV, 32454326, 2147, 541
MV, 32454334, 2179, 557
MV, 32454342, 2231, 573
MV, 32454350, 2291, 587
MV, 32454358, 2353, 601
MV, 32454366, 2411, 611
MV, 32454374, 2463, 623
MV, 32454382, 2501, 635
MV, 32454390, 2525, 645
MV, 32454398, 2535, 657
MV, 32454406, 2534, 664
MV, 32454414, 2521, 674
MV, 32454422, 2493, 690
MV, 32454430, 2453, 704
MV, 32454438, 2403, 718
MV, 32454446, 2339, 734
MV, 32454454, 2281, 748
MV, 32454462, 2231, 762
MV, 32454470, 2193, 776
MV, 32454478, 2169, 788
MV, 32454486, 2159, 797
MV, 32454494, 2161, 802
MV, 32454502, 2172, 808
MV, 32454510, 2198, 816
MV, 32454518, 2232, 824
MV, 32454526, 2274, 832
MV, 32454534, 2322, 840
MV, 32454542, 2366, 846
MV, 32454550, 2408, 852
MV, 32454558, 2440, 858
MV, 32454566, 2460, 866
MV, 32454574, 2468, 869
MV, 32454582, 2469, 873
MV, 32454590, 2465, 876
MV, 32454598, 2448, 885
MV, 32454606, 2420, 895
MV, 32454614, 2388, 907
MV, 32454622, 2350, 919
MV, 32454630, 2312, 931
MV, 32454638, 2278, 941
MV, 32454646, 2252, 953
MV, 32454654, 2237, 962
MV, 32454662, 2232, 969
MV, 32454670, 2233, 972
MV, 32454678, 2239, 976
MV, 32454686, 2254, 980
MV, 32454694, 2277, 986
MV, 32454702, 2305, 992
MV, 32454710, 2341, 998
MV, 32454718, 2371, 1002
MV, 32454726, 2395, 1004
MV, 32454734, 2410, 1006
