MV, 32251270, 1944, 328
MV, 32251278, 1945, 328
MV, 32251286, 1948, 327
MV, 32251294, 1955, 326
MV, 32251302, 1970, 325
MV, 32251310, 1995, 321
MV, 32251318, 2021, 319
MV, 32251326, 2047, 317
MV, 32251334, 2067, 315
MV, 32251342, 2081, 315
MV, 32251350, 2087, 315
MV, 32251366, 2089, 315
MV, 32251374, 2089, 316
MV, 32251382, 2087, 319
MV, 32251390, 2081, 324
MV, 32251398, 2065, 334
MV, 32251406, 2041, 352
MV, 32251414, 2005, 374
MV, 32251422, 1965, 398
MV, 32251430, 1923, 420
MV, 32251438, 1881, 440
MV, 32251446, 1845, 462
MV, 32251454, 1817, 482
MV, 32251462, 1803, 500
MV, 32251470, 1799, 515
MV, 32251478, 1814, 530
MV, 32251486, 1844, 546
MV, 32251494, 1890, 560
MV, 32251502, 1948, 572
MV, 32251510, 2014, 582
MV, 32251518, 2086, 588
MV, 32251526, 2158, 594
MV, 32251534, 2230, 600
MV, 32251542, 2284, 606
MV, 32251550, 2320, 612
MV, 32251558, 2340, 620
MV, 32251566, 2344, 625
MV, 32251574, 2339, 628
MV, 32251582, 2325, 635
MV, 32251590, 2295, 645
MV, 32251598, 2259, 653
MV, 32251606, 2219, 661
MV, 32251614, 2179, 671
MV, 32251622, 2143, 683
MV, 32251630, 2121, 693
MV, 32251638, 2110, 698
MV, 32251646, 2109, 702
MV, 32251654, 2112, 705
MV, 32251662, 2124, 709
MV, 32251670, 2147, 717
MV, 32251678, 2185, 725
MV, 32251686, 2225, 731
MV, 32251694, 2261, 737
MV, 32251702, 2293, 743
MV, 32251710, 2315, 749
MV, 32251718, 2326, 755
MV, 32251726, 2330, 759
MV, 32251734, 2329, 762
MV, 32251742, 2322, 768
MV, 32251750, 2309, 777
MV, 32251758, 2283, 792
MV, 32251766, 2251, 808
MV, 32251774, 2217, 824
MV, 32251782, 2183, 840
MV, 32251790, 2157, 856
MV, 32251798, 2139, 870
MV, 32251806, 2134, 881
MV, 32251814, 2137, 890
MV, 32251822, 2157, 903
MV, 32251830, 2187, 915
MV, 32251838, 2227, 925
MV, 32251846, 2275, 933
MV, 32251854, 2325, 941
MV, 32251862, 2373, 947
MV, 32251870, 2411, 953
MV, 32251878, 2439, 961
MV, 32251886, 2454, 966
MV, 32251894, 2457, 971
MV, 32251902, 2453, 974
MV, 32251910, 2439, 979
MV, 32251918, 2411, 985
MV, 32251926, 2375, 991
MV, 32251934, 2331, 995
MV, 32251942, 2279, 999
MV, 32251950, 2231, 1001
MV, 32251958, 2191, 1003
MV, 32251966, 2163, 1007
MV, 32251974, 2149, 1009
MV, 32251982, 2146, 1010
MV, 32251990, 2147, 1011
MV, 32251998, 2151, 1012
MV, 32252006, 2162, 1013
MV, 32252014, 2187, 1013
MV, 32252022, 2215, 1013
MV, 32252030, 2243, 1013
MV, 32252038, 2269, 1013
MV, 32252046, 2287, 1013
MV, 32252054, 2294, 1013
MV, 32252078, 2297, 1013
MV, 32252086, 2297, 1012
MV, 32252094, 2295, 1012
MV, 32252102, 2289, 1011
MV, 32252110, 2277, 1010
MV, 32252118, 2259, 1008
MV, 32252126, 2232, 1008
MV, 32252134, 2202, 1006
MV, 32252142, 2172, 1002
MV, 32252150, 2140, 998
MV, 32252158, 2110, 992
MV, 32252166, 2086, 986
MV, 32252174, 2070, 978
MV, 32252182, 2062, 972
MV, 32252190, 2060, 967
MV, 32252198, 2063, 959
MV, 32252206, 2073, 945
MV, 32252214, 2093, 927
MV, 32252222, 2119, 907
MV, 32252230, 2149, 885
MV, 32252238, 2185, 863
MV, 32252246, 2211, 845
MV, 32252254, 2229, 831
MV, 32252262, 2236, 823
MV, 32252270, 2236, 816
MV, 32252278, 2227, 809
MV, 32252286, 2200, 797
MV, 32252294, 2162, 785
MV, 32252302, 2114, 775
MV, 32252310, 2058, 767
MV, 32252318, 2000, 763
MV, 32252326, 1944, 757
MV, 32252334, 1896, 753
MV, 32252342, 1860, 747
MV, 32252350, 1840, 743
MV, 32252358, 1834, 740
MV, 32252366, 1835, 737
MV, 32252374, 1843, 732
MV, 32252382, 1868, 720
MV, 32252390, 1902, 706
MV, 32252398, 1938, 692
MV, 32252406, 1978, 678
MV, 32252414, 2016, 664
MV, 32252422, 2046, 652
MV, 32252430, 2064, 642
MV, 32252438, 2072, 637
MV, 32252446, 2073, 634
MV, 32252454, 2070, 630
MV, 32252462, 2058, 624
MV, 32252470, 2035, 617
MV, 32252478, 2001, 609
MV, 32252486, 1963, 601
MV, 32252494, 1925, 595
MV, 32252502, 1891, 589
MV, 32252510, 1863, 583
MV, 32252518, 1845, 579
MV, 32252526, 1837, 577
MV, 32252534, 1835, 575
MV, 32252542, 1835, 574
MV, 32252550, 1838, 571
MV, 32252558, 1848, 564
MV, 32252566, 1865, 550
MV, 32252574, 1889, 536
MV, 32252582, 1911, 522
MV, 32252590, 1927, 510
MV, 32252598, 1936, 504
MV, 32252606, 1938, 501
MV, 32252614, 1939, 499
MV, 32252622, 1937, 497
MV, 32252630, 1930, 493
MV, 32252638, 1915, 488
MV, 32252646, 1896, 483
MV, 32252654, 1876, 481
MV, 32252662, 1861, 479
