MV, 27771801, 2094, 529
MV, 27771809, 2095, 529
MV, 27771817, 2099, 528
MV, 27771825, 2107, 526
MV, 27771833, 2120, 521
MV, 27771841, 2138, 516
MV, 27771849, 2160, 510
MV, 27771857, 2190, 504
MV, 27771865, 2218, 498
MV, 27771873, 2246, 492
MV, 27771881, 2274, 486
MV, 27771889, 2300, 482
MV, 27771897, 2322, 476
MV, 27771905, 2340, 472
MV, 27771913, 2350, 468
MV, 27771921, 2355, 467
