MV, 32341577, 2262, 782
MV, 32341585, 2261, 781
MV, 32341601, 2260, 781
MV, 32341609, 2259, 781
MV, 32341617, 2258, 780
MV, 32341625, 2257, 780
MV, 32341633, 2255, 779
MV, 32341641, 2253, 778
MV, 32341649, 2251, 778
MV, 32341657, 2249, 777
MV, 32341665, 2246, 777
MV, 32341673, 2244, 776
MV, 32341681, 2243, 776
MV, 32341729, 2244, 775
MV, 32341737, 2248, 774
MV, 32341745, 2260, 771
MV, 32341753, 2281, 765
MV, 32341761, 2305, 759
MV, 32341769, 2327, 753
MV, 32341777, 2349, 747
MV, 32341785, 2367, 744
MV, 32341793, 2379, 738
MV, 32341801, 2386, 737
MV, 32341809, 2388, 736
MV, 32341825, 2389, 735
MV, 32341833, 2388, 734
MV, 32341841, 2385, 733
MV, 32341849, 2381, 732
MV, 32341857, 2371, 730
MV, 32341865, 2356, 729
MV, 32341873, 2331, 727
MV, 32341881, 2303, 725
MV, 32341889, 2273, 723
MV, 32341897, 2243, 721
MV, 32341905, 2215, 719
MV, 32341913, 2191, 715
MV, 32341921, 2173, 711
MV, 32341929, 2165, 709
MV, 32341937, 2163, 708
MV, 32341945, 2163, 707
MV, 32341953, 2165, 704
MV, 32341961, 2170, 699
MV, 32341969, 2185, 689
MV, 32341977, 2205, 675
MV, 32341985, 2227, 659
MV, 32341993, 2251, 641
MV, 32342001, 2271, 625
MV, 32342009, 2289, 607
MV, 32342017, 2301, 594
MV, 32342025, 2308, 581
MV, 32342033, 2311, 572
MV, 32342041, 2310, 565
MV, 32342049, 2306, 559
MV, 32342057, 2298, 550
MV, 32342065, 2284, 541
MV, 32342073, 2267, 531
MV, 32342081, 2241, 521
MV, 32342089, 2215, 513
MV, 32342097, 2193, 505
MV, 32342105, 2175, 500
MV, 32342113, 2165, 495
MV, 32342121, 2160, 492
MV, 32342129, 2159, 490
MV, 32342137, 2161, 487
MV, 32342145, 2169, 480
MV, 32342153, 2184, 467
MV, 32342161, 2206, 451
MV, 32342169, 2230, 433
MV, 32342177, 2254, 415
MV, 32342185, 2274, 399
MV, 32342193, 2288, 385
MV, 32342201, 2294, 379
MV, 32342209, 2294, 374
MV, 32342217, 2288, 369
MV, 32342225, 2275, 361
MV, 32342233, 2251, 351
MV, 32342241, 2219, 343
MV, 32342249, 2183, 337
MV, 32342257, 2145, 331
MV, 32342265, 2109, 327
MV, 32342273, 2075, 325
MV, 32342281, 2049, 323
MV, 32342289, 2033, 321
MV, 32342297, 2028, 319
MV, 32342305, 2027, 319
MV, 32342313, 2028, 318
MV, 32342321, 2032, 316
MV, 32342329, 2045, 312
MV, 32342337, 2065, 304
MV, 32342345, 2089, 296
MV, 32342353, 2111, 290
MV, 32342361, 2129, 284
MV, 32342369, 2139, 281
MV, 32342385, 2141, 280
MV, 32342401, 2138, 280
MV, 32342409, 2133, 280
MV, 32342417, 2123, 280
MV, 32342425, 2108, 283
MV, 32342433, 2096, 286
MV, 32342441, 2089, 291
MV, 32342449, 2085, 293
MV, 32342457, 2085, 296
MV, 32342465, 2089, 300
MV, 32342473, 2100, 305
MV, 32342481, 2121, 315
MV, 32342489, 2149, 325
MV, 32342497, 2181, 335
MV, 32342505, 2219, 345
MV, 32342513, 2255, 355
MV, 32342521, 2287, 363
MV, 32342529, 2313, 373
MV, 32342537, 2331, 383
MV, 32342545, 2341, 392
MV, 32342553, 2346, 399
MV, 32342561, 2343, 408
MV, 32342569, 2335, 419
MV, 32342577, 2320, 436
MV, 32342585, 2296, 456
MV, 32342593, 2266, 478
MV, 32342601, 2232, 502
MV, 32342609, 2194, 524
MV, 32342617, 2162, 546
MV, 32342625, 2134, 568
MV, 32342633, 2118, 586
MV, 32342641, 2112, 600
MV, 32342649, 2117, 609
MV, 32342657, 2130, 619
MV, 32342665, 2154, 631
MV, 32342673, 2186, 643
MV, 32342681, 2228, 653
MV, 32342689, 2268, 663
MV, 32342697, 2302, 671
MV, 32342705, 2332, 677
MV, 32342713, 2352, 683
MV, 32342721, 2363, 688
MV, 32342729, 2366, 691
MV, 32342737, 2366, 694
MV, 32342745, 2363, 697
MV, 32342753, 2355, 702
MV, 32342761, 2335, 714
MV, 32342769, 2309, 726
MV, 32342777, 2283, 740
MV, 32342785, 2257, 754
MV, 32342793, 2235, 768
MV, 32342801, 2219, 780
MV, 32342809, 2212, 790
MV, 32342817, 2210, 797
MV, 32342825, 2218, 806
MV, 32342833, 2232, 816
MV, 32342841, 2254, 828
MV, 32342849, 2282, 840
MV, 32342857, 2312, 852
MV, 32342865, 2344, 862
MV, 32342873, 2374, 872
MV, 32342881, 2402, 882
MV, 32342889, 2422, 892
MV, 32342897, 2432, 898
MV, 32342905, 2436, 902
MV, 32342913, 2437, 905
MV, 32342921, 2435, 909
MV, 32342929, 2429, 914
MV, 32342937, 2418, 922
MV, 32342945, 2401, 932
MV, 32342953, 2377, 944
MV, 32342961, 2351, 956
MV, 32342969, 2325, 968
MV, 32342977, 2301, 980
MV, 32342985, 2283, 992
MV, 32342993, 2274, 999
MV, 32343001, 2272, 1001
MV, 32343009, 2271, 1002
MV, 32343017, 2272, 1003
MV, 32343025, 2275, 1004
MV, 32343033, 2279, 1005
MV, 32343041, 2285, 1006
MV, 32343049, 2291, 1006
MV, 32343057, 2296, 1006
MV, 32343065, 2299, 1006
