MV, 32285874, 2172, 457
MV, 32285882, 2173, 457
MV, 32285890, 2178, 457
MV, 32285898, 2191, 457
MV, 32285906, 2213, 455
MV, 32285914, 2237, 453
MV, 32285922, 2263, 451
MV, 32285930, 2289, 451
MV, 32285938, 2315, 449
MV, 32285946, 2339, 449
MV, 32285954, 2363, 449
MV, 32285962, 2380, 449
MV, 32285970, 2390, 449
MV, 32285978, 2393, 450
MV, 32285986, 2395, 451
MV, 32285994, 2395, 453
MV, 32286002, 2394, 456
MV, 32286010, 2388, 461
MV, 32286018, 2379, 468
MV, 32286026, 2360, 480
MV, 32286034, 2332, 494
MV, 32286042, 2294, 512
MV, 32286050, 2254, 528
MV, 32286058, 2210, 546
MV, 32286066, 2168, 564
MV, 32286074, 2134, 580
MV, 32286082, 2108, 594
MV, 32286090, 2092, 606
MV, 32286098, 2089, 614
MV, 32286106, 2096, 621
MV, 32286114, 2116, 628
MV, 32286122, 2154, 638
MV, 32286130, 2218, 648
MV, 32286138, 2286, 656
MV, 32286146, 2356, 664
MV, 32286154, 2422, 670
MV, 32286162, 2478, 676
MV, 32286170, 2518, 682
MV, 32286178, 2540, 688
MV, 32286186, 2547, 693
MV, 32286194, 2546, 698
MV, 32286202, 2536, 703
MV, 32286210, 2513, 715
MV, 32286218, 2473, 729
MV, 32286226, 2427, 743
MV, 32286234, 2377, 757
MV, 32286242, 2325, 771
MV, 32286250, 2275, 785
MV, 32286258, 2233, 801
MV, 32286266, 2205, 817
MV, 32286274, 2189, 835
MV, 32286282, 2185, 850
MV, 32286290, 2192, 864
MV, 32286298, 2210, 880
MV, 32286306, 2236, 896
MV, 32286314, 2270, 912
MV, 32286322, 2308, 928
MV, 32286330, 2354, 942
MV, 32286338, 2394, 954
MV, 32286346, 2426, 966
MV, 32286354, 2450, 976
MV, 32286362, 2463, 986
MV, 32286370, 2470, 994
MV, 32286378, 2470, 1000
MV, 32286386, 2464, 1009
MV, 32286394, 2447, 1024
MV, 32286402, 2423, 1044
MV, 32286410, 2393, 1064
MV, 32286418, 2359, 1086
MV, 32286426, 2323, 1108
MV, 32286434, 2289, 1130
MV, 32286442, 2263, 1150
MV, 32286450, 2245, 1170
MV, 32286458, 2236, 1181
MV, 32286466, 2236, 1188
MV, 32286474, 2242, 1194
MV, 32286482, 2257, 1199
MV, 32286490, 2283, 1199
MV, 32286498, 2321, 1199
MV, 32286506, 2359, 1199
MV, 32286514, 2395, 1199
MV, 32286522, 2425, 1199
MV, 32286530, 2445, 1199
MV, 32286546, 2452, 1199
MV, 32286554, 2453, 1199
MV, 32286562, 2450, 1199
MV, 32286570, 2443, 1199
MV, 32286578, 2426, 1199
MV, 32286586, 2401, 1199
MV, 32286594, 2369, 1199
MV, 32286602, 2337, 1199
MV, 32286610, 2309, 1199
MV, 32286618, 2291, 1199
MV, 32286626, 2285, 1199
MV, 32286634, 2284, 1199
MV, 32286642, 2287, 1199
MV, 32286650, 2298, 1199
MV, 32286658, 2318, 1199
MV, 32286666, 2348, 1199
MV, 32286674, 2382, 1199
MV, 32286682, 2416, 1199
MV, 32286690, 2450, 1199
MV, 32286698, 2474, 1199
MV, 32286706, 2485, 1199
MV, 32286714, 2488, 1199
MV, 32286722, 2489, 1199
MV, 32286730, 2488, 1199
MV, 32286738, 2484, 1199
MV, 32286746, 2475, 1199
MV, 32286754, 2460, 1199
MV, 32286762, 2441, 1199
MV, 32286770, 2424, 1199
MV, 32286778, 2411, 1199
MV, 32286786, 2405, 1199
MV, 32286802, 2403, 1199
MV, 32286810, 2404, 1199
MV, 32286818, 2408, 1197
MV, 32286826, 2416, 1195
MV, 32286834, 2428, 1190
MV, 32286842, 2447, 1185
MV, 32286850, 2467, 1177
MV, 32286858, 2482, 1169
MV, 32286866, 2492, 1162
MV, 32286874, 2496, 1158
MV, 32286882, 2497, 1156
MV, 32286890, 2496, 1153
MV, 32286898, 2492, 1150
MV, 32286906, 2473, 1141
MV, 32286914, 2443, 1129
MV, 32286922, 2405, 1117
MV, 32286930, 2359, 1107
MV, 32286938, 2309, 1097
MV, 32286946, 2259, 1087
MV, 32286954, 2213, 1077
MV, 32286962, 2173, 1065
MV, 32286970, 2149, 1057
MV, 32286978, 2138, 1052
MV, 32286986, 2137, 1047
MV, 32286994, 2142, 1040
MV, 32287002, 2156, 1028
MV, 32287010, 2180, 1012
MV, 32287018, 2212, 994
MV, 32287026, 2246, 976
MV, 32287034, 2286, 954
MV, 32287042, 2320, 934
MV, 32287050, 2346, 916
MV, 32287058, 2362, 902
MV, 32287066, 2369, 895
MV, 32287074, 2370, 892
MV, 32287082, 2368, 888
MV, 32287090, 2355, 880
MV, 32287098, 2332, 870
MV, 32287106, 2302, 860
MV, 32287114, 2268, 850
MV, 32287122, 2232, 840
MV, 32287130, 2198, 830
MV, 32287138, 2172, 822
MV, 32287146, 2154, 814
MV, 32287154, 2146, 809
MV, 32287162, 2145, 806
MV, 32287170, 2148, 801
MV, 32287178, 2161, 792
MV, 32287186, 2182, 780
MV, 32287194, 2212, 764
MV, 32287202, 2250, 746
MV, 32287210, 2284, 730
MV, 32287218, 2312, 714
MV, 32287226, 2330, 702
MV, 32287234, 2339, 693
MV, 32287242, 2342, 689
MV, 32287250, 2340, 686
MV, 32287258, 2328, 678
MV, 32287266, 2309, 669
MV, 32287274, 2281, 657
MV, 32287282, 2249, 647
MV, 32287290, 2217, 639
MV, 32287298, 2185, 631
MV, 32287306, 2161, 625
MV, 32287314, 2145, 621
MV, 32287322, 2139, 618
MV, 32287330, 2138, 617
MV, 32287338, 2140, 615
MV, 32287346, 2148, 613
MV, 32287354, 2160, 608
MV, 32287362, 2179, 602
MV, 32287370, 2196, 596
MV, 32287378, 2206, 591
MV, 32287410, 2210, 589
