MV, 32261503, 2122, 369
MV, 32261511, 2123, 369
MV, 32261519, 2129, 369
MV, 32261527, 2138, 367
MV, 32261535, 2156, 365
MV, 32261543, 2175, 364
MV, 32261551, 2195, 362
MV, 32261559, 2214, 362
MV, 32261567, 2228, 362
MV, 32261575, 2238, 362
MV, 32261583, 2243, 362
MV, 32261591, 2245, 362
MV, 32261599, 2246, 363
MV, 32261607, 2247, 364
MV, 32261615, 2247, 366
MV, 32261623, 2245, 369
MV, 32261631, 2240, 375
MV, 32261639, 2228, 385
MV, 32261647, 2210, 400
MV, 32261655, 2186, 416
MV, 32261663, 2154, 438
MV, 32261671, 2120, 458
MV, 32261679, 2084, 478
MV, 32261687, 2052, 496
MV, 32261695, 2026, 512
MV, 32261703, 2008, 524
MV, 32261711, 2000, 533
MV, 32261719, 1998, 539
MV, 32261727, 2002, 542
MV, 32261735, 2013, 548
MV, 32261743, 2039, 556
MV, 32261751, 2073, 564
MV, 32261759, 2113, 568
MV, 32261767, 2165, 570
MV, 32261775, 2213, 572
MV, 32261783, 2257, 572
MV, 32261791, 2293, 572
MV, 32261799, 2319, 572
MV, 32261807, 2334, 572
MV, 32261815, 2340, 573
MV, 32261823, 2341, 574
MV, 32261831, 2339, 575
MV, 32261839, 2332, 579
MV, 32261847, 2317, 584
MV, 32261855, 2293, 592
MV, 32261863, 2265, 600
MV, 32261871, 2237, 608
MV, 32261879, 2209, 618
MV, 32261887, 2187, 628
MV, 32261895, 2173, 640
MV, 32261903, 2168, 647
MV, 32261911, 2170, 652
MV, 32261919, 2175, 659
MV, 32261927, 2188, 667
MV, 32261935, 2210, 677
MV, 32261943, 2238, 685
MV, 32261951, 2270, 693
MV, 32261959, 2308, 701
MV, 32261967, 2342, 709
MV, 32261975, 2370, 715
MV, 32261983, 2388, 721
MV, 32261991, 2396, 726
MV, 32261999, 2398, 729
MV, 32262007, 2397, 734
MV, 32262015, 2390, 740
MV, 32262023, 2376, 751
MV, 32262031, 2353, 765
MV, 32262039, 2321, 779
MV, 32262047, 2285, 793
MV, 32262055, 2241, 809
MV, 32262063, 2201, 823
MV, 32262071, 2169, 837
MV, 32262079, 2147, 851
MV, 32262087, 2135, 862
MV, 32262095, 2135, 870
MV, 32262103, 2142, 879
MV, 32262111, 2165, 892
MV, 32262119, 2197, 904
MV, 32262127, 2239, 914
MV, 32262135, 2287, 922
MV, 32262143, 2339, 928
MV, 32262151, 2395, 936
MV, 32262159, 2443, 944
MV, 32262167, 2477, 952
MV, 32262175, 2497, 958
MV, 32262183, 2504, 963
MV, 32262191, 2501, 966
MV, 32262199, 2490, 972
MV, 32262207, 2465, 982
MV, 32262215, 2429, 992
MV, 32262223, 2385, 1002
MV, 32262231, 2337, 1010
MV, 32262239, 2279, 1020
MV, 32262247, 2229, 1030
MV, 32262255, 2189, 1040
MV, 32262263, 2159, 1048
MV, 32262271, 2143, 1054
MV, 32262279, 2137, 1057
MV, 32262287, 2138, 1059
MV, 32262295, 2144, 1061
MV, 32262303, 2160, 1063
MV, 32262311, 2186, 1065
MV, 32262319, 2218, 1065
MV, 32262327, 2252, 1065
MV, 32262335, 2290, 1061
MV, 32262343, 2322, 1057
MV, 32262351, 2346, 1053
MV, 32262359, 2359, 1049
MV, 32262367, 2363, 1048
MV, 32262375, 2364, 1047
MV, 32262383, 2363, 1046
MV, 32262391, 2357, 1045
MV, 32262399, 2347, 1042
MV, 32262407, 2330, 1038
MV, 32262415, 2306, 1034
MV, 32262423, 2278, 1032
MV, 32262431, 2252, 1028
MV, 32262439, 2232, 1026
MV, 32262447, 2220, 1025
MV, 32262463, 2216, 1023
MV, 32262471, 2215, 1021
MV, 32262479, 2216, 1019
MV, 32262487, 2219, 1016
MV, 32262495, 2226, 1010
MV, 32262503, 2238, 1000
MV, 32262511, 2255, 986
MV, 32262519, 2271, 974
MV, 32262527, 2280, 965
MV, 32262535, 2284, 960
MV, 32262543, 2285, 956
MV, 32262551, 2283, 953
MV, 32262559, 2275, 948
MV, 32262567, 2255, 941
MV, 32262575, 2221, 931
MV, 32262583, 2181, 921
MV, 32262591, 2137, 913
MV, 32262599, 2093, 905
MV, 32262607, 2051, 899
MV, 32262615, 2015, 891
MV, 32262623, 1991, 885
MV, 32262631, 1980, 881
MV, 32262639, 1978, 879
MV, 32262647, 1980, 876
MV, 32262655, 1988, 869
MV, 32262663, 2009, 857
MV, 32262671, 2037, 845
MV, 32262679, 2069, 831
MV, 32262687, 2103, 817
MV, 32262695, 2137, 803
MV, 32262703, 2161, 791
MV, 32262711, 2177, 784
MV, 32262719, 2183, 779
MV, 32262727, 2184, 778
MV, 32262735, 2183, 776
MV, 32262743, 2177, 773
MV, 32262751, 2165, 766
MV, 32262759, 2143, 758
MV, 32262767, 2117, 750
MV, 32262775, 2085, 744
MV, 32262783, 2055, 738
MV, 32262791, 2031, 732
MV, 32262799, 2016, 727
MV, 32262807, 2010, 724
MV, 32262815, 2008, 722
MV, 32262823, 2008, 720
MV, 32262831, 2011, 715
MV, 32262839, 2021, 708
MV, 32262847, 2043, 696
MV, 32262855, 2073, 678
MV, 32262863, 2103, 662
MV, 32262871, 2129, 646
MV, 32262879, 2147, 632
MV, 32262887, 2156, 623
MV, 32262895, 2159, 618
MV, 32262903, 2156, 614
MV, 32262911, 2150, 609
MV, 32262919, 2135, 603
MV, 32262927, 2107, 593
MV, 32262935, 2077, 585
MV, 32262943, 2045, 577
MV, 32262951, 2015, 571
MV, 32262959, 1989, 567
MV, 32262967, 1969, 563
MV, 32262975, 1961, 561
MV, 32262983, 1959, 560
MV, 32262991, 1958, 559
MV, 32262999, 1958, 558
MV, 32263007, 1961, 556
MV, 32263015, 1967, 552
MV, 32263023, 1978, 548
MV, 32263031, 1989, 541
MV, 32263039, 1997, 537
MV, 32263047, 2000, 534
