MV, 27531885, 2377, 492
MV, 27531893, 2379, 492
MV, 27531901, 2385, 494
MV, 27531909, 2395, 499
MV, 27531917, 2408, 504
MV, 27531925, 2422, 511
MV, 27531933, 2437, 518
MV, 27531941, 2451, 525
MV, 27531949, 2463, 530
MV, 27531957, 2474, 535
MV, 27531965, 2483, 538
MV, 27531973, 2490, 539
MV, 27531981, 2496, 539
MV, 27531989, 2502, 539
MV, 27531997, 2507, 539
MV, 27532005, 2512, 538
MV, 27532013, 2515, 537
MV, 27532021, 2517, 535
MV, 27532029, 2518, 532
MV, 27532037, 2519, 529
MV, 27532045, 2520, 526
MV, 27532053, 2520, 522
MV, 27532061, 2519, 517
MV, 27532069, 2516, 513
MV, 27532077, 2514, 509
MV, 27532085, 2512, 506
MV, 27532093, 2510, 504
MV, 27532101, 2507, 503
MV, 27532109, 2503, 502
MV, 27532117, 2498, 502
MV, 27532125, 2491, 503
MV, 27532133, 2482, 506
MV, 27532141, 2472, 509
MV, 27532149, 2461, 514
MV, 27532157, 2449, 519
MV, 27532165, 2440, 525
MV, 27532173, 2429, 532
MV, 27532181, 2417, 538
MV, 27532189, 2405, 545
MV, 27532197, 2396, 550
MV, 27532205, 2387, 553
MV, 27532213, 2380, 557
MV, 27532221, 2374, 559
MV, 27532229, 2369, 561
MV, 27532237, 2364, 562
MV, 27532245, 2358, 562
MV, 27532253, 2354, 562
MV, 27532261, 2349, 562
MV, 27532269, 2346, 561
MV, 27532277, 2343, 559
MV, 27532285, 2341, 557
MV, 27532293, 2340, 554
MV, 27532301, 2340, 551
MV, 27532309, 2342, 548
MV, 27532317, 2347, 544
MV, 27532325, 2353, 540
MV, 27532333, 2363, 536
MV, 27532341, 2377, 534
MV, 27532349, 2390, 532
MV, 27532357, 2408, 532
MV, 27532365, 2425, 534
MV, 27532373, 2436, 536
MV, 27532381, 2447, 539
MV, 27532389, 2454, 541
MV, 27532397, 2461, 542
MV, 27532405, 2464, 543
MV, 27532413, 2466, 543
MV, 27532421, 2468, 543
MV, 27532429, 2469, 542
MV, 27532437, 2470, 541
MV, 27532445, 2470, 539
MV, 27532453, 2471, 536
MV, 27532461, 2471, 532
MV, 27532469, 2471, 526
MV, 27532477, 2471, 518
MV, 27532485, 2471, 510
MV, 27532493, 2471, 501
MV, 27532501, 2470, 491
MV, 27532509, 2468, 480
MV, 27532517, 2466, 470
MV, 27532525, 2465, 461
MV, 27532533, 2464, 456
MV, 27532541, 2464, 454
