t,x,y,v,xdecoded,ydecoded,xerror,yerror,abserror
0,0,0,0.176777,0,0,0,0, 0.0
8,1,-1,0.395285,1,-1,0,0, 0.0
16,4,-2,0.559017,4,-2,0,0, 0.0
24,8,-4,0.637377,8,-4,0,0, 0.0
32,13,-5,0.728869,13,-5,0,0, 0.0
40,18,-8,0.279508,18,-8,0,0, 0.0
48,20,-9,1.007782,20,-9,0,0, 0.0
56,28,-10,0.637377,28,-10,0,0, 0.0
64,33,-11,0.395285,33,-11,0,0, 0.0
72,36,-12,0.250000,36,-12,0,0, 0.0
80,38,-12,0.750000,38,-12,0,0, 0.0
88,44,-12,0.750000,44,-12,0,0, 0.0
96,50,-12,0.375000,50,-12,0,0, 0.0
104,47,-12,2.375000,47,-12,0,0, 0.0
112,28,-12,2.875000,28,-12,0,0, 0.0
120,5,-12,4.250000,5,-12,0,0, 0.0
128,-29,-12,4.125000,-29,-12,0,0, 0.0
136,-62,-12,5.375000,-62,-12,0,0, 0.0
144,-105,-12,3.500000,-105,-12,0,0, 0.0
152,-133,-12,1.875000,-133,-12,0,0, 0.0
160,-148,-12,0.500000,-148,-12,0,0, 0.0
168,-152,-12,0.515388,-152,-12,0,0, 0.0
176,-148,-13,1.940522,-148,-13,0,0, 0.0
184,-133,-17,4.527693,-133,-17,0,0, 0.0
192,-97,-21,6.082763,-97,-21,0,0, 0.0
200,-49,-29,7.071068,-49,-29,0,0, 0.0
208,7,-37,8.877640,7,-37,0,0, 0.0
216,77,-49,8.139410,77,-49,0,0, 0.0
224,141,-61,7.215435,141,-61,0,0, 0.0
232,197,-75,6.010408,197,-75,0,0, 0.0
240,243,-89,4.272002,243,-89,0,0, 0.0
248,275,-101,3.020761,275,-101,0,0, 0.0
256,297,-111,1.286954,297,-111,0,0, 0.0
264,306,-116,0.450694,306,-116,0,0, 0.0
272,308,-119,0.625000,308,-119,0,0, 0.0
280,308,-124,0.838525,308,-124,0,0, 0.0
288,305,-130,1.007782,305,-130,0,0, 0.0
296,301,-137,0.901388,301,-137,0,0, 0.0
304,297,-143,0.910014,297,-143,0,0, 0.0
312,295,-150,1.118034,295,-150,0,0, 0.0
320,299,-158,1.952562,299,-158,0,0, 0.0
328,311,-168,1.566246,311,-168,0,0, 0.0
336,322,-174,5.478652,322,-174,0,0, 0.0
344,361,-194,4.038874,361,-194,0,0, 0.0
352,391,-206,4.366062,391,-206,0,0, 0.0
360,423,-220,2.136001,423,-220,0,0, 0.0
368,439,-226,4.272002,439,-226,0,0, 0.0
376,471,-238,2.576941,471,-238,0,0, 0.0
384,490,-246,0.559017,490,-246,0,0, 0.0
392,486,-244,1.068000,486,-244,0,0, 0.0
400,478,-241,0.279508,478,-241,0,0, 0.0
408,479,-243,0.530330,479,-243,0,0, 0.0
416,476,-246,0.838525,476,-246,0,0, 0.0
424,470,-249,0.910014,470,-249,0,0, 0.0
432,463,-251,0.450694,463,-251,0,0, 0.0
440,460,-253,0.279508,460,-253,0,0, 0.0
448,459,-255,0.625000,459,-255,0,0, 0.0
456,463,-258,1.956559,463,-258,0,0, 0.0
464,477,-265,3.807887,477,-265,0,0, 0.0
472,505,-277,4.366062,505,-277,0,0, 0.0
480,537,-291,5.618051,537,-291,0,0, 0.0
488,579,-307,4.596194,579,-307,0,0, 0.0
496,613,-321,3.482097,613,-321,0,0, 0.0
504,639,-331,2.015564,639,-331,0,0, 0.0
512,653,-339,0.728869,653,-339,0,0, 0.0
520,658,-342,0.353553,658,-342,0,0, 0.0
528,660,-344,0.530330,660,-344,0,0, 0.0
536,657,-347,1.328768,657,-347,0,0, 0.0
544,649,-354,2.294695,649,-354,0,0, 0.0
552,633,-363,3.020761,633,-363,0,0, 0.0
560,611,-373,3.020761,611,-373,0,0, 0.0
568,589,-383,2.573908,589,-383,0,0, 0.0
576,571,-393,2.050152,571,-393,0,0, 0.0
584,558,-403,1.250000,558,-403,0,0, 0.0
592,550,-409,0.707107,550,-409,0,0, 0.0
600,546,-413,0.637377,546,-413,0,0, 0.0
608,545,-418,0.395285,545,-418,0,0, 0.0
616,544,-421,0.375000,544,-421,0,0, 0.0
624,544,-424,0.515388,544,-424,0,0, 0.0
632,543,-428,1.237437,543,-428,0,0, 0.0
640,536,-435,1.802776,536,-435,0,0, 0.0
648,524,-443,2.627975,524,-443,0,0, 0.0
656,505,-452,3.020761,505,-452,0,0, 0.0
664,483,-462,2.795085,483,-462,0,0, 0.0
672,463,-472,1.776584,463,-472,0,0, 0.0
680,452,-481,1.118034,452,-481,0,0, 0.0
688,448,-489,1.007782,448,-489,0,0, 0.0
696,449,-497,2.186607,449,-497,0,0, 0.0
704,458,-512,3.400368,458,-512,0,0, 0.0
712,474,-534,5.153882,474,-534,0,0, 0.0
720,500,-566,4.776243,500,-566,0,0, 0.0
728,528,-592,4.069705,528,-592,0,0, 0.0
736,552,-614,2.657536,552,-614,0,0, 0.0
744,566,-630,1.352082,566,-630,0,0, 0.0
752,572,-639,0.559017,572,-639,0,0, 0.0
760,574,-643,0.637377,574,-643,0,0, 0.0
768,569,-644,1.380670,569,-644,0,0, 0.0
776,558,-645,3.125000,558,-645,0,0, 0.0
784,533,-645,5.250000,533,-645,0,0, 0.0
792,491,-645,5.500000,491,-645,0,0, 0.0
800,447,-645,4.750000,447,-645,0,0, 0.0
808,409,-645,3.758324,409,-645,0,0, 0.0
816,379,-647,2.000000,379,-647,0,0, 0.0
824,363,-647,0.673146,363,-647,0,0, 0.0
832,358,-649,0.279508,358,-649,0,0, 0.0
840,356,-650,0.279508,356,-650,0,0, 0.0
848,357,-652,0.625000,357,-652,0,0, 0.0
856,361,-655,1.457738,361,-655,0,0, 0.0
864,371,-661,2.531057,371,-661,0,0, 0.0
872,388,-672,3.132491,388,-672,0,0, 0.0
880,410,-684,2.573908,410,-684,0,0, 0.0
888,428,-694,1.397542,428,-694,0,0, 0.0
896,438,-699,0.673146,438,-699,0,0, 0.0
904,443,-701,0.279508,443,-701,0,0, 0.0
912,445,-702,0.000000,445,-702,0,0, 0.0
920,445,-702,0.176777,445,-702,0,0, 0.0
928,444,-701,0.250000,444,-701,0,0, 0.0
936,442,-701,0.125000,442,-701,0,0, 0.0
944,441,-701,0.125000,441,-701,0,0, 0.0
952,441,-702,0.125000,441,-702,0,0, 0.0
960,440,-702,0.279508,440,-702,0,0, 0.0
968,438,-701,0.250000,438,-701,0,0, 0.0
976,436,-701,0.279508,436,-701,0,0, 0.0
984,434,-700,0.353553,434,-700,0,0, 0.0
992,432,-698,0.559017,432,-698,0,0, 0.0
1000,430,-694,0.673146,430,-694,0,0, 0.0
1008,428,-689,0.673146,428,-689,0,0, 0.0
1016,426,-684,0.673146,426,-684,0,0, 0.0
1024,424,-679,0.760345,424,-679,0,0, 0.0
1032,423,-673,0.673146,423,-673,0,0, 0.0
1040,421,-668,0.637377,421,-668,0,0, 0.0
1048,420,-663,0.625000,420,-663,0,0, 0.0
1056,420,-658,0.395285,420,-658,0,0, 0.0
1064,419,-655,0.250000,419,-655,0,0, 0.0
1072,419,-653,0.125000,419,-653,0,0, 0.0
1080,420,-653,0.125000,420,-653,0,0, 0.0
1088,420,-654,0.559017,420,-654,0,0, 0.0
1096,422,-658,0.790569,422,-658,0,0, 0.0
1104,424,-664,1.152443,424,-664,0,0, 0.0
1112,426,-673,1.425219,426,-673,0,0, 0.0
1120,429,-684,1.940522,429,-684,0,0, 0.0
1128,433,-699,0.000000,433,-699,0,0, 0.0
