t,x,y,v,xdecoded,ydecoded,xerror,yerror,abserror
0,0,0,0.176777,0,0,0,0, 0.0
8,1,-1,0.250000,1,-1,0,0, 0.0
16,3,-1,1.000000,3,-1,0,0, 0.0
24,11,-1,2.250000,11,-1,0,0, 0.0
32,29,-1,5.250000,29,-1,0,0, 0.0
40,71,-1,7.000000,71,-1,0,0, 0.0
48,127,-1,7.250000,127,-1,0,0, 0.0
56,185,-1,7.000000,185,-1,0,0, 0.0
64,241,-1,6.750000,241,-1,0,0, 0.0
72,295,-1,5.250000,295,-1,0,0, 0.0
80,337,-1,4.031129,337,-1,0,0, 0.0
88,369,3,2.304886,369,3,0,0, 0.0
96,387,7,1.068000,387,7,0,0, 0.0
104,395,10,0.625000,395,10,0,0, 0.0
112,395,15,0.800391,395,15,0,0, 0.0
120,391,20,2.752839,391,20,0,0, 0.0
128,374,34,3.952847,374,34,0,0, 0.0
136,348,52,4.031129,348,52,0,0, 0.0
144,320,68,3.259601,320,68,0,0, 0.0
152,298,82,1.736555,298,82,0,0, 0.0
160,286,89,0.707107,286,89,0,0, 0.0
168,282,93,0.838525,282,93,0,0, 0.0
176,288,96,2.651650,288,96,0,0, 0.0
184,309,99,4.756574,309,99,0,0, 0.0
192,347,101,7.017834,347,101,0,0, 0.0
200,403,97,8.035079,403,97,0,0, 0.0
208,467,91,8.310385,467,91,0,0, 0.0
216,533,83,8.806957,533,83,0,0, 0.0
224,603,75,7.831228,603,75,0,0, 0.0
232,665,66,8.078714,665,66,0,0, 0.0
240,729,57,5.024938,729,57,0,0, 0.0
248,769,53,3.010399,769,53,0,0, 0.0
256,793,51,1.000000,793,51,0,0, 0.0
264,801,51,0.000000,801,51,0,0, 0.0
272,801,51,0.250000,801,51,0,0, 0.0
280,803,51,0.000000,803,51,0,0, 0.0
288,803,51,0.176777,803,51,0,0, 0.0
296,802,52,0.125000,802,52,0,0, 0.0
304,801,52,0.176777,801,52,0,0, 0.0
312,802,53,0.515388,802,53,0,0, 0.0
320,806,54,1.644118,806,54,0,0, 0.0
328,819,56,3.758324,819,56,0,0, 0.0
336,849,58,5.755432,849,58,0,0, 0.0
344,895,60,6.254998,895,60,0,0, 0.0
352,945,62,6.000000,945,62,0,0, 0.0
360,993,62,5.505679,993,62,0,0, 0.0
368,1037,64,4.279311,1037,64,0,0, 0.0
376,1071,68,3.092329,1071,68,0,0, 0.0
384,1095,74,1.510381,1095,74,0,0, 0.0
392,1106,79,0.637377,1106,79,0,0, 0.0
400,1107,84,0.901388,1107,84,0,0, 0.0
408,1103,90,2.034853,1103,90,0,0, 0.0
416,1092,102,2.657536,1092,102,0,0, 0.0
424,1076,116,2.225562,1076,116,0,0, 0.0
432,1062,127,1.250000,1062,127,0,0, 0.0
440,1056,135,0.625000,1056,135,0,0, 0.0
448,1053,139,0.395285,1053,139,0,0, 0.0
456,1054,142,1.185854,1054,142,0,0, 0.0
464,1063,145,2.885849,1063,145,0,0, 0.0
472,1086,147,3.508917,1086,147,0,0, 0.0
480,1114,149,3.500000,1114,149,0,0, 0.0
488,1142,149,3.535534,1142,149,0,0, 0.0
496,1170,145,3.092329,1170,145,0,0, 0.0
504,1194,139,1.940522,1194,139,0,0, 0.0
512,1209,135,0.673146,1209,135,0,0, 0.0
520,1214,133,0.000000,1214,133,0,0, 0.0
528,1214,133,0.125000,1214,133,0,0, 0.0
536,1214,132,0.279508,1214,132,0,0, 0.0
544,1216,131,0.125000,1216,131,0,0, 0.0
552,1216,130,0.125000,1216,130,0,0, 0.0
560,1216,129,0.000000,1216,129,0,0, 0.0
568,1216,129,0.125000,1216,129,0,0, 0.0
576,1216,128,0.000000,1216,128,0,0, 0.0
584,1216,128,0.176777,1216,128,0,0, 0.0
592,1217,127,0.673146,1217,127,0,0, 0.0
600,1222,125,2.215006,1222,125,0,0, 0.0
608,1239,120,3.824265,1239,120,0,0, 0.0
616,1269,114,0.838525,1269,114,0,0, 0.0
624,1272,108,0.750000,1272,108,0,0, 0.0
632,1272,102,0.500000,1272,102,0,0, 0.0
640,1272,98,0.375000,1272,98,0,0, 0.0
648,1272,95,0.000000,1272,95,0,0, 0.0
