t,x,y,v,xdecoded,ydecoded,xerror,yerror,abserror
0,0,0,0.279508,0,0,0,0, 0.0
8,-2,1,0.250000,-2,1,0,0, 0.0
16,-4,1,0.515388,-4,1,0,0, 0.0
24,-8,2,0.515388,-8,2,0,0, 0.0
32,-12,3,0.625000,-12,3,0,0, 0.0
40,-17,3,0.637377,-17,3,0,0, 0.0
48,-22,4,0.883883,-22,4,0,0, 0.0
56,-29,5,0.875000,-29,5,0,0, 0.0
64,-36,5,0.750000,-36,5,0,0, 0.0
72,-42,5,0.637377,-42,5,0,0, 0.0
80,-47,4,0.559017,-47,4,0,0, 0.0
88,-51,2,0.728869,-51,2,0,0, 0.0
96,-56,-1,0.838525,-56,-1,0,0, 0.0
104,-59,-7,1.380670,-59,-7,0,0, 0.0
112,-60,-18,1.875000,-60,-18,0,0, 0.0
120,-60,-33,2.490607,-60,-33,0,0, 0.0
128,-54,-52,3.134984,-54,-52,0,0, 0.0
136,-44,-75,3.302461,-44,-75,0,0, 0.0
144,-31,-98,3.201562,-31,-98,0,0, 0.0
152,-15,-118,2.918154,-15,-118,0,0, 0.0
160,2,-134,2.601082,2,-134,0,0, 0.0
168,19,-146,2.236068,19,-146,0,0, 0.0
176,35,-154,2.061553,35,-154,0,0, 0.0
184,51,-158,1.754459,51,-158,0,0, 0.0
192,65,-159,1.274755,65,-159,0,0, 0.0
200,75,-157,1.179248,75,-157,0,0, 0.0
208,83,-152,0.728869,83,-152,0,0, 0.0
216,88,-149,0.800391,88,-149,0,0, 0.0
224,92,-144,0.637377,92,-144,0,0, 0.0
232,93,-139,0.625000,93,-139,0,0, 0.0
240,93,-134,0.637377,93,-134,0,0, 0.0
248,92,-129,0.951972,92,-129,0,0, 0.0
256,89,-122,1.179248,89,-122,0,0, 0.0
264,84,-114,1.328768,84,-114,0,0, 0.0
272,77,-106,1.237437,77,-106,0,0, 0.0
280,70,-99,1.060660,70,-99,0,0, 0.0
288,64,-93,0.800391,64,-93,0,0, 0.0
296,59,-89,0.395285,59,-89,0,0, 0.0
304,56,-88,0.000000,56,-88,0,0, 0.0
312,56,-88,0.000000,56,-88,0,0, 0.0
320,56,-88,0.000000,56,-88,0,0, 0.0
328,56,-88,0.625000,56,-88,0,0, 0.0
336,59,-92,1.681703,59,-92,0,0, 0.0
344,69,-101,2.427061,69,-101,0,0, 0.0
352,85,-112,2.601082,85,-112,0,0, 0.0
360,102,-124,2.963317,102,-124,0,0, 0.0
368,123,-135,3.300095,123,-135,0,0, 0.0
376,147,-146,3.043949,147,-146,0,0, 0.0
384,170,-154,2.531057,170,-154,0,0, 0.0
392,189,-161,2.034853,189,-161,0,0, 0.0
400,205,-164,1.256234,205,-164,0,0, 0.0
408,215,-165,0.760345,215,-165,0,0, 0.0
416,221,-164,0.450694,221,-164,0,0, 0.0
424,224,-162,0.395285,224,-162,0,0, 0.0
432,227,-161,0.176777,227,-161,0,0, 0.0
440,228,-160,0.500000,228,-160,0,0, 0.0
448,228,-156,0.500000,228,-156,0,0, 0.0
456,228,-152,0.279508,228,-152,0,0, 0.0
464,227,-150,0.279508,227,-150,0,0, 0.0
472,226,-148,0.250000,226,-148,0,0, 0.0
480,226,-146,0.000000,226,-146,0,0, 0.0
488,226,-146,0.000000,226,-146,0,0, 0.0
496,226,-146,0.375000,226,-146,0,0, 0.0
504,229,-146,0.637377,229,-146,0,0, 0.0
512,234,-147,1.030776,234,-147,0,0, 0.0
520,242,-149,1.231107,242,-149,0,0, 0.0
528,251,-153,1.346291,251,-153,0,0, 0.0
536,261,-157,1.305038,261,-157,0,0, 0.0
544,271,-160,1.030776,271,-160,0,0, 0.0
552,279,-162,0.790569,279,-162,0,0, 0.0
560,285,-164,0.559017,285,-164,0,0, 0.0
568,289,-166,0.395285,289,-166,0,0, 0.0
576,292,-167,0.279508,292,-167,0,0, 0.0
584,294,-168,0.250000,294,-168,0,0, 0.0
592,296,-168,0.176777,296,-168,0,0, 0.0
600,297,-169,0.395285,297,-169,0,0, 0.0
608,300,-170,0.515388,300,-170,0,0, 0.0
616,304,-171,0.450694,304,-171,0,0, 0.0
624,307,-173,0.515388,307,-173,0,0, 0.0
632,311,-174,0.559017,311,-174,0,0, 0.0
640,315,-176,0.559017,315,-176,0,0, 0.0
648,319,-178,0.395285,319,-178,0,0, 0.0
656,322,-179,0.250000,322,-179,0,0, 0.0
664,324,-179,0.250000,324,-179,0,0, 0.0
672,326,-179,0.000000,326,-179,0,0, 0.0
680,326,-179,0.125000,326,-179,0,0, 0.0
688,327,-179,0.176777,327,-179,0,0, 0.0
696,328,-178,0.000000,328,-178,0,0, 0.0
704,328,-178,0.279508,328,-178,0,0, 0.0
712,329,-176,0.500000,329,-176,0,0, 0.0
720,329,-172,0.760345,329,-172,0,0, 0.0
728,328,-166,0.838525,328,-166,0,0, 0.0
736,325,-160,0.000000,325,-160,0,0, 0.0
