t,x,y,v,xdecoded,ydecoded,xerror,yerror,abserror
0,0,0,0.125000,0,0,0,0, 0.0
8,0,1,0.125000,0,1,0,0, 0.0
16,0,2,0.279508,0,2,0,0, 0.0
24,-1,4,0.176777,-1,4,0,0, 0.0
32,-2,5,0.395285,-2,5,0,0, 0.0
40,-3,8,0.353553,-3,8,0,0, 0.0
48,-5,10,0.530330,-5,10,0,0, 0.0
56,-8,13,0.395285,-8,13,0,0, 0.0
64,-11,14,0.450694,-11,14,0,0, 0.0
72,-14,16,0.279508,-14,16,0,0, 0.0
80,-16,17,0.176777,-16,17,0,0, 0.0
88,-17,18,0.000000,-17,18,0,0, 0.0
96,-17,18,0.000000,-17,18,0,0, 0.0
104,-17,18,0.125000,-17,18,0,0, 0.0
112,-18,18,0.000000,-18,18,0,0, 0.0
120,-18,18,0.250000,-18,18,0,0, 0.0
128,-16,18,0.910014,-16,18,0,0, 0.0
136,-9,16,1.274755,-9,16,0,0, 0.0
144,1,14,1.789728,1,14,0,0, 0.0
152,15,11,2.157835,15,11,0,0, 0.0
160,32,8,2.003902,32,8,0,0, 0.0
168,48,7,1.500000,48,7,0,0, 0.0
176,60,7,0.883883,60,7,0,0, 0.0
184,67,8,0.515388,67,8,0,0, 0.0
192,71,9,0.353553,71,9,0,0, 0.0
200,73,11,0.279508,73,11,0,0, 0.0
208,74,13,0.515388,74,13,0,0, 0.0
216,73,17,0.901388,73,17,0,0, 0.0
224,69,23,1.152443,69,23,0,0, 0.0
232,63,30,1.328768,63,30,0,0, 0.0
240,55,37,1.600781,55,37,0,0, 0.0
248,45,45,1.328768,45,45,0,0, 0.0
256,37,52,0.800391,37,52,0,0, 0.0
264,32,56,0.530330,32,56,0,0, 0.0
272,29,59,0.176777,29,59,0,0, 0.0
280,28,60,0.125000,28,60,0,0, 0.0
288,29,60,0.500000,29,60,0,0, 0.0
296,33,60,0.875000,33,60,0,0, 0.0
304,40,60,1.256234,40,60,0,0, 0.0
312,50,59,1.754459,50,59,0,0, 0.0
320,64,58,2.388122,64,58,0,0, 0.0
328,83,56,2.378287,83,56,0,0, 0.0
336,102,55,1.767767,102,55,0,0, 0.0
344,116,57,0.910014,116,57,0,0, 0.0
352,123,59,0.559017,123,59,0,0, 0.0
360,127,61,0.395285,127,61,0,0, 0.0
368,128,64,0.790569,128,64,0,0, 0.0
376,126,70,1.250000,126,70,0,0, 0.0
384,120,78,1.858259,120,78,0,0, 0.0
392,110,89,2.741464,110,89,0,0, 0.0
400,94,104,3.535534,94,104,0,0, 0.0
408,74,124,2.828427,74,124,0,0, 0.0
416,58,140,1.858259,58,140,0,0, 0.0
424,48,151,1.179248,48,151,0,0, 0.0
432,43,159,0.637377,43,159,0,0, 0.0
440,42,164,0.279508,42,164,0,0, 0.0
448,43,166,0.279508,43,166,0,0, 0.0
456,45,167,0.515388,45,167,0,0, 0.0
464,49,168,1.152443,49,168,0,0, 0.0
472,58,170,1.250000,58,170,0,0, 0.0
480,68,170,1.500000,68,170,0,0, 0.0
488,80,170,1.256234,80,170,0,0, 0.0
496,90,171,1.250000,90,171,0,0, 0.0
504,100,171,1.000000,100,171,0,0, 0.0
512,108,171,0.637377,108,171,0,0, 0.0
520,113,172,0.790569,113,172,0,0, 0.0
528,119,174,0.673146,119,174,0,0, 0.0
536,124,176,0.625000,124,176,0,0, 0.0
544,128,179,0.395285,128,179,0,0, 0.0
552,131,180,0.125000,131,180,0,0, 0.0
560,131,181,0.176777,131,181,0,0, 0.0
568,132,182,0.625000,132,182,0,0, 0.0
576,135,186,1.007782,135,186,0,0, 0.0
584,139,193,0.790569,139,193,0,0, 0.0
592,141,199,0.375000,141,199,0,0, 0.0
600,141,202,0.395285,141,202,0,0, 0.0
608,142,205,0.375000,142,205,0,0, 0.0
616,142,208,0.250000,142,208,0,0, 0.0
624,142,210,0.279508,142,210,0,0, 0.0
632,141,212,0.250000,141,212,0,0, 0.0
640,141,214,0.125000,141,214,0,0, 0.0
648,142,214,0.000000,142,214,0,0, 0.0
656,142,214,0.000000,142,214,0,0, 0.0
664,142,214,0.125000,142,214,0,0, 0.0
672,143,214,0.176777,143,214,0,0, 0.0
680,144,213,0.279508,144,213,0,0, 0.0
688,146,212,0.353553,146,212,0,0, 0.0
696,148,210,0.176777,148,210,0,0, 0.0
704,149,209,0.125000,149,209,0,0, 0.0
712,149,208,0.279508,149,208,0,0, 0.0
720,150,206,0.000000,150,206,0,0, 0.0
728,150,206,0.000000,150,206,0,0, 0.0
736,150,206,0.395285,150,206,0,0, 0.0
744,147,205,0.760345,147,205,0,0, 0.0
752,141,204,1.125000,141,204,0,0, 0.0
760,132,204,1.500000,132,204,0,0, 0.0
768,120,204,2.500000,120,204,0,0, 0.0
776,100,204,3.384247,100,204,0,0, 0.0
784,73,206,3.375000,73,206,0,0, 0.0
792,46,206,2.761340,46,206,0,0, 0.0
800,24,204,1.789728,24,204,0,0, 0.0
808,10,201,1.007782,10,201,0,0, 0.0
816,3,197,0.707107,3,197,0,0, 0.0
824,-1,193,0.559017,-1,193,0,0, 0.0
832,-3,189,0.750000,-3,189,0,0, 0.0
840,-3,183,1.030776,-3,183,0,0, 0.0
848,-1,175,1.231107,-1,175,0,0, 0.0
856,3,166,1.397542,3,166,0,0, 0.0
864,8,156,1.625000,8,156,0,0, 0.0
872,13,144,1.131923,13,144,0,0, 0.0
880,14,135,0.760345,14,135,0,0, 0.0
888,13,129,0.728869,13,129,0,0, 0.0
896,10,124,1.007782,10,124,0,0, 0.0
904,3,120,1.397542,3,120,0,0, 0.0
912,-8,118,2.263846,-8,118,0,0, 0.0
920,-26,116,2.627975,-26,116,0,0, 0.0
928,-47,115,2.500000,-47,115,0,0, 0.0
936,-67,115,1.875000,-67,115,0,0, 0.0
944,-82,115,1.274755,-82,115,0,0, 0.0
952,-92,113,0.838525,-92,113,0,0, 0.0
960,-98,110,0.530330,-98,110,0,0, 0.0
968,-101,107,0.515388,-101,107,0,0, 0.0
976,-102,103,1.030776,-102,103,0,0, 0.0
984,-100,95,1.525819,-100,95,0,0, 0.0
992,-93,85,1.700184,-93,85,0,0, 0.0
1000,-85,74,1.525819,-85,74,0,0, 0.0
1008,-78,64,0.951972,-78,64,0,0, 0.0
1016,-75,57,0.515388,-75,57,0,0, 0.0
1024,-74,53,0.250000,-74,53,0,0, 0.0
1032,-74,51,0.395285,-74,51,0,0, 0.0
1040,-77,50,0.625000,-77,50,0,0, 0.0
1048,-82,50,1.007782,-82,50,0,0, 0.0
1056,-90,51,1.274755,-90,51,0,0, 0.0
1064,-100,53,1.068000,-100,53,0,0, 0.0
1072,-108,56,0.910014,-108,56,0,0, 0.0
1080,-115,58,0.673146,-115,58,0,0, 0.0
1088,-120,60,0.375000,-120,60,0,0, 0.0
1096,-123,60,0.000000,-123,60,0,0, 0.0
1104,-123,60,0.000000,-123,60,0,0, 0.0
1112,-123,60,0.279508,-123,60,0,0, 0.0
1120,-121,61,0.000000,-121,61,0,0, 0.0
