t,x,y,v,xdecoded,ydecoded,xerror,yerror,abserror
0,0,0,0.395285,0,0,0,0, 0.0
8,3,-1,0.375000,3,-1,0,0, 0.0
16,6,-1,0.637377,6,-1,0,0, 0.0
24,11,-2,2.215006,11,-2,0,0, 0.0
32,28,-7,4.069705,28,-7,0,0, 0.0
40,60,-13,5.396758,60,-13,0,0, 0.0
48,102,-23,6.082763,102,-23,0,0, 0.0
56,150,-31,7.110731,150,-31,0,0, 0.0
64,206,-41,7.566373,206,-41,0,0, 0.0
72,266,-49,8.284021,266,-49,0,0, 0.0
80,332,-55,7.267221,332,-55,0,0, 0.0
88,390,-59,5.522681,390,-59,0,0, 0.0
96,434,-63,3.508917,434,-63,0,0, 0.0
104,462,-65,1.125000,462,-65,0,0, 0.0
112,471,-65,0.125000,471,-65,0,0, 0.0
120,472,-65,0.250000,472,-65,0,0, 0.0
128,474,-65,0.375000,474,-65,0,0, 0.0
136,471,-65,1.375000,471,-65,0,0, 0.0
144,460,-65,3.125000,460,-65,0,0, 0.0
152,435,-65,5.500000,435,-65,0,0, 0.0
160,391,-65,6.500000,391,-65,0,0, 0.0
168,339,-65,7.004463,339,-65,0,0, 0.0
176,283,-63,7.250000,283,-63,0,0, 0.0
184,225,-63,7.000000,225,-63,0,0, 0.0
192,169,-63,6.250000,169,-63,0,0, 0.0
200,119,-63,5.250000,119,-63,0,0, 0.0
208,77,-63,3.000000,77,-63,0,0, 0.0
216,53,-63,1.125000,53,-63,0,0, 0.0
224,44,-63,0.250000,44,-63,0,0, 0.0
232,42,-63,0.750000,42,-63,0,0, 0.0
240,48,-63,2.500000,48,-63,0,0, 0.0
248,68,-63,4.750000,68,-63,0,0, 0.0
256,106,-63,8.003905,106,-63,0,0, 0.0
264,170,-65,8.750000,170,-65,0,0, 0.0
272,240,-65,9.250000,240,-65,0,0, 0.0
280,314,-65,8.500000,314,-65,0,0, 0.0
288,382,-65,7.500000,382,-65,0,0, 0.0
296,442,-65,5.750000,442,-65,0,0, 0.0
304,488,-65,3.000000,488,-65,0,0, 0.0
312,512,-65,1.250000,512,-65,0,0, 0.0
320,522,-65,0.750000,522,-65,0,0, 0.0
328,516,-65,2.875000,516,-65,0,0, 0.0
336,493,-65,5.500000,493,-65,0,0, 0.0
344,449,-65,7.500000,449,-65,0,0, 0.0
352,389,-65,9.500000,389,-65,0,0, 0.0
360,313,-65,11.500000,313,-65,0,0, 0.0
368,221,-65,10.752907,221,-65,0,0, 0.0
376,135,-67,9.263504,135,-67,0,0, 0.0
384,61,-71,7.516648,61,-71,0,0, 0.0
392,1,-75,4.506939,1,-75,0,0, 0.0
400,-35,-77,2.263846,-35,-77,0,0, 0.0
408,-53,-79,0.176777,-53,-79,0,0, 0.0
416,-54,-80,2.128673,-54,-80,0,0, 0.0
424,-37,-79,4.625000,-37,-79,0,0, 0.0
432,0,-79,7.004463,0,-79,0,0, 0.0
440,56,-81,8.500000,56,-81,0,0, 0.0
448,124,-81,9.250000,124,-81,0,0, 0.0
456,198,-81,9.000000,198,-81,0,0, 0.0
464,270,-81,8.000000,270,-81,0,0, 0.0
472,334,-81,6.000000,334,-81,0,0, 0.0
480,382,-81,3.250000,382,-81,0,0, 0.0
488,408,-81,0.625000,408,-81,0,0, 0.0
496,413,-81,1.250000,413,-81,0,0, 0.0
504,403,-81,4.625000,403,-81,0,0, 0.0
512,366,-81,9.503289,366,-81,0,0, 0.0
520,290,-83,11.750000,290,-83,0,0, 0.0
528,196,-83,13.752273,196,-83,0,0, 0.0
536,86,-85,14.508618,86,-85,0,0, 0.0
544,-30,-89,13.770439,-30,-89,0,0, 0.0
552,-140,-95,11.760633,-140,-95,0,0, 0.0
560,-234,-99,8.764274,-234,-99,0,0, 0.0
568,-304,-103,5.006246,-304,-103,0,0, 0.0
576,-344,-105,2.000000,-344,-105,0,0, 0.0
584,-360,-105,0.750000,-360,-105,0,0, 0.0
592,-354,-105,4.375000,-354,-105,0,0, 0.0
600,-319,-105,7.250000,-319,-105,0,0, 0.0
608,-261,-105,9.000000,-261,-105,0,0, 0.0
616,-189,-105,10.500000,-189,-105,0,0, 0.0
624,-105,-105,10.750000,-105,-105,0,0, 0.0
632,-19,-105,10.250000,-19,-105,0,0, 0.0
640,63,-105,9.003472,63,-105,0,0, 0.0
648,135,-107,7.250000,135,-107,0,0, 0.0
656,193,-107,4.000000,193,-107,0,0, 0.0
664,225,-107,1.875000,225,-107,0,0, 0.0
672,240,-107,0.176777,240,-107,0,0, 0.0
680,239,-108,1.274755,239,-108,0,0, 0.0
688,229,-110,3.875000,229,-110,0,0, 0.0
696,198,-110,6.000000,198,-110,0,0, 0.0
704,150,-110,7.754031,150,-110,0,0, 0.0
712,88,-112,9.750000,88,-112,0,0, 0.0
720,10,-112,9.503289,10,-112,0,0, 0.0
728,-66,-114,8.253787,-66,-114,0,0, 0.0
736,-132,-116,6.250000,-132,-116,0,0, 0.0
744,-182,-116,4.000000,-182,-116,0,0, 0.0
752,-214,-116,1.750000,-214,-116,0,0, 0.0
760,-228,-116,0.250000,-228,-116,0,0, 0.0
768,-230,-116,0.625000,-230,-116,0,0, 0.0
776,-225,-116,2.625000,-225,-116,0,0, 0.0
784,-204,-116,4.500000,-204,-116,0,0, 0.0
792,-168,-116,7.000000,-168,-116,0,0, 0.0
800,-112,-116,7.250000,-112,-116,0,0, 0.0
808,-54,-116,7.500000,-54,-116,0,0, 0.0
816,6,-116,7.254309,6,-116,0,0, 0.0
824,64,-118,6.250000,64,-118,0,0, 0.0
832,114,-118,5.006246,114,-118,0,0, 0.0
840,154,-120,3.500000,154,-120,0,0, 0.0
848,182,-120,1.625000,182,-120,0,0, 0.0
856,195,-120,0.125000,195,-120,0,0, 0.0
864,196,-120,0.375000,196,-120,0,0, 0.0
872,193,-120,0.250000,193,-120,0,0, 0.0
880,191,-120,0.375000,191,-120,0,0, 0.0
888,194,-120,0.000000,194,-120,0,0, 0.0
896,194,-120,0.279508,194,-120,0,0, 0.0
904,192,-121,0.125000,192,-121,0,0, 0.0
912,191,-121,0.125000,191,-121,0,0, 0.0
920,190,-121,0.000000,190,-121,0,0, 0.0
