t,x,y,v,xdecoded,ydecoded,xerror,yerror,abserror
0,0,0,0.625000,0,0,0,0, 0.0
8,5,0,1.380670,5,0,0,0, 0.0
16,16,-1,2.015564,16,-1,0,0, 0.0
24,32,-3,2.636878,32,-3,0,0, 0.0
32,53,-5,2.512469,53,-5,0,0, 0.0
40,73,-7,2.125000,73,-7,0,0, 0.0
48,90,-7,1.000000,90,-7,0,0, 0.0
56,98,-7,0.375000,98,-7,0,0, 0.0
64,101,-7,0.000000,101,-7,0,0, 0.0
72,101,-7,0.250000,101,-7,0,0, 0.0
80,99,-7,0.375000,99,-7,0,0, 0.0
88,96,-7,1.625000,96,-7,0,0, 0.0
96,83,-7,5.125000,83,-7,0,0, 0.0
104,42,-7,7.254309,42,-7,0,0, 0.0
112,-16,-5,9.000000,-16,-5,0,0, 0.0
120,-88,-5,10.250000,-88,-5,0,0, 0.0
128,-170,-5,11.000000,-170,-5,0,0, 0.0
136,-258,-5,10.750000,-258,-5,0,0, 0.0
144,-344,-5,9.750000,-344,-5,0,0, 0.0
152,-422,-5,8.500000,-422,-5,0,0, 0.0
160,-490,-5,4.500000,-490,-5,0,0, 0.0
168,-526,-5,0.910014,-526,-5,0,0, 0.0
176,-533,-3,1.891593,-533,-3,0,0, 0.0
184,-518,-1,6.754628,-518,-1,0,0, 0.0
192,-464,1,10.752907,-464,1,0,0, 0.0
200,-378,3,14.000000,-378,3,0,0, 0.0
208,-266,3,15.875000,-266,3,0,0, 0.0
216,-130,3,15.875000,-139,3,-9,0, 9.0
224,24,3,15.875000,-12,3,-36,0,36.0
232,208,3,15.876968,115,3,-93,0,93.0
240,380,5,15.876968,242,5,-138,0,138.0
248,526,7,12.385097,369,7,-157,0,157.0
256,625,11,0.500000,468,11,-157,0,157.0
264,625,15,0.250000,468,15,-157,0,157.0
272,625,17,0.000000,468,17,-157,0,157.0
280,625,17,4.750000,468,17,-157,0,157.0
288,587,17,9.000000,430,17,-157,0,157.0
296,515,17,12.500000,358,17,-157,0,157.0
304,415,17,15.002083,258,17,-157,0,157.0
312,295,15,16.001953,138,15,-157,0,157.0
320,165,13,16.001953,10,13,-155,0,155.0
328,33,11,15.258195,-118,11,-151,0,151.0
336,-89,7,13.520817,-240,7,-151,0,151.0
344,-197,1,9.253378,-348,1,-151,0,151.0
352,-271,-1,4.756574,-422,-1,-151,0,151.0
360,-309,-3,1.625000,-460,-3,-151,0,151.0
368,-322,-3,0.750000,-473,-3,-151,0,151.0
376,-316,-3,5.000000,-467,-3,-151,0,151.0
384,-276,-3,7.000000,-427,-3,-151,0,151.0
392,-220,-3,8.503676,-371,-3,-151,0,151.0
400,-152,-1,9.250000,-303,-1,-151,0,151.0
408,-78,-1,9.003472,-229,-1,-151,0,151.0
416,-6,1,7.250000,-157,1,-151,0,151.0
424,52,1,5.255949,-99,1,-151,0,151.0
432,94,3,3.010399,-57,3,-151,0,151.0
440,118,5,0.375000,-33,5,-151,0,151.0
448,121,5,1.250000,-30,5,-151,0,151.0
456,111,5,4.625000,-40,5,-151,0,151.0
464,74,5,7.750000,-77,5,-151,0,151.0
472,12,5,9.500000,-139,5,-151,0,151.0
480,-64,5,11.252777,-215,5,-151,0,151.0
488,-154,3,11.773912,-305,3,-151,0,151.0
496,-248,-3,11.274972,-399,-3,-151,0,151.0
504,-338,-9,7.786206,-489,-9,-151,0,151.0
512,-400,-15,4.007805,-551,-15,-151,0,151.0
520,-432,-17,1.030776,-583,-17,-151,0,151.0
528,-440,-19,1.500000,-591,-19,-151,0,151.0
536,-428,-19,6.750000,-579,-19,-151,0,151.0
544,-374,-19,9.500000,-525,-19,-151,0,151.0
552,-298,-19,12.250000,-449,-19,-151,0,151.0
560,-200,-19,13.750000,-351,-19,-151,0,151.0
568,-90,-19,13.750000,-241,-19,-151,0,151.0
576,20,-19,12.750000,-131,-19,-151,0,151.0
584,122,-19,10.502976,-29,-19,-151,0,151.0
592,206,-17,7.250000,55,-17,-151,0,151.0
600,264,-17,3.500000,113,-17,-151,0,151.0
608,292,-17,0.250000,141,-17,-151,0,151.0
616,294,-17,2.263846,143,-17,-151,0,151.0
624,276,-19,8.503676,125,-19,-151,0,151.0
632,208,-21,10.511898,57,-21,-151,0,151.0
640,124,-25,12.759800,-27,-25,-151,0,151.0
648,22,-29,13.520817,-129,-29,-151,0,151.0
656,-86,-35,12.522480,-237,-35,-151,0,151.0
664,-186,-41,10.277402,-337,-41,-151,0,151.0
672,-268,-47,7.040064,-419,-47,-151,0,151.0
680,-324,-53,3.010399,-475,-53,-151,0,151.0
688,-348,-55,0.176777,-499,-55,-151,0,151.0
696,-347,-56,3.384247,-498,-56,-151,0,151.0
704,-320,-58,8.000000,-471,-58,-151,0,151.0
712,-256,-58,13.250000,-407,-58,-151,0,151.0
720,-150,-58,14.500000,-301,-58,-151,0,151.0
728,-34,-58,15.250000,-185,-58,-151,0,151.0
736,88,-58,14.500000,-63,-58,-151,0,151.0
744,204,-58,12.500000,53,-58,-151,0,151.0
752,304,-58,9.000000,153,-58,-151,0,151.0
760,376,-58,5.000000,225,-58,-151,0,151.0
768,416,-58,0.875000,265,-58,-151,0,151.0
776,423,-58,2.636878,272,-58,-151,0,151.0
784,402,-60,9.003472,251,-60,-151,0,151.0
792,330,-62,12.000000,179,-62,-151,0,151.0
800,234,-62,14.002232,83,-62,-151,0,151.0
808,122,-64,15.000000,-29,-64,-151,0,151.0
816,2,-64,15.000000,-149,-64,-151,0,151.0
824,-118,-64,13.252358,-269,-64,-151,0,151.0
832,-224,-66,10.750000,-375,-66,-151,0,151.0
840,-310,-66,6.750000,-461,-66,-151,0,151.0
848,-364,-66,3.000000,-515,-66,-151,0,151.0
856,-388,-66,0.500000,-539,-66,-151,0,151.0
864,-384,-66,3.500000,-535,-66,-151,0,151.0
872,-356,-66,7.000000,-507,-66,-151,0,151.0
880,-300,-66,9.000000,-451,-66,-151,0,151.0
888,-228,-66,12.000000,-379,-66,-151,0,151.0
896,-132,-66,11.250000,-283,-66,-151,0,151.0
904,-42,-66,9.750000,-193,-66,-151,0,151.0
912,36,-66,7.754031,-115,-66,-151,0,151.0
920,98,-64,4.500000,-53,-64,-151,0,151.0
928,134,-64,2.250000,-17,-64,-151,0,151.0
936,152,-64,0.125000,1,-64,-151,0,151.0
944,151,-64,1.754459,0,-64,-151,0,151.0
952,137,-65,4.756574,-14,-65,-151,0,151.0
960,99,-67,6.504806,-52,-67,-151,0,151.0
968,47,-69,8.253787,-104,-69,-151,0,151.0
976,-19,-71,7.254309,-170,-71,-151,0,151.0
984,-77,-73,5.500000,-228,-73,-151,0,151.0
992,-121,-73,3.250000,-272,-73,-151,0,151.0
1000,-147,-73,1.375000,-298,-73,-151,0,151.0
1008,-158,-73,0.125000,-309,-73,-151,0,151.0
1016,-159,-73,0.750000,-310,-73,-151,0,151.0
1024,-153,-73,1.250000,-304,-73,-151,0,151.0
1032,-143,-73,1.875000,-294,-73,-151,0,151.0
1040,-128,-73,2.139655,-279,-73,-151,0,151.0
1048,-111,-75,1.131923,-262,-75,-151,0,151.0
1056,-102,-76,0.000000,-253,-76,-151,0,151.0
