t,x,y,v,xdecoded,ydecoded,xerror,yerror,abserror
0,0,0,0.176777,0,0,0,0, 0.0
8,1,-1,0.176777,1,-1,0,0, 0.0
16,2,-2,0.000000,2,-2,0,0, 0.0
24,2,-2,0.000000,2,-2,0,0, 0.0
32,2,-2,0.000000,2,-2,0,0, 0.0
40,2,-2,0.125000,2,-2,0,0, 0.0
48,2,-1,0.125000,2,-1,0,0, 0.0
56,1,-1,0.000000,1,-1,0,0, 0.0
64,1,-1,0.125000,1,-1,0,0, 0.0
72,1,-2,0.515388,1,-2,0,0, 0.0
80,-3,-3,2.625000,-3,-3,0,0, 0.0
88,-24,-3,5.380811,-24,-3,0,0, 0.0
96,-67,-1,7.625000,-67,-1,0,0, 0.0
104,-128,-1,9.625000,-128,-1,0,0, 0.0
112,-205,-1,12.375000,-205,-1,0,0, 0.0
120,-304,-1,11.877631,-304,-1,0,0, 0.0
128,-399,1,10.502976,-399,1,0,0, 0.0
136,-483,3,7.629097,-483,3,0,0, 0.0
144,-544,5,5.006246,-544,5,0,0, 0.0
152,-584,7,2.125000,-584,7,0,0, 0.0
160,-601,7,0.000000,-601,7,0,0, 0.0
168,-601,7,1.754459,-601,7,0,0, 0.0
176,-587,6,4.667039,-587,6,0,0, 0.0
184,-550,1,8.591420,-550,1,0,0, 0.0
192,-482,-9,9.953800,-482,-9,0,0, 0.0
200,-403,-19,10.946603,-403,-19,0,0, 0.0
208,-316,-29,11.070795,-316,-29,0,0, 0.0
216,-228,-39,11.294357,-228,-39,0,0, 0.0
224,-138,-47,10.423081,-138,-47,0,0, 0.0
232,-55,-55,9.404952,-55,-55,0,0, 0.0
240,20,-61,7.442488,20,-61,0,0, 0.0
248,79,-69,4.391042,79,-69,0,0, 0.0
256,114,-72,1.520691,114,-72,0,0, 0.0
264,126,-74,0.250000,126,-74,0,0, 0.0
272,128,-74,0.125000,128,-74,0,0, 0.0
280,129,-74,1.305038,129,-74,0,0, 0.0
288,119,-71,3.760402,119,-71,0,0, 0.0
296,90,-63,5.396758,90,-63,0,0, 0.0
304,48,-53,7.071068,48,-53,0,0, 0.0
312,-8,-45,8.035079,-8,-45,0,0, 0.0
320,-72,-39,8.008784,-72,-39,0,0, 0.0
328,-136,-36,8.128845,-136,-36,0,0, 0.0
336,-201,-34,5.375000,-201,-34,0,0, 0.0
344,-244,-34,3.010399,-244,-34,0,0, 0.0
352,-268,-32,0.875000,-268,-32,0,0, 0.0
360,-275,-32,0.625000,-275,-32,0,0, 0.0
368,-270,-32,2.000000,-270,-32,0,0, 0.0
376,-254,-32,4.500000,-254,-32,0,0, 0.0
384,-218,-32,5.880317,-218,-32,0,0, 0.0
392,-171,-34,7.004463,-171,-34,0,0, 0.0
400,-115,-36,8.253787,-115,-36,0,0, 0.0
408,-49,-38,7.000000,-49,-38,0,0, 0.0
416,7,-38,5.000000,7,-38,0,0, 0.0
424,47,-38,3.395769,47,-38,0,0, 0.0
432,74,-35,1.677051,74,-35,0,0, 0.0
440,86,-29,0.515388,86,-29,0,0, 0.0
448,85,-25,1.457738,85,-25,0,0, 0.0
456,75,-19,3.745831,75,-19,0,0, 0.0
464,48,-6,5.269310,48,-6,0,0, 0.0
472,9,10,6.642665,9,10,0,0, 0.0
480,-41,28,8.182489,-41,28,0,0, 0.0
488,-103,49,9.052797,-103,49,0,0, 0.0
496,-172,71,7.787209,-172,71,0,0, 0.0
504,-231,91,6.600189,-231,91,0,0, 0.0
512,-279,113,4.651949,-279,113,0,0, 0.0
520,-311,132,2.877716,-311,132,0,0, 0.0
528,-330,145,1.566246,-330,145,0,0, 0.0
536,-336,156,1.566246,-336,156,0,0, 0.0
544,-330,167,2.427061,-330,167,0,0, 0.0
552,-314,178,3.745831,-314,178,0,0, 0.0
560,-287,191,4.229731,-287,191,0,0, 0.0
568,-255,202,4.976507,-255,202,0,0, 0.0
576,-216,210,4.685416,-216,210,0,0, 0.0
584,-179,216,3.644345,-179,216,0,0, 0.0
592,-150,219,1.767767,-150,219,0,0, 0.0
600,-136,221,0.176777,-136,221,0,0, 0.0
608,-135,222,1.125000,-135,222,0,0, 0.0
616,-144,222,3.875000,-144,222,0,0, 0.0
624,-175,222,6.375000,-175,222,0,0, 0.0
632,-226,222,9.520537,-226,222,0,0, 0.0
640,-302,217,9.801148,-302,217,0,0, 0.0
648,-380,209,9.761212,-380,209,0,0, 0.0
656,-457,196,8.733914,-457,196,0,0, 0.0
664,-526,185,6.251250,-526,185,0,0, 0.0
672,-575,175,3.881044,-575,175,0,0, 0.0
680,-605,167,1.510381,-605,167,0,0, 0.0
688,-616,162,0.728869,-616,162,0,0, 0.0
696,-613,157,2.019437,-613,157,0,0, 0.0
704,-598,151,4.945010,-598,151,0,0, 0.0
712,-561,137,6.562202,-561,137,0,0, 0.0
720,-511,121,8.024377,-511,121,0,0, 0.0
728,-450,101,8.792753,-450,101,0,0, 0.0
736,-382,83,7.796233,-382,83,0,0, 0.0
744,-321,70,6.082763,-321,70,0,0, 0.0
752,-273,62,2.899353,-273,62,0,0, 0.0
760,-250,59,1.125000,-250,59,0,0, 0.0
768,-241,59,0.875000,-241,59,0,0, 0.0
776,-248,59,2.627975,-248,59,0,0, 0.0
784,-269,60,4.756574,-269,60,0,0, 0.0
792,-307,62,6.005206,-307,62,0,0, 0.0
800,-355,64,6.254998,-355,64,0,0, 0.0
808,-405,66,5.000000,-405,66,0,0, 0.0
816,-445,66,2.375000,-445,66,0,0, 0.0
824,-464,66,0.279508,-464,66,0,0, 0.0
832,-466,65,1.286954,-466,65,0,0, 0.0
840,-457,60,3.716517,-457,60,0,0, 0.0
848,-429,50,6.878408,-429,50,0,0, 0.0
856,-377,32,7.471822,-377,32,0,0, 0.0
864,-320,14,8.310385,-320,14,0,0, 0.0
872,-256,-4,7.823243,-256,-4,0,0, 0.0
880,-195,-18,6.155536,-195,-18,0,0, 0.0
888,-147,-29,4.123106,-147,-29,0,0, 0.0
896,-115,-37,1.667708,-115,-37,0,0, 0.0
904,-102,-40,0.250000,-102,-40,0,0, 0.0
912,-102,-42,1.375000,-102,-42,0,0, 0.0
920,-113,-42,4.007805,-113,-42,0,0, 0.0
928,-145,-40,5.630553,-145,-40,0,0, 0.0
936,-190,-38,6.893158,-190,-38,0,0, 0.0
944,-245,-34,6.903351,-245,-34,0,0, 0.0
952,-300,-29,5.674780,-300,-29,0,0, 0.0
960,-345,-23,3.395769,-345,-23,0,0, 0.0
968,-372,-20,1.397542,-372,-20,0,0, 0.0
976,-383,-18,0.000000,-383,-18,0,0, 0.0
984,-383,-18,0.637377,-383,-18,0,0, 0.0
992,-378,-19,1.546165,-378,-19,0,0, 0.0
1000,-366,-22,3.535534,-366,-22,0,0, 0.0
1008,-338,-26,4.315669,-338,-26,0,0, 0.0
1016,-304,-32,4.640178,-304,-32,0,0, 0.0
1024,-267,-35,4.651949,-267,-35,0,0, 0.0
1032,-230,-39,3.384247,-230,-39,0,0, 0.0
1040,-203,-41,0.000000,-203,-41,0,0, 0.0
