t,x,y,v,xdecoded,ydecoded,xerror,yerror,abserror
0,0,0,2.000000,0,0,0,0, 0.0
8,-16,0,2.335193,-16,0,0,0, 0.0
16,-34,-5,2.294695,-34,-5,0,0, 0.0
24,-50,-14,1.976424,-50,-14,0,0, 0.0
32,-63,-23,1.600781,-63,-23,0,0, 0.0
40,-73,-31,1.600781,-73,-31,0,0, 0.0
48,-81,-41,1.457738,-81,-41,0,0, 0.0
56,-87,-51,1.397542,-87,-51,0,0, 0.0
64,-89,-62,1.625000,-89,-62,0,0, 0.0
72,-89,-75,1.754459,-89,-75,0,0, 0.0
80,-88,-89,2.136001,-88,-89,0,0, 0.0
88,-82,-105,3.023347,-82,-105,0,0, 0.0
96,-70,-126,3.475360,-70,-126,0,0, 0.0
104,-53,-148,3.978458,-53,-148,0,0, 0.0
112,-31,-171,4.900574,-31,-171,0,0, 0.0
120,0,-195,4.995310,0,-195,0,0, 0.0
128,34,-216,4.759858,34,-216,0,0, 0.0
136,69,-231,4.981215,69,-231,0,0, 0.0
144,107,-243,4.667039,107,-243,0,0, 0.0
152,144,-248,3.750000,144,-248,0,0, 0.0
160,174,-248,2.404423,174,-248,0,0, 0.0
168,193,-245,1.741049,193,-245,0,0, 0.0
176,206,-240,1.352082,206,-240,0,0, 0.0
184,215,-234,1.250000,215,-234,0,0, 0.0
192,221,-226,1.131923,221,-226,0,0, 0.0
200,222,-217,1.644118,222,-217,0,0, 0.0
208,220,-204,2.125000,220,-204,0,0, 0.0
216,212,-189,2.950106,212,-189,0,0, 0.0
224,198,-170,3.625000,198,-170,0,0, 0.0
232,177,-150,5.251488,177,-150,0,0, 0.0
240,144,-124,6.864765,144,-124,0,0, 0.0
248,98,-94,6.496393,98,-94,0,0, 0.0
256,53,-68,5.038911,53,-68,0,0, 0.0
264,16,-52,3.834465,16,-52,0,0, 0.0
272,-13,-42,3.186887,-13,-42,0,0, 0.0
280,-38,-37,2.527969,-38,-37,0,0, 0.0
288,-58,-34,1.879162,-58,-34,0,0, 0.0
296,-73,-33,1.546165,-73,-33,0,0, 0.0
304,-85,-36,1.328768,-85,-36,0,0, 0.0
312,-93,-43,1.185854,-93,-43,0,0, 0.0
320,-96,-52,1.256234,-96,-52,0,0, 0.0
328,-95,-62,1.463087,-95,-62,0,0, 0.0
336,-91,-73,1.976424,-91,-73,0,0, 0.0
344,-82,-86,2.304886,-82,-86,0,0, 0.0
352,-68,-98,2.294695,-68,-98,0,0, 0.0
360,-52,-107,1.510381,-52,-107,0,0, 0.0
368,-41,-112,0.910014,-41,-112,0,0, 0.0
376,-34,-114,1.125000,-34,-114,0,0, 0.0
384,-25,-114,1.750000,-25,-114,0,0, 0.0
392,-11,-114,1.879162,-11,-114,0,0, 0.0
400,4,-113,1.644118,4,-113,0,0, 0.0
408,17,-111,1.286954,17,-111,0,0, 0.0
416,26,-106,0.976281,26,-106,0,0, 0.0
424,32,-101,0.625000,32,-101,0,0, 0.0
432,36,-98,0.673146,36,-98,0,0, 0.0
440,38,-93,0.637377,38,-93,0,0, 0.0
448,37,-88,0.901388,37,-88,0,0, 0.0
456,33,-82,1.328768,33,-82,0,0, 0.0
464,25,-75,1.908042,25,-75,0,0, 0.0
472,12,-67,2.462214,12,-67,0,0, 0.0
480,-6,-59,2.576941,-6,-59,0,0, 0.0
488,-25,-51,2.809026,-25,-51,0,0, 0.0
496,-46,-43,2.698379,-46,-43,0,0, 0.0
504,-67,-38,1.767767,-67,-38,0,0, 0.0
512,-81,-36,0.875000,-81,-36,0,0, 0.0
520,-88,-36,0.395285,-88,-36,0,0, 0.0
528,-91,-37,0.500000,-91,-37,0,0, 0.0
536,-91,-41,1.250000,-91,-41,0,0, 0.0
544,-85,-49,2.950106,-85,-49,0,0, 0.0
552,-66,-63,5.597153,-66,-63,0,0, 0.0
560,-27,-85,7.665874,-27,-85,0,0, 0.0
568,29,-110,8.345096,29,-110,0,0, 0.0
576,93,-129,6.350443,93,-129,0,0, 0.0
584,143,-138,4.501736,143,-138,0,0, 0.0
592,179,-139,2.885849,179,-139,0,0, 0.0
600,202,-137,1.667708,202,-137,0,0, 0.0
608,215,-134,0.976281,215,-134,0,0, 0.0
616,221,-129,0.625000,221,-129,0,0, 0.0
624,224,-125,0.750000,224,-125,0,0, 0.0
632,224,-119,1.286954,224,-119,0,0, 0.0
640,219,-110,2.121320,219,-110,0,0, 0.0
648,207,-98,3.850730,207,-98,0,0, 0.0
656,182,-80,5.102083,182,-80,0,0, 0.0
664,147,-59,5.209666,147,-59,0,0, 0.0
672,111,-38,4.978077,111,-38,0,0, 0.0
680,76,-19,4.025311,76,-19,0,0, 0.0
688,47,-5,2.183031,47,-5,0,0, 0.0
696,31,2,0.951972,31,2,0,0, 0.0
704,24,5,0.250000,24,5,0,0, 0.0
712,22,5,0.279508,22,5,0,0, 0.0
720,21,3,1.152443,21,3,0,0, 0.0
728,28,-3,3.025930,28,-3,0,0, 0.0
736,47,-18,5.167507,47,-18,0,0, 0.0
744,82,-40,5.926635,82,-40,0,0, 0.0
752,124,-62,4.924429,124,-62,0,0, 0.0
760,160,-78,3.043949,160,-78,0,0, 0.0
768,183,-86,1.700184,183,-86,0,0, 0.0
776,196,-90,0.790569,196,-90,0,0, 0.0
784,202,-92,0.395285,202,-92,0,0, 0.0
792,199,-91,0.910014,199,-91,0,0, 0.0
800,192,-89,0.910014,192,-89,0,0, 0.0
808,185,-87,0.125000,185,-87,0,0, 0.0
816,185,-86,1.256234,185,-86,0,0, 0.0
824,195,-87,2.183031,195,-87,0,0, 0.0
832,179,-80,14.165319,179,-80,0,0, 0.0
840,70,-49,16.763055,70,-49,0,0, 0.0
848,-79,-9,8.704345,-58,-9,21,0,21.0
856,-147,6,0.910014,-126,6,21,0,21.0
864,-154,4,0.279508,-133,4,21,0,21.0
872,-156,3,0.515388,-135,3,21,0,21.0
880,-160,4,0.375000,-139,4,21,0,21.0
888,-163,4,0.728869,-142,4,21,0,21.0
896,-160,-1,2.704163,-139,-1,21,0,21.0
904,-142,-13,5.896238,-121,-13,21,0,21.0
912,-98,-30,0.000000,-77,-30,21,0,21.0
