MV, 1350738, 754, 250
MV, 1350752, 754, 245
MV, 1350764, 757, 236
MV, 1350776, 768, 225
MV, 1350789, 784, 215
MV, 1350801, 805, 207
MV, 1350814, 835, 200
MV, 1350827, 870, 196
MV, 1350839, 904, 194
MV, 1350852, 934, 195
MV, 1350864, 957, 198
MV, 1350876, 972, 203
MV, 1350888, 982, 208
MV, 1350902, 987, 217
MV, 1350914, 986, 231
MV, 1350926, 978, 249
MV, 1350938, 959, 273
MV, 1350951, 932, 297
MV, 1350964, 903, 317
MV, 1350976, 882, 328
MV, 1350988, 871, 333
MV, 1351001, 866, 334
MV, 1351025, 865, 332
MV, 1351038, 871, 319
MV, 1351062, 900, 291
MV, 1351074, 932, 267
MV, 1351086, 963, 253
MV, 1351098, 983, 249
MV, 1351111, 996, 249
MV, 1351123, 1004, 251
MV, 1351135, 1007, 253
MV, 1351147, 1009, 257
MV, 1351159, 1009, 264
MV, 1351171, 1005, 273
MV, 1351183, 998, 284
MV, 1351195, 989, 294
MV, 1351207, 982, 300
MV, 1351220, 979, 302
MV, 1351244, 982, 300
MV, 1351268, 1025, 277
MV, 1351281, 1081, 257
MV, 1351293, 1132, 248
MV, 1351305, 1161, 249
MV, 1351317, 1175, 253
MV, 1351329, 1182, 258
MV, 1351342, 1185, 265
MV, 1351354, 1181, 275
MV, 1351366, 1168, 289
MV, 1351378, 1147, 306
MV, 1351390, 1120, 322
MV, 1351402, 1091, 336
MV, 1351415, 1066, 346
MV, 1351427, 1050, 350
MV, 1351439, 1034, 351
MV, 1351452, 1021, 345
MV, 1351464, 1009, 332
MV, 1351476, 1001, 311
MV, 1351488, 995, 284
MV, 1351500, 992, 249
MV, 1351512, 993, 210
MV, 1351524, 999, 179
MV, 1351537, 1008, 157
MV, 1351549, 1019, 142
MV, 1351562, 1034, 129
MV, 1351574, 1055, 115
MV, 1351586, 1077, 105
MV, 1351599, 1094, 102
MV, 1351612, 1106, 105
