MV, 6308650, 1898, 361
MV, 6308658, 1899, 360
MV, 6308666, 1903, 359
MV, 6308674, 1912, 357
MV, 6308682, 1930, 356
MV, 6308690, 1960, 352
MV, 6308698, 1990, 350
MV, 6308707, 2022, 348
MV, 6308714, 2052, 348
MV, 6308722, 2076, 348
MV, 6308730, 2096, 348
MV, 6308738, 2110, 348
MV, 6308746, 2116, 348
MV, 6308754, 2117, 349
MV, 6308762, 2116, 350
MV, 6308770, 2110, 353
MV, 6308778, 2095, 361
MV, 6308786, 2067, 375
MV, 6308794, 2025, 391
MV, 6308802, 1983, 405
MV, 6308810, 1943, 417
MV, 6308818, 1911, 427
MV, 6308826, 1891, 435
MV, 6308834, 1885, 438
MV, 6308842, 1884, 441
MV, 6308850, 1887, 442
MV, 6308858, 1903, 445
MV, 6308866, 1947, 449
MV, 6308874, 1999, 451
MV, 6308882, 2055, 453
MV, 6308890, 2111, 455
MV, 6308898, 2159, 457
MV, 6308907, 2195, 461
MV, 6308914, 2215, 465
MV, 6308922, 2222, 468
MV, 6308930, 2221, 471
MV, 6308938, 2209, 477
MV, 6308946, 2184, 486
MV, 6308954, 2148, 496
MV, 6308962, 2106, 502
MV, 6308970, 2072, 506
MV, 6308978, 2054, 508
MV, 6308986, 2048, 510
MV, 6308994, 2052, 511
MV, 6309002, 2068, 516
MV, 6309010, 2106, 522
MV, 6309018, 2160, 526
MV, 6309026, 2228, 534
MV, 6309034, 2288, 540
MV, 6309042, 2336, 548
MV, 6309050, 2364, 556
MV, 6309058, 2380, 563
MV, 6309066, 2380, 571
MV, 6309074, 2369, 580
MV, 6309082, 2348, 594
MV, 6309090, 2318, 608
MV, 6309098, 2284, 622
MV, 6309107, 2256, 636
MV, 6309114, 2240, 648
MV, 6309122, 2237, 656
MV, 6309130, 2244, 665
MV, 6309138, 2269, 678
MV, 6309146, 2309, 690
MV, 6309154, 2359, 700
MV, 6309162, 2417, 710
MV, 6309170, 2479, 720
MV, 6309178, 2527, 728
MV, 6309186, 2559, 736
MV, 6309194, 2575, 740
MV, 6309202, 2580, 743
MV, 6309210, 2582, 745
MV, 6309218, 2580, 747
MV, 6309226, 2574, 750
MV, 6309234, 2566, 752
MV, 6309242, 2559, 755
MV, 6309274, 2557, 756
MV, 6309290, 2560, 757
MV, 6309298, 2564, 757
MV, 6309307, 2567, 757
MV, 6309314, 2569, 757
