MV, 6430817, 2625, 367
MV, 6430825, 2626, 367
MV, 6430833, 2627, 367
MV, 6430841, 2628, 367
MV, 6430849, 2629, 367
MV, 6430865, 2630, 368
MV, 6430881, 2631, 369
MV, 6430889, 2631, 370
MV, 6430897, 2631, 372
MV, 6430905, 2630, 375
MV, 6430913, 2627, 378
MV, 6430921, 2620, 385
MV, 6430929, 2609, 391
MV, 6430937, 2592, 400
MV, 6430945, 2572, 410
MV, 6430953, 2548, 422
MV, 6430961, 2520, 434
MV, 6430969, 2488, 448
MV, 6430977, 2460, 462
MV, 6430985, 2438, 472
MV, 6430993, 2425, 480
MV, 6431009, 2421, 482
MV, 6431017, 2422, 484
MV, 6431025, 2431, 487
MV, 6431033, 2462, 489
MV, 6431041, 2522, 491
MV, 6431049, 2606, 493
MV, 6431057, 2710, 493
MV, 6431065, 2836, 493
MV, 6431073, 2972, 491
MV, 6431081, 3112, 481
MV, 6431089, 3199, 473
MV, 6431097, 3199, 469
MV, 6431105, 3199, 465
MV, 6431113, 3199, 461
MV, 6431121, 3199, 459
MV, 6431129, 3199, 459
MV, 6431137, 3189, 460
MV, 6431145, 3160, 462
MV, 6431153, 3112, 466
MV, 6431161, 3042, 472
MV, 6431169, 2954, 480
MV, 6431177, 2848, 490
MV, 6431185, 2734, 500
MV, 6431193, 2604, 510
MV, 6431201, 2492, 518
MV, 6431209, 2404, 524
MV, 6431217, 2350, 530
MV, 6431225, 2326, 532
MV, 6431233, 2322, 532
MV, 6431241, 2332, 529
MV, 6431249, 2375, 523
MV, 6431257, 2433, 517
MV, 6431265, 2503, 509
MV, 6431273, 2577, 497
MV, 6431281, 2651, 487
MV, 6431289, 2717, 477
MV, 6431297, 2765, 469
MV, 6431305, 2791, 465
MV, 6431313, 2802, 464
MV, 6431321, 2801, 465
MV, 6431329, 2789, 467
MV, 6431337, 2758, 471
MV, 6431345, 2710, 475
MV, 6431353, 2648, 479
MV, 6431361, 2572, 483
MV, 6431369, 2490, 487
MV, 6431377, 2412, 491
MV, 6431385, 2346, 497
MV, 6431393, 2308, 501
MV, 6431401, 2292, 503
MV, 6431409, 2295, 502
MV, 6431417, 2313, 501
MV, 6431425, 2355, 497
MV, 6431433, 2409, 493
MV, 6431441, 2471, 487
MV, 6431449, 2535, 481
MV, 6431457, 2595, 477
MV, 6431465, 2637, 473
MV, 6431473, 2659, 471
MV, 6431481, 2667, 471
MV, 6431489, 2666, 472
MV, 6431497, 2656, 473
MV, 6431505, 2627, 475
MV, 6431513, 2587, 479
MV, 6431521, 2535, 481
MV, 6431529, 2473, 481
MV, 6431537, 2411, 481
MV, 6431545, 2351, 481
MV, 6431553, 2315, 481
MV, 6431561, 2297, 481
MV, 6431569, 2295, 481
MV, 6431577, 2302, 478
MV, 6431585, 2334, 471
MV, 6431593, 2384, 463
MV, 6431601, 2448, 453
MV, 6431609, 2522, 441
MV, 6431617, 2600, 429
MV, 6431625, 2674, 419
MV, 6431633, 2732, 409
MV, 6431641, 2772, 403
MV, 6431649, 2790, 399
MV, 6431657, 2794, 397
MV, 6431665, 2788, 397
MV, 6431673, 2768, 399
MV, 6431681, 2730, 401
MV, 6431689, 2678, 405
MV, 6431697, 2612, 407
MV, 6431705, 2526, 411
MV, 6431713, 2446, 415
MV, 6431721, 2378, 419
MV, 6431729, 2330, 423
MV, 6431737, 2304, 425
MV, 6431745, 2295, 427
MV, 6431753, 2299, 427
MV, 6431761, 2319, 425
MV, 6431769, 2357, 423
MV, 6431777, 2403, 419
MV, 6431785, 2457, 415
MV, 6431793, 2513, 411
MV, 6431801, 2563, 409
MV, 6431809, 2601, 407
MV, 6431817, 2623, 405
MV, 6431825, 2632, 405
MV, 6431841, 2625, 408
MV, 6431849, 2602, 413
MV, 6431857, 2560, 419
MV, 6431865, 2494, 427
MV, 6431873, 2420, 433
MV, 6431881, 2342, 439
MV, 6431889, 2268, 445
MV, 6431897, 2208, 451
MV, 6431905, 2168, 457
MV, 6431913, 2150, 459
MV, 6431921, 2150, 460
MV, 6431929, 2158, 460
MV, 6431937, 2191, 456
MV, 6431945, 2243, 450
MV, 6431953, 2309, 444
MV, 6431961, 2389, 434
MV, 6431969, 2481, 424
MV, 6431977, 2567, 414
MV, 6431985, 2641, 404
MV, 6431993, 2699, 396
MV, 6432001, 2731, 392
MV, 6432009, 2746, 390
MV, 6432025, 2737, 393
MV, 6432033, 2708, 398
MV, 6432041, 2656, 404
MV, 6432049, 2588, 410
MV, 6432057, 2490, 416
MV, 6432065, 2390, 422
MV, 6432073, 2292, 426
MV, 6432081, 2210, 430
MV, 6432089, 2154, 432
MV, 6432097, 2126, 432
MV, 6432105, 2121, 432
MV, 6432113, 2138, 426
MV, 6432121, 2178, 416
MV, 6432129, 2236, 400
MV, 6432137, 2304, 384
MV, 6432145, 2378, 366
MV, 6432153, 2448, 348
MV, 6432161, 2508, 332
MV, 6432169, 2554, 316
MV, 6432177, 2578, 308
