MV, 1517134, 646, 346
MV, 1517146, 650, 341
MV, 1517160, 658, 337
MV, 1517172, 672, 333
MV, 1517184, 688, 332
MV, 1517197, 707, 336
MV, 1517209, 727, 346
MV, 1517221, 746, 359
MV, 1517234, 760, 374
MV, 1517246, 765, 392
MV, 1517259, 760, 412
MV, 1517271, 740, 440
MV, 1517285, 704, 471
MV, 1517297, 651, 506
MV, 1517309, 593, 536
MV, 1517321, 561, 549
MV, 1517334, 554, 549
MV, 1517346, 566, 532
MV, 1517358, 625, 477
MV, 1517372, 762, 382
MV, 1517384, 899, 313
MV, 1517396, 983, 287
MV, 1517408, 1013, 283
MV, 1517420, 1022, 284
MV, 1517434, 1022, 292
MV, 1517446, 1006, 308
MV, 1517458, 976, 332
MV, 1517471, 942, 356
MV, 1517483, 921, 369
MV, 1517496, 913, 375
MV, 1517520, 934, 371
MV, 1517533, 974, 357
MV, 1517546, 1027, 343
MV, 1517558, 1060, 338
MV, 1517570, 1072, 338
MV, 1517584, 1075, 340
MV, 1517596, 1063, 352
MV, 1517608, 1019, 381
MV, 1517621, 939, 425
MV, 1517633, 868, 458
MV, 1517645, 830, 472
MV, 1517658, 813, 473
MV, 1517670, 808, 465
MV, 1517683, 816, 439
MV, 1517695, 845, 384
MV, 1517708, 882, 318
MV, 1517720, 902, 282
MV, 1517733, 905, 267
MV, 1517745, 899, 259
MV, 1517757, 881, 255
MV, 1517770, 847, 258
MV, 1517783, 794, 267
MV, 1517795, 751, 274
MV, 1517807, 734, 275
MV, 1517819, 729, 274
MV, 1517832, 732, 267
MV, 1517845, 749, 249
MV, 1517857, 772, 227
MV, 1517870, 787, 215
MV, 1517882, 793, 210
MV, 1517894, 794, 209
MV, 1517907, 792, 208
MV, 1517920, 780, 209
MV, 1517932, 767, 211
MV, 1517944, 758, 211
MV, 1517957, 754, 211
MV, 1517982, 756, 209
MV, 1517994, 765, 206
MV, 1518006, 784, 201
