MV, 1403114, 534, 217
MV, 1403127, 533, 216
MV, 1403139, 532, 215
MV, 1403151, 536, 208
MV, 1403163, 546, 198
MV, 1403175, 561, 189
MV, 1403187, 577, 182
MV, 1403199, 594, 177
MV, 1403212, 611, 174
MV, 1403224, 625, 175
MV, 1403236, 636, 177
MV, 1403248, 643, 182
MV, 1403260, 648, 187
MV, 1403272, 650, 194
MV, 1403284, 648, 205
MV, 1403297, 644, 217
MV, 1403309, 640, 228
MV, 1403321, 640, 237
MV, 1403333, 645, 245
MV, 1403345, 661, 252
MV, 1403357, 694, 256
MV, 1403369, 736, 258
MV, 1403382, 767, 260
MV, 1403394, 781, 262
MV, 1403406, 787, 264
MV, 1403418, 788, 266
MV, 1403430, 788, 270
MV, 1403443, 785, 276
MV, 1403455, 782, 283
MV, 1403467, 782, 292
MV, 1403479, 787, 302
MV, 1403492, 800, 311
MV, 1403504, 819, 319
MV, 1403516, 840, 324
MV, 1403528, 854, 329
MV, 1403540, 862, 332
MV, 1403553, 865, 336
MV, 1403565, 865, 340
MV, 1403577, 863, 345
MV, 1403589, 858, 352
MV, 1403602, 854, 356
MV, 1403615, 853, 357
MV, 1403639, 852, 356
MV, 1403652, 851, 352
MV, 1403664, 849, 347
MV, 1403677, 837, 339
MV, 1403692, 815, 334
MV, 1403706, 784, 328
MV, 1403726, 754, 323
MV, 1403741, 733, 318
MV, 1403755, 711, 298
MV, 1403770, 711, 281
MV, 1403796, 715, 264
MV, 1403809, 715, 240
MV, 1403821, 708, 232
MV, 1403834, 690, 226
MV, 1403846, 654, 223
MV, 1403858, 604, 222
MV, 1403870, 564, 219
MV, 1403883, 544, 214
MV, 1403895, 536, 205
MV, 1403908, 536, 192
MV, 1403920, 543, 175
MV, 1403932, 550, 160
MV, 1403944, 553, 152
MV, 1403956, 552, 147
MV, 1403968, 543, 144
MV, 1403980, 513, 142
MV, 1403993, 464, 144
MV, 1404005, 424, 144
MV, 1404017, 403, 141
MV, 1404030, 395, 137
MV, 1404042, 392, 132
MV, 1404054, 393, 127
MV, 1404066, 396, 122
MV, 1404078, 399, 119
MV, 1404090, 400, 118
MV, 1404114, 402, 120
