MV, 6353862, 2231, 364
MV, 6353894, 2231, 364
MV, 6353966, 2229, 365
MV, 6353974, 2221, 367
MV, 6353982, 2204, 371
MV, 6353990, 2178, 375
MV, 6353998, 2142, 379
MV, 6354006, 2108, 383
MV, 6354014, 2084, 387
MV, 6354023, 2073, 389
MV, 6354030, 2069, 389
MV, 6354046, 2073, 389
MV, 6354054, 2094, 389
MV, 6354062, 2140, 389
MV, 6354070, 2190, 389
MV, 6354078, 2240, 389
MV, 6354086, 2280, 387
MV, 6354094, 2306, 387
MV, 6354102, 2317, 387
MV, 6354110, 2319, 388
MV, 6354118, 2316, 391
MV, 6354126, 2306, 397
MV, 6354134, 2283, 408
MV, 6354142, 2243, 424
MV, 6354150, 2197, 440
MV, 6354158, 2147, 458
MV, 6354166, 2101, 474
MV, 6354174, 2061, 490
MV, 6354182, 2033, 502
MV, 6354190, 2017, 514
MV, 6354198, 2013, 524
MV, 6354206, 2018, 533
MV, 6354214, 2031, 543
MV, 6354223, 2057, 557
MV, 6354230, 2091, 571
MV, 6354238, 2129, 585
MV, 6354246, 2167, 599
MV, 6354254, 2199, 617
MV, 6354262, 2217, 635
MV, 6354270, 2223, 655
MV, 6354278, 2215, 681
MV, 6354286, 2193, 711
MV, 6354294, 2159, 745
MV, 6354302, 2117, 781
MV, 6354310, 2069, 827
MV, 6354318, 2033, 869
MV, 6354326, 2009, 909
MV, 6354334, 1999, 945
MV, 6354342, 2003, 979
MV, 6354350, 2021, 1011
MV, 6354358, 2049, 1039
MV, 6354366, 2085, 1061
MV, 6354374, 2129, 1079
MV, 6354382, 2167, 1091
MV, 6354391, 2197, 1099
MV, 6354398, 2213, 1103
MV, 6354422, 2218, 1104
MV, 6354430, 2219, 1104
MV, 6354438, 2216, 1102
MV, 6354446, 2208, 1099
MV, 6354454, 2199, 1092
MV, 6354462, 2190, 1088
MV, 6354502, 2187, 1086
MV, 6354510, 2187, 1084
MV, 6354518, 2190, 1083
MV, 6354526, 2194, 1080
MV, 6354534, 2197, 1079
