MV, 6340813, 2232, 619
MV, 6340917, 2232, 619
MV, 6340925, 2230, 619
MV, 6340933, 2223, 619
MV, 6340942, 2209, 619
MV, 6340949, 2190, 619
MV, 6340957, 2166, 617
MV, 6340965, 2144, 611
MV, 6340977, 2129, 606
MV, 6340981, 2123, 603
MV, 6340989, 2121, 600
MV, 6340997, 2123, 595
MV, 6341005, 2135, 582
MV, 6341013, 2167, 562
MV, 6341021, 2207, 540
MV, 6341029, 2253, 518
MV, 6341037, 2299, 500
MV, 6341045, 2343, 484
MV, 6341053, 2375, 470
MV, 6341061, 2397, 460
MV, 6341069, 2407, 456
MV, 6341077, 2411, 454
MV, 6341085, 2410, 453
MV, 6341093, 2402, 453
MV, 6341101, 2380, 453
MV, 6341109, 2338, 453
MV, 6341129, 2288, 453
MV, 6341129, 2232, 453
MV, 6341133, 2180, 451
MV, 6341141, 2134, 447
MV, 6341149, 2102, 439
MV, 6341157, 2084, 429
MV, 6341165, 2079, 418
MV, 6341174, 2084, 401
MV, 6341181, 2104, 375
MV, 6341189, 2134, 345
MV, 6341197, 2172, 317
MV, 6341205, 2222, 287
MV, 6341213, 2268, 261
MV, 6341221, 2302, 239
MV, 6341229, 2326, 221
MV, 6341237, 2340, 209
MV, 6341245, 2343, 203
MV, 6341253, 2339, 198
MV, 6341261, 2323, 192
MV, 6341269, 2293, 184
MV, 6341277, 2245, 172
MV, 6341285, 2195, 160
MV, 6341293, 2145, 144
MV, 6341301, 2105, 130
MV, 6341309, 2075, 114
MV, 6341317, 2057, 96
MV, 6341325, 2049, 76
MV, 6341333, 2055, 52
MV, 6341341, 2069, 28
MV, 6341349, 2089, 6
MV, 6341357, 2113, 0
MV, 6341365, 2133, 0
MV, 6341373, 2147, 0
MV, 6341389, 2151, 0
MV, 6341397, 2152, 0
MV, 6341405, 2149, 0
MV, 6341413, 2140, 0
MV, 6341421, 2120, 0
MV, 6341429, 2094, 2
MV, 6341437, 2068, 2
MV, 6341445, 2048, 3
MV, 6341485, 2041, 3
MV, 6341493, 2040, 3
MV, 6341501, 2041, 3
MV, 6341509, 2042, 2
