MV, 1116759, 608, 271
MV, 1116771, 606, 271
MV, 1116785, 605, 271
MV, 1116809, 605, 271
MV, 1116821, 608, 267
MV, 1116834, 619, 261
MV, 1116847, 636, 255
MV, 1116859, 655, 249
MV, 1116871, 667, 247
MV, 1116884, 673, 247
MV, 1116896, 676, 249
MV, 1116908, 677, 252
MV, 1116922, 674, 260
MV, 1116934, 670, 269
MV, 1116946, 664, 279
MV, 1116958, 660, 287
MV, 1116971, 660, 291
MV, 1116984, 662, 292
MV, 1116996, 671, 293
MV, 1117008, 690, 291
MV, 1117021, 718, 286
MV, 1117033, 752, 279
MV, 1117045, 781, 275
MV, 1117059, 800, 273
MV, 1117071, 811, 275
MV, 1117083, 816, 277
MV, 1117095, 818, 279
MV, 1117109, 819, 281
MV, 1117121, 820, 284
MV, 1117133, 820, 286
MV, 1117146, 822, 288
MV, 1117158, 826, 289
MV, 1117171, 836, 289
MV, 1117183, 851, 289
MV, 1117196, 865, 289
MV, 1117208, 876, 291
MV, 1117220, 884, 295
MV, 1117233, 888, 303
MV, 1117245, 888, 318
MV, 1117258, 883, 344
MV, 1117271, 876, 377
MV, 1117283, 871, 408
MV, 1117295, 872, 427
MV, 1117308, 874, 438
MV, 1117320, 877, 443
MV, 1117333, 879, 445
MV, 1117382, 862, 437
MV, 1117395, 835, 430
MV, 1117408, 792, 424
MV, 1117420, 739, 420
MV, 1117432, 682, 415
MV, 1117445, 631, 404
MV, 1117457, 591, 387
MV, 1117470, 563, 363
MV, 1117482, 543, 330
MV, 1117495, 533, 292
MV, 1117508, 530, 253
MV, 1117520, 528, 226
MV, 1117533, 527, 210
MV, 1117545, 523, 202
MV, 1117557, 518, 199
MV, 1117570, 509, 198
MV, 1117582, 492, 200
MV, 1117594, 475, 203
MV, 1117623, 464, 203
MV, 1117636, 458, 193
MV, 1117648, 459, 182
MV, 1117660, 462, 172
MV, 1117672, 466, 164
MV, 1117684, 467, 161
MV, 1117709, 466, 162
MV, 1117721, 462, 167
MV, 1117733, 457, 174
MV, 1117745, 453, 180
MV, 1117757, 450, 184
MV, 1117770, 449, 185
MV, 1117794, 450, 185
MV, 1117806, 455, 185
MV, 1117819, 472, 186
