MV, 6246588, 1905, 834
MV, 6246596, 1906, 833
MV, 6246604, 1909, 832
MV, 6246612, 1913, 830
MV, 6246620, 1918, 829
MV, 6246628, 1923, 826
MV, 6246639, 1927, 825
MV, 6246644, 1933, 824
MV, 6246652, 1938, 823
MV, 6246660, 1941, 822
MV, 6246668, 1943, 822
MV, 6246697, 1942, 822
MV, 6246700, 1933, 822
MV, 6246708, 1910, 822
MV, 6246716, 1876, 822
MV, 6246725, 1838, 822
MV, 6246732, 1800, 822
MV, 6246740, 1772, 822
MV, 6246748, 1757, 822
MV, 6246758, 1753, 822
MV, 6246764, 1757, 821
MV, 6246772, 1772, 817
MV, 6246780, 1808, 813
MV, 6246788, 1856, 805
MV, 6246796, 1912, 797
MV, 6246804, 1982, 785
MV, 6246812, 2046, 773
MV, 6246820, 2102, 759
MV, 6246828, 2148, 745
MV, 6246836, 2180, 733
MV, 6246844, 2202, 723
MV, 6246852, 2211, 718
MV, 6246861, 2213, 715
MV, 6246868, 2213, 710
MV, 6246876, 2210, 704
MV, 6246884, 2206, 697
MV, 6246893, 2202, 690
MV, 6246900, 2200, 684
MV, 6246908, 2204, 676
MV, 6246916, 2216, 666
MV, 6246927, 2238, 654
MV, 6246932, 2266, 640
MV, 6246940, 2296, 628
MV, 6246948, 2328, 614
MV, 6246960, 2356, 604
MV, 6246964, 2376, 596
MV, 6246988, 2383, 593
MV, 6246996, 2384, 591
MV, 6247004, 2381, 588
MV, 6247012, 2375, 585
MV, 6247020, 2368, 583
MV, 6247028, 2365, 581
MV, 6247036, 2364, 579
MV, 6247044, 2368, 576
MV, 6247052, 2382, 569
MV, 6247060, 2410, 557
MV, 6247068, 2442, 543
MV, 6247076, 2484, 527
MV, 6247084, 2518, 513
MV, 6247092, 2544, 503
MV, 6247100, 2558, 495
MV, 6247108, 2563, 492
MV, 6247116, 2565, 490
MV, 6247124, 2562, 487
MV, 6247132, 2554, 480
MV, 6247140, 2538, 471
MV, 6247148, 2516, 461
MV, 6247156, 2494, 451
MV, 6247164, 2476, 441
MV, 6247172, 2463, 431
MV, 6247180, 2455, 425
MV, 6247190, 2451, 420
MV, 6247196, 2450, 416
MV, 6247204, 2449, 413
MV, 6247212, 2449, 410
MV, 6247220, 2448, 406
MV, 6247228, 2441, 399
MV, 6247236, 2429, 391
MV, 6247244, 2410, 382
MV, 6247252, 2388, 372
MV, 6247260, 2368, 362
MV, 6247268, 2357, 353
MV, 6247276, 2353, 345
MV, 6247284, 2354, 337
MV, 6247292, 2363, 322
MV, 6247300, 2379, 300
MV, 6247308, 2405, 268
MV, 6247316, 2433, 242
MV, 6247324, 2457, 220
MV, 6247332, 2471, 204
MV, 6247340, 2477, 195
MV, 6247348, 2479, 191
MV, 6247356, 2474, 190
MV, 6247364, 2463, 189
MV, 6247372, 2438, 189
MV, 6247380, 2396, 189
MV, 6247388, 2352, 189
MV, 6247396, 2314, 189
MV, 6247404, 2284, 187
MV, 6247412, 2268, 187
MV, 6247420, 2263, 185
MV, 6247428, 2261, 184
MV, 6247436, 2262, 182
MV, 6247444, 2266, 179
MV, 6247452, 2276, 173
MV, 6247460, 2293, 162
MV, 6247468, 2315, 150
MV, 6247476, 2333, 140
MV, 6247484, 2343, 135
MV, 6247532, 2346, 133
MV, 6247540, 2346, 132
MV, 6247548, 2345, 132
MV, 6247556, 2343, 133
MV, 6247564, 2341, 133
MV, 6247572, 2339, 134
MV, 6247716, 2338, 135
