MV, 6265422, 2164, 911
MV, 6265430, 2164, 911
MV, 6265438, 2165, 910
MV, 6265446, 2166, 910
MV, 6265494, 2166, 910
MV, 6265502, 2163, 910
MV, 6265510, 2152, 911
MV, 6265518, 2132, 915
MV, 6265526, 2108, 917
MV, 6265534, 2080, 921
MV, 6265542, 2046, 923
MV, 6265550, 2010, 923
MV, 6265558, 1976, 923
MV, 6265566, 1946, 923
MV, 6265574, 1928, 923
MV, 6265582, 1922, 923
MV, 6265590, 1921, 923
MV, 6265598, 1925, 922
MV, 6265606, 1947, 916
MV, 6265614, 1989, 906
MV, 6265622, 2041, 894
MV, 6265630, 2095, 880
MV, 6265638, 2143, 862
MV, 6265646, 2179, 842
MV, 6265654, 2203, 820
MV, 6265662, 2215, 800
MV, 6265670, 2217, 783
MV, 6265678, 2214, 771
MV, 6265686, 2206, 763
MV, 6265694, 2197, 757
MV, 6265702, 2179, 752
MV, 6265710, 2155, 744
MV, 6265718, 2125, 734
MV, 6265726, 2089, 722
MV, 6265734, 2051, 710
MV, 6265742, 2017, 700
MV, 6265750, 1989, 688
MV, 6265758, 1971, 676
MV, 6265766, 1966, 669
MV, 6265775, 1970, 663
MV, 6265782, 1988, 650
MV, 6265790, 2024, 626
MV, 6265798, 2060, 600
MV, 6265807, 2094, 576
MV, 6265814, 2120, 552
MV, 6265822, 2136, 532
MV, 6265830, 2144, 519
MV, 6265838, 2144, 512
MV, 6265846, 2138, 506
MV, 6265854, 2124, 500
MV, 6265862, 2096, 490
MV, 6265870, 2054, 474
MV, 6265878, 2006, 458
MV, 6265886, 1954, 444
MV, 6265894, 1900, 428
MV, 6265902, 1850, 412
MV, 6265910, 1808, 398
MV, 6265918, 1778, 384
MV, 6265926, 1762, 376
MV, 6265934, 1756, 372
MV, 6265942, 1757, 367
MV, 6265950, 1762, 362
MV, 6265958, 1773, 354
MV, 6265966, 1783, 349
MV, 6265974, 1788, 347
MV, 6265982, 1789, 346
MV, 6265990, 1788, 345
MV, 6265998, 1780, 343
MV, 6266006, 1755, 343
MV, 6266014, 1717, 341
MV, 6266022, 1673, 339
MV, 6266030, 1625, 337
MV, 6266038, 1587, 335
MV, 6266046, 1565, 335
MV, 6266054, 1555, 334
MV, 6266062, 1553, 334
MV, 6266070, 1553, 333
MV, 6266078, 1557, 331
MV, 6266086, 1567, 327
MV, 6266094, 1574, 322
MV, 6266102, 1577, 321
MV, 6266110, 1579, 320
MV, 6266118, 1579, 319
MV, 6266126, 1574, 318
MV, 6266134, 1560, 316
MV, 6266142, 1537, 316
MV, 6266150, 1507, 316
MV, 6266158, 1473, 314
MV, 6266166, 1439, 310
MV, 6266174, 1415, 306
MV, 6266182, 1404, 305
MV, 6266206, 1401, 303
MV, 6266214, 1399, 302
MV, 6266222, 1399, 300
MV, 6266230, 1399, 298
MV, 6266238, 1399, 296
MV, 6266246, 1399, 295
MV, 6266254, 1398, 292
MV, 6266262, 1395, 289
MV, 6266270, 1388, 284
MV, 6266278, 1371, 275
MV, 6266286, 1351, 265
MV, 6266294, 1331, 255
MV, 6266302, 1313, 247
MV, 6266310, 1300, 240
MV, 6266318, 1293, 237
MV, 6266366, 1290, 235
MV, 6266374, 1289, 234
MV, 6266382, 1288, 233
MV, 6266390, 1288, 231
MV, 6266398, 1287, 229
MV, 6266407, 1286, 228
MV, 6266414, 1286, 227
MV, 6266422, 1286, 226
MV, 6266430, 1286, 225
MV, 6266438, 1285, 224
MV, 6266446, 1285, 223
MV, 6266462, 1284, 222
