t,x,y,v,xdecoded,ydecoded,xerror,yerror,abserror
0,0,0,0.353553,0,0,0,0, 0.0
8,-2,2,0.728869,-2,2,0,0, 0.0
16,-7,5,0.800391,-7,5,0,0, 0.0
24,-12,9,0.883883,-12,9,0,0, 0.0
32,-17,14,1.237437,-17,14,0,0, 0.0
40,-24,21,1.250000,-24,21,0,0, 0.0
48,-32,27,0.976281,-32,27,0,0, 0.0
56,-37,33,0.976281,-37,33,0,0, 0.0
64,-43,38,0.800391,-43,38,0,0, 0.0
72,-48,42,0.800391,-48,42,0,0, 0.0
80,-52,47,0.625000,-52,47,0,0, 0.0
88,-55,51,0.559017,-55,51,0,0, 0.0
96,-59,53,0.353553,-59,53,0,0, 0.0
104,-61,55,0.176777,-61,55,0,0, 0.0
112,-62,56,0.000000,-62,56,0,0, 0.0
120,-62,56,0.000000,-62,56,0,0, 0.0
128,-62,56,0.000000,-62,56,0,0, 0.0
136,-62,56,0.000000,-62,56,0,0, 0.0
144,-62,56,0.353553,-62,56,0,0, 0.0
152,-60,54,0.976281,-60,54,0,0, 0.0
160,-54,49,1.875000,-54,49,0,0, 0.0
168,-42,40,2.918154,-42,40,0,0, 0.0
176,-25,24,3.553168,-25,24,0,0, 0.0
184,-3,6,3.051639,-3,6,0,0, 0.0
192,17,-8,2.704163,17,-8,0,0, 0.0
200,35,-20,2.050152,35,-20,0,0, 0.0
208,48,-30,0.901388,48,-30,0,0, 0.0
216,54,-34,0.279508,54,-34,0,0, 0.0
224,56,-35,0.125000,56,-35,0,0, 0.0
232,57,-35,0.125000,57,-35,0,0, 0.0
240,58,-35,0.450694,58,-35,0,0, 0.0
248,55,-33,1.346291,55,-33,0,0, 0.0
256,45,-29,2.741464,45,-29,0,0, 0.0
264,25,-20,3.579455,25,-20,0,0, 0.0
272,-1,-8,3.913119,-1,-8,0,0, 0.0
280,-29,6,4.596194,-29,6,0,0, 0.0
288,-63,20,3.913119,-63,20,0,0, 0.0
296,-91,34,3.250000,-91,34,0,0, 0.0
304,-115,44,2.462214,-115,44,0,0, 0.0
312,-133,52,1.510381,-133,52,0,0, 0.0
320,-144,57,0.279508,-144,57,0,0, 0.0
328,-146,58,0.125000,-146,58,0,0, 0.0
336,-146,59,0.395285,-146,59,0,0, 0.0
344,-143,58,1.397542,-143,58,0,0, 0.0
352,-132,56,2.730041,-132,56,0,0, 0.0
360,-111,50,3.952847,-111,50,0,0, 0.0
368,-81,40,3.400368,-81,40,0,0, 0.0
376,-55,32,2.253470,-55,32,0,0, 0.0
384,-38,26,1.068000,-38,26,0,0, 0.0
392,-30,23,0.559017,-30,23,0,0, 0.0
400,-26,21,0.176777,-26,21,0,0, 0.0
408,-25,20,0.250000,-25,20,0,0, 0.0
416,-27,20,0.515388,-27,20,0,0, 0.0
424,-31,21,1.346291,-31,21,0,0, 0.0
432,-41,25,2.335193,-41,25,0,0, 0.0
440,-59,30,2.610077,-59,30,0,0, 0.0
448,-79,36,2.183031,-79,36,0,0, 0.0
456,-96,40,1.305038,-96,40,0,0, 0.0
464,-106,43,0.395285,-106,43,0,0, 0.0
472,-109,44,0.125000,-109,44,0,0, 0.0
480,-108,44,0.250000,-108,44,0,0, 0.0
488,-106,44,1.274755,-106,44,0,0, 0.0
496,-96,42,2.809026,-96,42,0,0, 0.0
504,-75,34,3.716517,-75,34,0,0, 0.0
512,-47,24,3.482097,-47,24,0,0, 0.0
520,-21,14,2.610077,-21,14,0,0, 0.0
528,-1,8,1.185854,-1,8,0,0, 0.0
536,8,5,0.279508,8,5,0,0, 0.0
544,10,4,0.250000,10,4,0,0, 0.0
552,8,4,0.910014,8,4,0,0, 0.0
560,1,6,3.092329,1,6,0,0, 0.0
568,-23,12,4.609772,-23,12,0,0, 0.0
576,-59,20,4.854122,-59,20,0,0, 0.0
584,-97,28,4.854122,-97,28,0,0, 0.0
592,-135,36,3.824265,-135,36,0,0, 0.0
600,-165,42,2.263846,-165,42,0,0, 0.0
608,-183,44,0.760345,-183,44,0,0, 0.0
616,-189,45,0.125000,-189,45,0,0, 0.0
624,-188,45,1.546165,-188,45,0,0, 0.0
632,-176,42,4.048534,-176,42,0,0, 0.0
640,-144,37,5.640257,-144,37,0,0, 0.0
648,-100,27,5.942432,-100,27,0,0, 0.0
656,-54,15,4.911721,-54,15,0,0, 0.0
664,-16,5,3.162278,-16,5,0,0, 0.0
672,8,-3,0.901388,8,-3,0,0, 0.0
680,14,-7,0.250000,14,-7,0,0, 0.0
688,12,-7,1.068000,12,-7,0,0, 0.0
696,4,-4,2.335193,4,-4,0,0, 0.0
704,-14,1,3.092329,-14,1,0,0, 0.0
712,-38,7,3.952847,-38,7,0,0, 0.0
720,-68,17,4.430011,-68,17,0,0, 0.0
728,-102,27,4.430011,-102,27,0,0, 0.0
736,-136,37,3.092329,-136,37,0,0, 0.0
744,-160,43,1.700184,-160,43,0,0, 0.0
752,-173,47,0.515388,-173,47,0,0, 0.0
760,-177,48,0.250000,-177,48,0,0, 0.0
768,-175,48,0.883883,-175,48,0,0, 0.0
776,-168,47,2.730041,-168,47,0,0, 0.0
784,-147,41,4.911721,-147,41,0,0, 0.0
792,-109,31,5.220153,-109,31,0,0, 0.0
800,-69,19,4.190764,-69,19,0,0, 0.0
808,-37,9,2.692582,-37,9,0,0, 0.0
816,-17,1,1.286954,-17,1,0,0, 0.0
824,-8,-4,0.176777,-8,-4,0,0, 0.0
832,-7,-5,0.279508,-7,-5,0,0, 0.0
840,-9,-6,0.375000,-9,-6,0,0, 0.0
848,-12,-6,0.760345,-12,-6,0,0, 0.0
856,-18,-5,1.152443,-18,-5,0,0, 0.0
864,-27,-3,1.380670,-27,-3,0,0, 0.0
872,-38,-2,1.741049,-38,-2,0,0, 0.0
880,-51,3,1.581139,-51,3,0,0, 0.0
888,-63,7,0.637377,-63,7,0,0, 0.0
896,-68,8,0.250000,-68,8,0,0, 0.0
904,-70,8,0.125000,-70,8,0,0, 0.0
912,-70,9,0.125000,-70,9,0,0, 0.0
920,-69,9,0.000000,-69,9,0,0, 0.0
928,-69,9,0.000000,-69,9,0,0, 0.0
936,-69,9,0.125000,-69,9,0,0, 0.0
944,-68,9,0.375000,-68,9,0,0, 0.0
952,-65,9,0.500000,-65,9,0,0, 0.0
960,-61,9,0.000000,-61,9,0,0, 0.0
