t,x,y,v,xdecoded,ydecoded,xerror,yerror,abserror
0,0,0,0.673146,0,0,0,0, 0.0
8,5,-2,0.559017,5,-2,0,0, 0.0
16,9,-4,0.395285,9,-4,0,0, 0.0
24,12,-5,0.279508,12,-5,0,0, 0.0
32,14,-6,0.000000,14,-6,0,0, 0.0
40,14,-6,0.000000,14,-6,0,0, 0.0
48,14,-6,0.125000,14,-6,0,0, 0.0
56,13,-6,0.176777,13,-6,0,0, 0.0
64,12,-5,0.250000,12,-5,0,0, 0.0
72,10,-5,0.279508,10,-5,0,0, 0.0
80,8,-4,0.450694,8,-4,0,0, 0.0
88,5,-2,0.279508,5,-2,0,0, 0.0
96,3,-1,0.395285,3,-1,0,0, 0.0
104,0,0,0.279508,0,0,0,0, 0.0
112,-2,1,0.279508,-2,1,0,0, 0.0
120,-4,2,0.279508,-4,2,0,0, 0.0
128,-6,3,0.353553,-6,3,0,0, 0.0
136,-8,5,0.625000,-8,5,0,0, 0.0
144,-11,9,0.450694,-11,9,0,0, 0.0
152,-14,11,0.450694,-14,11,0,0, 0.0
160,-17,13,0.559017,-17,13,0,0, 0.0
168,-21,15,0.450694,-21,15,0,0, 0.0
176,-23,18,0.353553,-23,18,0,0, 0.0
184,-25,20,0.279508,-25,20,0,0, 0.0
192,-27,21,0.176777,-27,21,0,0, 0.0
200,-28,22,0.176777,-28,22,0,0, 0.0
208,-29,23,0.125000,-29,23,0,0, 0.0
216,-29,24,0.000000,-29,24,0,0, 0.0
224,-29,24,0.000000,-29,24,0,0, 0.0
232,-29,24,0.176777,-29,24,0,0, 0.0
240,-28,23,0.353553,-28,23,0,0, 0.0
248,-26,21,0.728869,-26,21,0,0, 0.0
256,-21,18,1.328768,-21,18,0,0, 0.0
264,-13,11,2.465385,-13,11,0,0, 0.0
272,4,1,2.950106,4,1,0,0, 0.0
280,23,-13,3.581637,23,-13,0,0, 0.0
288,48,-27,3.051639,48,-27,0,0, 0.0
296,68,-41,2.704163,68,-41,0,0, 0.0
304,86,-53,2.294695,86,-53,0,0, 0.0
312,102,-62,1.328768,102,-62,0,0, 0.0
320,110,-69,0.707107,110,-69,0,0, 0.0
328,114,-73,0.176777,114,-73,0,0, 0.0
336,115,-74,0.125000,115,-74,0,0, 0.0
344,115,-75,0.125000,115,-75,0,0, 0.0
352,115,-76,0.279508,115,-76,0,0, 0.0
360,113,-75,0.530330,113,-75,0,0, 0.0
368,110,-72,1.007782,110,-72,0,0, 0.0
376,103,-68,1.505199,103,-68,0,0, 0.0
384,94,-60,2.150581,94,-60,0,0, 0.0
392,80,-50,2.657536,80,-50,0,0, 0.0
400,64,-36,2.850439,64,-36,0,0, 0.0
408,46,-22,2.704163,46,-22,0,0, 0.0
416,28,-10,2.500000,28,-10,0,0, 0.0
424,12,2,2.401172,12,2,0,0, 0.0
432,-3,14,1.629801,-3,14,0,0, 0.0
440,-14,21,0.707107,-14,21,0,0, 0.0
448,-18,25,0.176777,-18,25,0,0, 0.0
456,-19,26,0.125000,-19,26,0,0, 0.0
464,-19,27,0.515388,-19,27,0,0, 0.0
472,-15,26,1.677051,-15,26,0,0, 0.0
480,-3,20,3.250000,-3,20,0,0, 0.0
488,21,10,3.913119,21,10,0,0, 0.0
496,49,-4,4.138236,49,-4,0,0, 0.0
504,79,-18,3.691206,79,-18,0,0, 0.0
512,105,-32,2.915476,105,-32,0,0, 0.0
520,125,-44,1.600781,125,-44,0,0, 0.0
528,135,-52,0.883883,135,-52,0,0, 0.0
536,140,-57,0.250000,140,-57,0,0, 0.0
544,140,-59,0.375000,140,-59,0,0, 0.0
552,137,-59,0.883883,137,-59,0,0, 0.0
560,130,-58,1.463087,130,-58,0,0, 0.0
568,119,-54,2.462214,119,-54,0,0, 0.0
576,101,-46,3.132491,101,-46,0,0, 0.0
584,79,-34,3.354102,79,-34,0,0, 0.0
592,55,-22,3.354102,55,-22,0,0, 0.0
600,31,-10,2.573908,31,-10,0,0, 0.0
608,13,0,1.286954,13,0,0,0, 0.0
616,4,5,0.559017,4,5,0,0, 0.0
624,0,7,0.176777,0,7,0,0, 0.0
632,-1,8,0.395285,-1,8,0,0, 0.0
640,2,9,1.125000,2,9,0,0, 0.0
648,11,9,1.875000,11,9,0,0, 0.0
656,26,9,2.388122,26,9,0,0, 0.0
664,45,7,2.427061,45,7,0,0, 0.0
672,64,3,2.157835,64,3,0,0, 0.0
680,81,0,1.030776,81,0,0,0, 0.0
688,89,-2,0.279508,89,-2,0,0, 0.0
696,91,-3,0.125000,91,-3,0,0, 0.0
704,92,-3,0.673146,92,-3,0,0, 0.0
712,87,-1,1.625000,87,-1,0,0, 0.0
720,75,4,2.766993,75,4,0,0, 0.0
728,54,11,3.482097,54,11,0,0, 0.0
736,28,21,3.400368,28,21,0,0, 0.0
744,2,29,3.162278,2,29,0,0, 0.0
752,-22,37,2.850439,-22,37,0,0, 0.0
760,-44,43,1.700184,-44,43,0,0, 0.0
768,-57,47,0.515388,-57,47,0,0, 0.0
776,-61,48,0.176777,-61,48,0,0, 0.0
784,-62,49,0.559017,-62,49,0,0, 0.0
792,-58,47,1.820027,-58,47,0,0, 0.0
800,-44,43,3.250000,-44,43,0,0, 0.0
808,-20,33,3.250000,-20,33,0,0, 0.0
816,4,23,2.926175,4,23,0,0, 0.0
824,26,15,1.789728,26,15,0,0, 0.0
832,39,9,0.515388,39,9,0,0, 0.0
840,43,8,0.176777,43,8,0,0, 0.0
848,44,7,0.250000,44,7,0,0, 0.0
856,42,7,0.760345,42,7,0,0, 0.0
864,36,8,1.305038,36,8,0,0, 0.0
872,26,11,1.667708,26,11,0,0, 0.0
880,13,14,2.095382,13,14,0,0, 0.0
888,-3,19,1.820027,-3,19,0,0, 0.0
896,-17,23,0.951972,-17,23,0,0, 0.0
904,-24,26,0.395285,-24,26,0,0, 0.0
912,-27,27,0.000000,-27,27,0,0, 0.0
920,-27,27,0.279508,-27,27,0,0, 0.0
928,-25,26,1.152443,-25,26,0,0, 0.0
936,-16,24,3.281101,-16,24,0,0, 0.0
944,9,16,3.579455,9,16,0,0, 0.0
952,37,10,3.162278,37,10,0,0, 0.0
960,61,2,2.253470,61,2,0,0, 0.0
968,78,-4,1.397542,78,-4,0,0, 0.0
976,88,-9,0.450694,88,-9,0,0, 0.0
984,91,-11,0.176777,91,-11,0,0, 0.0
992,90,-12,0.515388,90,-12,0,0, 0.0
1000,86,-13,1.000000,86,-13,0,0, 0.0
1008,78,-13,1.250000,78,-13,0,0, 0.0
1016,68,-13,1.875000,68,-13,0,0, 0.0
1024,53,-13,2.003902,53,-13,0,0, 0.0
1032,37,-12,1.767767,37,-12,0,0, 0.0
1040,23,-10,1.152443,23,-10,0,0, 0.0
1048,14,-8,0.375000,14,-8,0,0, 0.0
1056,11,-8,0.125000,11,-8,0,0, 0.0
1064,12,-8,0.250000,12,-8,0,0, 0.0
1072,14,-8,0.250000,14,-8,0,0, 0.0
1080,16,-8,0.790569,16,-8,0,0, 0.0
1088,22,-10,1.912132,22,-10,0,0, 0.0
1096,37,-13,1.789728,37,-13,0,0, 0.0
1104,51,-16,1.185854,51,-16,0,0, 0.0
1112,60,-19,0.559017,60,-19,0,0, 0.0
1120,64,-21,0.279508,64,-21,0,0, 0.0
1128,66,-22,0.000000,66,-22,0,0, 0.0
1136,66,-22,0.125000,66,-22,0,0, 0.0
1144,66,-23,0.125000,66,-23,0,0, 0.0
1152,65,-23,0.125000,65,-23,0,0, 0.0
1160,64,-23,0.250000,64,-23,0,0, 0.0
1168,62,-23,0.250000,62,-23,0,0, 0.0
1176,60,-23,0.250000,60,-23,0,0, 0.0
1184,58,-23,0.250000,58,-23,0,0, 0.0
1192,56,-23,0.125000,56,-23,0,0, 0.0
1200,55,-23,0.125000,55,-23,0,0, 0.0
1208,54,-23,0.125000,54,-23,0,0, 0.0
1216,53,-23,0.125000,53,-23,0,0, 0.0
1224,52,-23,0.125000,52,-23,0,0, 0.0
1232,51,-23,0.125000,51,-23,0,0, 0.0
1240,50,-23,0.000000,50,-23,0,0, 0.0
1248,50,-23,0.125000,50,-23,0,0, 0.0
1256,51,-23,0.250000,51,-23,0,0, 0.0
1264,53,-23,0.000000,53,-23,0,0, 0.0
