t,x,y,v,xdecoded,ydecoded,xerror,yerror,abserror
0,0,0,0.176777,0,0,0,0, 0.0
8,-1,-1,0.125000,-1,-1,0,0, 0.0
16,-1,-2,0.176777,-1,-2,0,0, 0.0
24,-2,-3,0.125000,-2,-3,0,0, 0.0
32,-2,-4,0.125000,-2,-4,0,0, 0.0
40,-2,-5,0.250000,-2,-5,0,0, 0.0
48,-2,-7,0.395285,-2,-7,0,0, 0.0
56,-3,-10,0.395285,-3,-10,0,0, 0.0
64,-4,-13,0.395285,-4,-13,0,0, 0.0
72,-5,-16,0.515388,-5,-16,0,0, 0.0
80,-6,-20,0.395285,-6,-20,0,0, 0.0
88,-7,-23,0.395285,-7,-23,0,0, 0.0
96,-8,-26,0.395285,-8,-26,0,0, 0.0
104,-9,-29,0.395285,-9,-29,0,0, 0.0
112,-10,-32,0.250000,-10,-32,0,0, 0.0
120,-10,-34,0.250000,-10,-34,0,0, 0.0
128,-10,-36,0.250000,-10,-36,0,0, 0.0
136,-10,-38,0.250000,-10,-38,0,0, 0.0
144,-10,-40,0.000000,-10,-40,0,0, 0.0
152,-10,-40,0.176777,-10,-40,0,0, 0.0
160,-9,-41,0.125000,-9,-41,0,0, 0.0
168,-9,-40,0.125000,-9,-40,0,0, 0.0
176,-9,-39,0.279508,-9,-39,0,0, 0.0
184,-10,-37,0.395285,-10,-37,0,0, 0.0
192,-11,-34,0.637377,-11,-34,0,0, 0.0
200,-12,-29,0.883883,-12,-29,0,0, 0.0
208,-13,-22,1.030776,-13,-22,0,0, 0.0
216,-15,-14,1.007782,-15,-14,0,0, 0.0
224,-16,-6,1.256234,-16,-6,0,0, 0.0
232,-17,4,1.425219,-17,4,0,0, 0.0
240,-20,15,1.463087,-20,15,0,0, 0.0
248,-24,26,1.185854,-24,26,0,0, 0.0
256,-27,35,1.007782,-27,35,0,0, 0.0
264,-28,43,0.883883,-28,43,0,0, 0.0
272,-29,50,0.790569,-29,50,0,0, 0.0
280,-31,56,0.515388,-31,56,0,0, 0.0
288,-32,60,0.250000,-32,60,0,0, 0.0
296,-32,62,0.125000,-32,62,0,0, 0.0
304,-32,63,0.000000,-32,63,0,0, 0.0
312,-32,63,0.125000,-32,63,0,0, 0.0
320,-31,63,0.125000,-31,63,0,0, 0.0
328,-31,62,0.395285,-31,62,0,0, 0.0
336,-30,59,0.673146,-30,59,0,0, 0.0
344,-28,54,1.510381,-28,54,0,0, 0.0
352,-23,43,1.845603,-23,43,0,0, 0.0
360,-16,30,2.298097,-16,30,0,0, 0.0
368,-9,13,2.069118,-9,13,0,0, 0.0
376,-2,-2,2.015564,-2,-2,0,0, 0.0
384,6,-16,1.677051,6,-16,0,0, 0.0
392,12,-28,1.179248,12,-28,0,0, 0.0
400,17,-36,0.450694,17,-36,0,0, 0.0
408,19,-39,0.176777,19,-39,0,0, 0.0
416,20,-40,0.000000,20,-40,0,0, 0.0
424,20,-40,0.125000,20,-40,0,0, 0.0
432,20,-39,0.395285,20,-39,0,0, 0.0
440,19,-36,0.910014,19,-36,0,0, 0.0
448,17,-29,1.625000,17,-29,0,0, 0.0
456,12,-17,1.956559,12,-17,0,0, 0.0
464,5,-3,3.020761,5,-3,0,0, 0.0
472,-5,19,2.795085,-5,19,0,0, 0.0
480,-15,39,2.515576,-15,39,0,0, 0.0
488,-24,57,2.125000,-24,57,0,0, 0.0
496,-32,72,1.525819,-32,72,0,0, 0.0
504,-39,82,0.673146,-39,82,0,0, 0.0
512,-41,87,0.395285,-41,87,0,0, 0.0
520,-42,90,0.125000,-42,90,0,0, 0.0
528,-42,91,0.000000,-42,91,0,0, 0.0
536,-42,91,0.125000,-42,91,0,0, 0.0
544,-41,91,0.279508,-41,91,0,0, 0.0
552,-40,89,0.728869,-40,89,0,0, 0.0
560,-37,84,1.118034,-37,84,0,0, 0.0
568,-33,76,1.566246,-33,76,0,0, 0.0
576,-27,65,1.510381,-27,65,0,0, 0.0
584,-22,54,1.625000,-22,54,0,0, 0.0
592,-17,42,1.185854,-17,42,0,0, 0.0
600,-14,33,0.673146,-14,33,0,0, 0.0
608,-12,28,0.279508,-12,28,0,0, 0.0
616,-11,26,0.000000,-11,26,0,0, 0.0
624,-11,26,0.000000,-11,26,0,0, 0.0
632,-11,26,0.125000,-11,26,0,0, 0.0
640,-11,27,0.637377,-11,27,0,0, 0.0
648,-12,32,1.546165,-12,32,0,0, 0.0
656,-15,44,1.789728,-15,44,0,0, 0.0
664,-18,58,1.425219,-18,58,0,0, 0.0
672,-21,69,1.425219,-21,69,0,0, 0.0
680,-24,80,1.185854,-24,80,0,0, 0.0
688,-27,89,0.951972,-27,89,0,0, 0.0
696,-30,96,0.637377,-30,96,0,0, 0.0
704,-31,101,0.250000,-31,101,0,0, 0.0
712,-31,103,0.125000,-31,103,0,0, 0.0
720,-31,104,0.176777,-31,104,0,0, 0.0
728,-32,103,0.125000,-32,103,0,0, 0.0
736,-32,102,0.125000,-32,102,0,0, 0.0
744,-32,101,0.559017,-32,101,0,0, 0.0
752,-30,97,0.883883,-30,97,0,0, 0.0
760,-29,90,1.068000,-29,90,0,0, 0.0
768,-26,82,1.007782,-26,82,0,0, 0.0
776,-25,74,1.030776,-25,74,0,0, 0.0
784,-23,66,1.131923,-23,66,0,0, 0.0
792,-22,57,0.883883,-22,57,0,0, 0.0
800,-21,50,0.279508,-21,50,0,0, 0.0
808,-20,48,0.125000,-20,48,0,0, 0.0
816,-20,47,0.000000,-20,47,0,0, 0.0
824,-20,47,0.000000,-20,47,0,0, 0.0
832,-20,47,0.250000,-20,47,0,0, 0.0
840,-20,49,0.750000,-20,49,0,0, 0.0
848,-20,55,0.750000,-20,55,0,0, 0.0
856,-20,61,1.250000,-20,61,0,0, 0.0
864,-20,71,1.000000,-20,71,0,0, 0.0
872,-20,79,0.875000,-20,79,0,0, 0.0
880,-20,86,0.395285,-20,86,0,0, 0.0
888,-21,89,0.176777,-21,89,0,0, 0.0
896,-22,90,0.125000,-22,90,0,0, 0.0
904,-21,90,0.000000,-21,90,0,0, 0.0
912,-21,90,0.125000,-21,90,0,0, 0.0
920,-21,89,0.395285,-21,89,0,0, 0.0
928,-20,86,0.883883,-20,86,0,0, 0.0
936,-19,79,1.520691,-19,79,0,0, 0.0
944,-17,67,1.644118,-17,67,0,0, 0.0
952,-15,54,2.034853,-15,54,0,0, 0.0
960,-12,38,1.546165,-12,38,0,0, 0.0
968,-9,26,1.185854,-9,26,0,0, 0.0
976,-6,17,0.515388,-6,17,0,0, 0.0
984,-5,13,0.176777,-5,13,0,0, 0.0
992,-4,14,0.125000,-4,14,0,0, 0.0
1000,-4,15,0.176777,-4,15,0,0, 0.0
1008,-3,16,0.500000,-3,16,0,0, 0.0
1016,-3,20,1.000000,-3,20,0,0, 0.0
1024,-3,28,1.500000,-3,28,0,0, 0.0
1032,-3,40,1.700184,-3,40,0,0, 0.0
1040,-7,53,1.546165,-7,53,0,0, 0.0
1048,-10,65,1.667708,-10,65,0,0, 0.0
1056,-13,78,1.185854,-13,78,0,0, 0.0
1064,-16,87,0.951972,-16,87,0,0, 0.0
1072,-19,94,0.530330,-19,94,0,0, 0.0
1080,-22,97,0.176777,-22,97,0,0, 0.0
1088,-23,98,0.000000,-23,98,0,0, 0.0
1096,-23,98,0.000000,-23,98,0,0, 0.0
1104,-23,98,0.125000,-23,98,0,0, 0.0
1112,-23,97,0.395285,-23,97,0,0, 0.0
1120,-22,94,0.673146,-22,94,0,0, 0.0
1128,-20,89,0.883883,-20,89,0,0, 0.0
1136,-19,82,0.515388,-19,82,0,0, 0.0
1144,-18,78,0.279508,-18,78,0,0, 0.0
1152,-17,76,0.125000,-17,76,0,0, 0.0
1160,-17,75,0.000000,-17,75,0,0, 0.0
1168,-17,75,0.000000,-17,75,0,0, 0.0
1176,-17,75,0.125000,-17,75,0,0, 0.0
1184,-17,76,0.125000,-17,76,0,0, 0.0
1192,-17,77,0.279508,-17,77,0,0, 0.0
1200,-18,79,0.125000,-18,79,0,0, 0.0
1208,-18,80,0.125000,-18,80,0,0, 0.0
1216,-18,81,0.000000,-18,81,0,0, 0.0
1224,-18,81,0.000000,-18,81,0,0, 0.0
1232,-18,81,0.000000,-18,81,0,0, 0.0
1240,-18,81,0.125000,-18,81,0,0, 0.0
1248,-18,80,0.250000,-18,80,0,0, 0.0
1256,-18,78,0.375000,-18,78,0,0, 0.0
1264,-18,75,0.375000,-18,75,0,0, 0.0
1272,-18,72,0.250000,-18,72,0,0, 0.0
1280,-18,70,0.250000,-18,70,0,0, 0.0
1288,-18,68,0.000000,-18,68,0,0, 0.0
