MV, 19680571, 2222, 500
MV, 19680579, 2224, 502
MV, 19680587, 2229, 505
MV, 19680595, 2237, 511
MV, 19680603, 2249, 519
MV, 19680611, 2263, 528
MV, 19680619, 2278, 539
MV, 19680627, 2296, 551
MV, 19680635, 2312, 561
MV, 19680643, 2324, 570
MV, 19680651, 2334, 577
MV, 19680659, 2341, 581
MV, 19680667, 2345, 585
MV, 19680675, 2347, 587
MV, 19680683, 2349, 589
MV, 19680715, 2349, 590
MV, 19680723, 2348, 590
MV, 19680731, 2346, 589
MV, 19680739, 2341, 587
MV, 19680747, 2331, 581
MV, 19680755, 2316, 570
MV, 19680763, 2294, 556
MV, 19680771, 2272, 542
MV, 19680779, 2252, 528
MV, 19680787, 2232, 514
MV, 19680795, 2214, 500
MV, 19680803, 2196, 486
MV, 19680811, 2183, 476
MV, 19680819, 2173, 469
MV, 19680851, 2170, 467
MV, 19680867, 2172, 469
MV, 19680875, 2178, 472
MV, 19680883, 2187, 478
MV, 19680891, 2198, 485
MV, 19680899, 2210, 491
MV, 19680907, 2219, 498
MV, 19680915, 2229, 506
MV, 19680923, 2234, 510
MV, 19680931, 2237, 514
MV, 19680939, 2239, 516
MV, 19680955, 2239, 517
MV, 19680963, 2238, 518
MV, 19680971, 2237, 518
MV, 19680979, 2233, 517
MV, 19680987, 2227, 513
MV, 19680995, 2218, 505
MV, 19681003, 2205, 495
MV, 19681011, 2192, 482
MV, 19681019, 2179, 466
MV, 19681027, 2167, 455
MV, 19681035, 2159, 449
MV, 19681043, 2156, 445
MV, 19681059, 2153, 444
MV, 19681067, 2153, 445
MV, 19681075, 2154, 448
MV, 19681083, 2160, 455
MV, 19681091, 2170, 469
MV, 19681099, 2184, 485
MV, 19681107, 2198, 499
MV, 19681115, 2209, 510
MV, 19681123, 2217, 518
MV, 19681131, 2222, 524
MV, 19681139, 2226, 527
MV, 19681171, 2227, 528
MV, 19681179, 2226, 526
MV, 19681187, 2221, 521
MV, 19681195, 2210, 509
MV, 19681203, 2192, 493
MV, 19681211, 2170, 475
MV, 19681219, 2148, 455
MV, 19681227, 2126, 437
MV, 19681235, 2102, 419
MV, 19681243, 2082, 405
MV, 19681251, 2068, 397
MV, 19681259, 2063, 393
MV, 19681275, 2062, 392
MV, 19681291, 2065, 395
MV, 19681299, 2072, 403
MV, 19681307, 2090, 416
MV, 19681315, 2110, 434
MV, 19681323, 2132, 452
MV, 19681331, 2152, 468
MV, 19681339, 2168, 480
MV, 19681347, 2181, 491
MV, 19681355, 2189, 498
MV, 19681363, 2193, 502
MV, 19681371, 2194, 504
MV, 19681395, 2195, 505
MV, 19681403, 2194, 504
MV, 19681411, 2191, 500
MV, 19681419, 2183, 491
MV, 19681427, 2169, 476
MV, 19681435, 2151, 460
MV, 19681443, 2131, 444
MV, 19681451, 2111, 428
MV, 19681459, 2093, 414
MV, 19681467, 2081, 405
MV, 19681491, 2079, 402
MV, 19681507, 2084, 408
MV, 19681515, 2097, 421
MV, 19681523, 2115, 437
MV, 19681531, 2135, 455
MV, 19681539, 2153, 471
MV, 19681547, 2169, 485
MV, 19681555, 2180, 499
MV, 19681563, 2187, 507
MV, 19681571, 2191, 512
MV, 19681579, 2193, 516
MV, 19681603, 2194, 517
MV, 19681611, 2193, 516
MV, 19681619, 2190, 511
MV, 19681627, 2184, 503
MV, 19681635, 2174, 489
MV, 19681643, 2161, 476
MV, 19681651, 2150, 465
MV, 19681659, 2141, 456
MV, 19681691, 2139, 454
MV, 19681699, 2140, 454
MV, 19681707, 2143, 456
MV, 19681715, 2149, 461
MV, 19681723, 2158, 467
MV, 19681731, 2166, 473
MV, 19681739, 2173, 477
MV, 19681747, 2178, 481
MV, 19681755, 2182, 484
MV, 19681763, 2184, 486
MV, 19681803, 2182, 484
MV, 19681811, 2178, 479
MV, 19681819, 2171, 472
MV, 19681827, 2164, 467
MV, 19681835, 2158, 461
MV, 19681843, 2153, 457
MV, 19681867, 2151, 456
MV, 19681875, 2152, 457
MV, 19681883, 2157, 463
MV, 19681891, 2167, 474
MV, 19681899, 2180, 490
MV, 19681907, 2192, 505
MV, 19681915, 2199, 518
MV, 19681923, 2202, 525
MV, 19681931, 2203, 529
MV, 19681955, 2203, 530
MV, 19681971, 2202, 528
MV, 19681979, 2199, 525
MV, 19681987, 2196, 521
MV, 19681995, 2193, 517
MV, 19682003, 2190, 512
MV, 19682011, 2187, 508
MV, 19682019, 2186, 506
MV, 19682027, 2185, 504
MV, 19682035, 2185, 503
MV, 19682051, 2185, 502
