t,x,y,v,xdecoded,ydecoded,xerror,yerror,abserror
0,0,0,0.125000,0,0,0,0, 0.0
8,1,0,0.125000,1,0,0,0, 0.0
16,2,0,0.125000,2,0,0,0, 0.0
24,3,0,0.125000,3,0,0,0, 0.0
32,3,-1,0.125000,3,-1,0,0, 0.0
40,4,-1,0.279508,4,-1,0,0, 0.0
48,6,-2,0.279508,6,-2,0,0, 0.0
56,8,-3,0.279508,8,-3,0,0, 0.0
64,10,-4,0.279508,10,-4,0,0, 0.0
72,12,-5,0.395285,12,-5,0,0, 0.0
80,15,-6,0.395285,15,-6,0,0, 0.0
88,18,-7,0.450694,18,-7,0,0, 0.0
96,21,-9,0.395285,21,-9,0,0, 0.0
104,24,-10,0.450694,24,-10,0,0, 0.0
112,27,-12,0.395285,27,-12,0,0, 0.0
120,30,-13,0.450694,30,-13,0,0, 0.0
128,33,-15,0.395285,33,-15,0,0, 0.0
136,36,-16,0.395285,36,-16,0,0, 0.0
144,39,-17,0.279508,39,-17,0,0, 0.0
152,41,-18,0.395285,41,-18,0,0, 0.0
160,44,-19,0.279508,44,-19,0,0, 0.0
168,46,-20,0.279508,46,-20,0,0, 0.0
176,48,-21,0.395285,48,-21,0,0, 0.0
184,51,-22,0.250000,51,-22,0,0, 0.0
192,53,-22,0.279508,53,-22,0,0, 0.0
200,55,-23,0.125000,55,-23,0,0, 0.0
208,56,-23,0.176777,56,-23,0,0, 0.0
216,57,-24,0.125000,57,-24,0,0, 0.0
224,58,-24,0.000000,58,-24,0,0, 0.0
232,58,-24,0.176777,58,-24,0,0, 0.0
240,59,-25,0.125000,59,-25,0,0, 0.0
248,60,-25,0.125000,60,-25,0,0, 0.0
256,61,-25,0.125000,61,-25,0,0, 0.0
264,62,-25,0.125000,62,-25,0,0, 0.0
272,63,-25,0.000000,63,-25,0,0, 0.0
280,63,-25,0.125000,63,-25,0,0, 0.0
288,64,-25,0.000000,64,-25,0,0, 0.0
296,64,-25,0.000000,64,-25,0,0, 0.0
304,64,-25,0.000000,64,-25,0,0, 0.0
312,64,-25,0.000000,64,-25,0,0, 0.0
320,64,-25,0.000000,64,-25,0,0, 0.0
328,64,-25,0.000000,64,-25,0,0, 0.0
336,64,-25,0.125000,64,-25,0,0, 0.0
344,63,-25,0.000000,63,-25,0,0, 0.0
352,63,-25,0.125000,63,-25,0,0, 0.0
360,62,-25,0.000000,62,-25,0,0, 0.0
368,62,-25,0.125000,62,-25,0,0, 0.0
376,61,-25,0.125000,61,-25,0,0, 0.0
384,60,-25,0.125000,60,-25,0,0, 0.0
392,59,-25,0.125000,59,-25,0,0, 0.0
400,58,-25,0.125000,58,-25,0,0, 0.0
408,57,-25,0.000000,57,-25,0,0, 0.0
