MV, 25399780, 2273, 551
MV, 25399788, 2272, 552
MV, 25399796, 2271, 552
MV, 25399804, 2270, 553
MV, 25399812, 2269, 554
MV, 25399820, 2268, 555
MV, 25399828, 2267, 556
MV, 25399836, 2266, 557
MV, 25399844, 2265, 558
MV, 25399852, 2264, 559
MV, 25399860, 2263, 559
MV, 25399868, 2261, 560
MV, 25399876, 2260, 561
MV, 25399884, 2258, 562
MV, 25399892, 2257, 563
MV, 25399900, 2255, 564
MV, 25399908, 2254, 565
MV, 25399916, 2253, 566
MV, 25399924, 2252, 567
MV, 25399932, 2251, 567
MV, 25399940, 2249, 568
MV, 25399948, 2248, 569
MV, 25399956, 2247, 570
MV, 25399964, 2246, 571
MV, 25399972, 2244, 572
MV, 25399980, 2242, 573
MV, 25399988, 2240, 574
MV, 25399996, 2238, 575
MV, 25400004, 2236, 576
MV, 25400012, 2235, 577
MV, 25400020, 2233, 578
MV, 25400028, 2232, 579
MV, 25400036, 2231, 580
MV, 25400044, 2230, 581
MV, 25400052, 2229, 582
