MV, 25414116, 2229, 582
MV, 25414124, 2228, 581
MV, 25414132, 2227, 580
MV, 25414140, 2226, 579
MV, 25414148, 2225, 578
MV, 25414156, 2224, 577
MV, 25414164, 2222, 575
MV, 25414172, 2221, 574
MV, 25414180, 2220, 573
MV, 25414188, 2218, 572
MV, 25414196, 2217, 570
MV, 25414204, 2216, 569
MV, 25414212, 2215, 568
MV, 25414220, 2214, 567
MV, 25414228, 2213, 566
MV, 25414236, 2212, 565
MV, 25414244, 2211, 565
MV, 25414252, 2211, 564
MV, 25414268, 2210, 563
MV, 25414292, 2209, 562
MV, 25414324, 2209, 561
MV, 25414340, 2208, 560
MV, 25414356, 2208, 559
