t,x,y,v,xdecoded,ydecoded,xerror,yerror,abserror
0,0,0,1.397542,0,0,0,0, 0.0
8,10,5,1.250000,10,5,0,0, 0.0
16,20,5,1.250000,20,5,0,0, 0.0
24,30,5,1.397542,30,5,0,0, 0.0
32,40,0,0.000000,40,0,0,0, 0.0
