t,x,y,v,xdecoded,ydecoded,xerror,yerror,abserror
0,0,0,0.176777,0,0,0,0, 0.0
8,1,1,0.176777,1,1,0,0, 0.0
16,0,0,0.176777,0,0,0,0, 0.0
24,-1,-1,0.176777,-1,-1,0,0, 0.0
32,-2,-2,0.000000,-2,-2,0,0, 0.0
40,-2,-2,0.125000,-2,-2,0,0, 0.0
48,-3,-2,0.125000,-3,-2,0,0, 0.0
56,-3,-3,0.125000,-3,-3,0,0, 0.0
64,-3,-2,0.125000,-3,-2,0,0, 0.0
72,-2,-2,0.000000,-2,-2,0,0, 0.0
80,-2,-2,0.000000,-2,-2,0,0, 0.0
88,-2,-2,0.125000,-2,-2,0,0, 0.0
96,-1,-2,0.000000,-1,-2,0,0, 0.0
104,-1,-2,0.125000,-1,-2,0,0, 0.0
112,0,-2,0.176777,0,-2,0,0, 0.0
120,1,-3,0.395285,1,-3,0,0, 0.0
128,4,-4,0.395285,4,-4,0,0, 0.0
136,7,-5,0.279508,7,-5,0,0, 0.0
144,9,-6,0.279508,9,-6,0,0, 0.0
152,11,-7,0.176777,11,-7,0,0, 0.0
160,12,-8,0.125000,12,-8,0,0, 0.0
168,13,-8,0.176777,13,-8,0,0, 0.0
176,14,-9,0.250000,14,-9,0,0, 0.0
184,16,-9,0.250000,16,-9,0,0, 0.0
192,18,-9,0.250000,18,-9,0,0, 0.0
200,20,-9,0.250000,20,-9,0,0, 0.0
208,22,-9,0.375000,22,-9,0,0, 0.0
216,25,-9,0.500000,25,-9,0,0, 0.0
224,29,-9,0.637377,29,-9,0,0, 0.0
232,34,-8,1.179248,34,-8,0,0, 0.0
240,42,-3,1.767767,42,-3,0,0, 0.0
248,52,7,2.325134,52,7,0,0, 0.0
256,63,22,2.915476,63,22,0,0, 0.0
264,75,42,2.926175,75,42,0,0, 0.0
272,83,64,2.795085,83,64,0,0, 0.0
280,87,86,2.761340,87,86,0,0, 0.0
288,89,108,2.139655,89,108,0,0, 0.0
296,87,125,2.348537,87,125,0,0, 0.0
304,79,142,2.298097,79,142,0,0, 0.0
312,66,155,2.348537,66,155,0,0, 0.0
320,49,163,2.795085,49,163,0,0, 0.0
328,27,167,3.010399,27,167,0,0, 0.0
336,3,165,3.162278,3,165,0,0, 0.0
344,-21,157,3.691206,-21,157,0,0, 0.0
352,-47,143,4.100305,-47,143,0,0, 0.0
360,-73,123,3.716517,-73,123,0,0, 0.0
368,-93,101,3.259601,-93,101,0,0, 0.0
376,-107,79,2.926175,-107,79,0,0, 0.0
384,-115,57,2.750000,-115,57,0,0, 0.0
392,-115,35,2.692582,-115,35,0,0, 0.0
400,-107,15,3.010399,-107,15,0,0, 0.0
408,-89,-1,3.807887,-89,-1,0,0, 0.0
416,-61,-13,3.824265,-61,-13,0,0, 0.0
424,-31,-19,3.783186,-31,-19,0,0, 0.0
432,-1,-23,3.000000,-1,-23,0,0, 0.0
440,23,-23,2.139655,23,-23,0,0, 0.0
448,40,-21,1.068000,40,-21,0,0, 0.0
456,48,-18,0.279508,48,-18,0,0, 0.0
464,49,-16,0.450694,49,-16,0,0, 0.0
472,47,-13,1.007782,47,-13,0,0, 0.0
480,40,-9,1.566246,40,-9,0,0, 0.0
488,29,-3,1.903943,29,-3,0,0, 0.0
496,15,3,2.531057,15,3,0,0, 0.0
504,-4,10,2.610077,-4,10,0,0, 0.0
512,-24,16,2.610077,-24,16,0,0, 0.0
520,-44,22,2.549510,-44,22,0,0, 0.0
528,-64,26,1.767767,-64,26,0,0, 0.0
536,-78,28,1.375000,-78,28,0,0, 0.0
544,-89,28,0.790569,-89,28,0,0, 0.0
552,-95,26,0.279508,-95,26,0,0, 0.0
560,-97,25,0.395285,-97,25,0,0, 0.0
568,-96,22,0.976281,-96,22,0,0, 0.0
576,-91,16,2.304886,-91,16,0,0, 0.0
584,-77,4,4.506939,-77,4,0,0, 0.0
592,-47,-16,4.472136,-47,-16,0,0, 0.0
600,-15,-32,4.038874,-15,-32,0,0, 0.0
608,15,-44,3.400368,15,-44,0,0, 0.0
616,41,-52,2.549510,41,-52,0,0, 0.0
624,61,-56,1.274755,61,-56,0,0, 0.0
632,71,-54,0.976281,71,-54,0,0, 0.0
640,77,-49,1.131923,77,-49,0,0, 0.0
648,78,-40,1.305038,78,-40,0,0, 0.0
656,75,-30,1.845603,75,-30,0,0, 0.0
664,68,-17,2.186607,68,-17,0,0, 0.0
672,59,-2,2.601082,59,-2,0,0, 0.0
680,47,15,3.201562,47,15,0,0, 0.0
688,31,35,3.905125,31,35,0,0, 0.0
696,7,55,3.473111,7,55,0,0, 0.0
704,-17,69,3.400368,-17,69,0,0, 0.0
712,-43,77,3.041381,-43,77,0,0, 0.0
720,-67,81,2.388122,-67,81,0,0, 0.0
728,-86,79,2.069118,-86,79,0,0, 0.0
736,-101,72,1.328768,-101,72,0,0, 0.0
744,-108,64,1.505199,-108,64,0,0, 0.0
752,-109,52,2.298097,-109,52,0,0, 0.0
760,-102,35,3.457329,-102,35,0,0, 0.0
768,-84,14,4.100305,-84,14,0,0, 0.0
776,-58,-6,4.924429,-58,-6,0,0, 0.0
784,-22,-22,5.099020,-22,-22,0,0, 0.0
792,18,-30,5.024938,18,-30,0,0, 0.0
800,58,-34,5.505679,58,-34,0,0, 0.0
808,102,-32,4.562072,102,-32,0,0, 0.0
816,138,-26,3.716517,138,-26,0,0, 0.0
824,166,-16,2.915476,166,-16,0,0, 0.0
832,186,-4,1.944544,186,-4,0,0, 0.0
840,197,7,1.305038,197,7,0,0, 0.0
848,200,17,1.346291,200,17,0,0, 0.0
856,196,27,2.675117,196,27,0,0, 0.0
864,179,40,3.807887,179,40,0,0, 0.0
872,151,52,4.609772,151,52,0,0, 0.0
880,115,60,5.273756,115,60,0,0, 0.0
888,73,64,5.755432,73,64,0,0, 0.0
896,27,66,5.755432,27,66,0,0, 0.0
904,-19,64,5.550901,-19,64,0,0, 0.0
912,-63,58,4.854122,-63,58,0,0, 0.0
920,-101,50,3.482097,-101,50,0,0, 0.0
928,-127,40,1.908042,-127,40,0,0, 0.0
936,-140,32,0.673146,-140,32,0,0, 0.0
944,-142,27,1.250000,-142,27,0,0, 0.0
952,-134,21,3.087272,-134,21,0,0, 0.0
960,-111,12,5.055937,-111,12,0,0, 0.0
968,-71,6,6.020797,-71,6,0,0, 0.0
976,-23,2,6.005206,-23,2,0,0, 0.0
984,25,0,6.000000,25,0,0,0, 0.0
992,73,0,5.273756,73,0,0,0, 0.0
1000,115,4,4.069705,115,4,0,0, 0.0
1008,147,10,2.610077,147,10,0,0, 0.0
1016,167,16,1.179248,167,16,0,0, 0.0
1024,175,21,0.625000,175,21,0,0, 0.0
1032,175,26,0.976281,175,26,0,0, 0.0
1040,169,31,2.069118,169,31,0,0, 0.0
1048,154,38,3.579455,154,38,0,0, 0.0
1056,126,44,4.279311,126,44,0,0, 0.0
1064,92,48,5.273756,92,48,0,0, 0.0
1072,50,52,5.006246,50,52,0,0, 0.0
1080,10,54,4.257347,10,54,0,0, 0.0
1088,-24,52,3.041381,-24,52,0,0, 0.0
1096,-48,48,1.700184,-48,48,0,0, 0.0
1104,-61,44,0.625000,-61,44,0,0, 0.0
1112,-64,40,0.625000,-64,40,0,0, 0.0
1120,-61,36,1.152443,-61,36,0,0, 0.0
1128,-55,29,2.963317,-55,29,0,0, 0.0
1136,-34,18,3.482097,-34,18,0,0, 0.0
1144,-8,8,3.640055,-8,8,0,0, 0.0
1152,20,0,3.041381,20,0,0,0, 0.0
1160,44,-4,2.549510,44,-4,0,0, 0.0
1168,64,-8,1.274755,64,-8,0,0, 0.0
1176,74,-10,0.375000,74,-10,0,0, 0.0
1184,77,-10,0.125000,77,-10,0,0, 0.0
1192,78,-10,0.353553,78,-10,0,0, 0.0
1200,76,-8,0.625000,76,-8,0,0, 0.0
1208,72,-5,1.250000,72,-5,0,0, 0.0
1216,64,1,1.956559,64,1,0,0, 0.0
1224,50,8,2.095382,50,8,0,0, 0.0
1232,34,13,1.976424,34,13,0,0, 0.0
1240,19,18,1.152443,19,18,0,0, 0.0
1248,10,20,0.883883,10,20,0,0, 0.0
1256,3,21,0.375000,3,21,0,0, 0.0
1264,0,21,0.250000,0,21,0,0, 0.0
1272,-2,21,0.176777,-2,21,0,0, 0.0
1280,-3,20,0.125000,-3,20,0,0, 0.0
1288,-3,19,0.176777,-3,19,0,0, 0.0
1296,-2,18,0.279508,-2,18,0,0, 0.0
1304,0,17,0.279508,0,17,0,0, 0.0
1312,2,16,0.353553,2,16,0,0, 0.0
1320,4,14,0.176777,4,14,0,0, 0.0
1328,5,13,0.000000,5,13,0,0, 0.0
