MV, 20084664, 2389, 571
MV, 20084680, 2387, 572
MV, 20084688, 2381, 574
MV, 20084696, 2366, 579
MV, 20084704, 2342, 587
MV, 20084712, 2318, 595
MV, 20084720, 2300, 601
MV, 20084728, 2290, 603
MV, 20084736, 2285, 604
MV, 20084744, 2282, 604
MV, 20084752, 2279, 604
MV, 20084760, 2275, 604
MV, 20084768, 2269, 604
MV, 20084776, 2263, 603
MV, 20084784, 2258, 602
MV, 20084792, 2255, 600
MV, 20084800, 2254, 599
MV, 20084808, 2253, 598
MV, 20084816, 2254, 596
MV, 20084824, 2257, 594
MV, 20084832, 2261, 592
MV, 20084840, 2268, 590
MV, 20084848, 2278, 588
MV, 20084856, 2288, 587
MV, 20084864, 2299, 590
MV, 20084872, 2308, 594
MV, 20084880, 2314, 602
MV, 20084888, 2317, 609
MV, 20084896, 2318, 615
MV, 20084904, 2316, 621
MV, 20084912, 2310, 628
MV, 20084920, 2299, 638
MV, 20084928, 2284, 649
MV, 20084936, 2264, 659
MV, 20084944, 2238, 667
MV, 20084952, 2214, 671
MV, 20084960, 2201, 675
MV, 20084976, 2197, 675
MV, 20084984, 2195, 675
MV, 20084992, 2196, 672
MV, 20085000, 2202, 666
MV, 20085008, 2214, 657
MV, 20085016, 2235, 648
MV, 20085024, 2261, 640
MV, 20085032, 2283, 636
MV, 20085040, 2296, 634
MV, 20085048, 2301, 634
MV, 20085056, 2303, 635
MV, 20085064, 2303, 637
MV, 20085072, 2302, 639
MV, 20085080, 2299, 642
MV, 20085088, 2296, 646
MV, 20085096, 2289, 651
MV, 20085104, 2282, 656
MV, 20085112, 2275, 664
MV, 20085120, 2267, 670
MV, 20085128, 2262, 674
MV, 20085136, 2255, 676
MV, 20085144, 2249, 679
MV, 20085152, 2244, 680
MV, 20085160, 2241, 679
MV, 20085168, 2239, 677
MV, 20085176, 2240, 673
MV, 20085184, 2245, 667
MV, 20085192, 2259, 656
MV, 20085200, 2282, 642
MV, 20085208, 2312, 632
MV, 20085216, 2346, 626
MV, 20085224, 2380, 622
MV, 20085232, 2414, 622
MV, 20085240, 2440, 626
MV, 20085248, 2462, 634
MV, 20085256, 2478, 644
MV, 20085264, 2487, 655
MV, 20085272, 2492, 664
MV, 20085280, 2490, 675
MV, 20085288, 2482, 684
MV, 20085296, 2461, 696
MV, 20085304, 2435, 706
MV, 20085312, 2405, 712
MV, 20085320, 2377, 714
MV, 20085328, 2353, 716
MV, 20085336, 2338, 714
MV, 20085344, 2332, 712
MV, 20085352, 2332, 710
MV, 20085360, 2334, 708
MV, 20085368, 2342, 705
MV, 20085376, 2355, 700
MV, 20085384, 2373, 694
MV, 20085392, 2395, 690
MV, 20085400, 2408, 688
MV, 20085408, 2413, 687
MV, 20085416, 2414, 686
MV, 20085432, 2413, 686
MV, 20085440, 2410, 686
MV, 20085448, 2405, 685
MV, 20085456, 2398, 685
MV, 20085464, 2394, 685
MV, 20085472, 2390, 685
MV, 20085480, 2388, 685
