MV, 20092696, 2234, 570
MV, 20092704, 2233, 571
MV, 20092712, 2232, 572
MV, 20092720, 2231, 573
MV, 20092728, 2229, 574
MV, 20092736, 2226, 574
MV, 20092744, 2222, 574
MV, 20092752, 2218, 574
MV, 20092760, 2213, 573
MV, 20092768, 2209, 569
MV, 20092776, 2202, 564
MV, 20092784, 2196, 559
MV, 20092792, 2192, 550
MV, 20092800, 2189, 539
MV, 20092808, 2189, 529
MV, 20092816, 2194, 518
MV, 20092824, 2202, 508
MV, 20092832, 2216, 499
MV, 20092840, 2233, 492
MV, 20092848, 2252, 488
MV, 20092856, 2269, 488
MV, 20092864, 2281, 491
MV, 20092872, 2290, 496
MV, 20092880, 2296, 503
MV, 20092888, 2298, 510
MV, 20092896, 2297, 518
MV, 20092904, 2294, 526
MV, 20092912, 2288, 535
MV, 20092920, 2279, 545
MV, 20092928, 2266, 558
MV, 20092936, 2250, 574
MV, 20092944, 2234, 586
MV, 20092952, 2219, 595
MV, 20092960, 2207, 600
MV, 20092968, 2199, 602
MV, 20092984, 2197, 602
MV, 20092992, 2196, 602
MV, 20093000, 2198, 599
MV, 20093008, 2203, 594
MV, 20093016, 2212, 585
MV, 20093024, 2225, 574
MV, 20093032, 2237, 567
MV, 20093040, 2249, 562
MV, 20093048, 2260, 559
MV, 20093056, 2268, 558
MV, 20093064, 2274, 559
MV, 20093072, 2276, 562
MV, 20093080, 2277, 567
MV, 20093088, 2276, 571
MV, 20093096, 2271, 578
MV, 20093104, 2263, 585
MV, 20093112, 2255, 593
MV, 20093120, 2246, 601
MV, 20093128, 2237, 605
MV, 20093136, 2228, 608
MV, 20093144, 2217, 610
MV, 20093152, 2207, 610
MV, 20093160, 2200, 607
MV, 20093168, 2195, 603
MV, 20093176, 2191, 598
MV, 20093184, 2190, 592
MV, 20093192, 2191, 584
MV, 20093200, 2197, 575
MV, 20093208, 2209, 563
MV, 20093216, 2231, 551
MV, 20093224, 2253, 543
MV, 20093232, 2275, 539
MV, 20093240, 2290, 539
MV, 20093248, 2299, 540
MV, 20093256, 2303, 543
MV, 20093264, 2305, 546
MV, 20093272, 2304, 552
MV, 20093280, 2300, 558
MV, 20093288, 2294, 565
MV, 20093296, 2287, 573
MV, 20093304, 2277, 583
MV, 20093312, 2263, 591
MV, 20093320, 2246, 597
MV, 20093328, 2227, 601
MV, 20093336, 2207, 603
MV, 20093344, 2190, 601
MV, 20093352, 2178, 596
MV, 20093360, 2173, 592
MV, 20093368, 2170, 585
MV, 20093376, 2173, 577
MV, 20093384, 2181, 566
MV, 20093392, 2200, 548
MV, 20093400, 2224, 534
MV, 20093408, 2250, 524
MV, 20093416, 2276, 518
MV, 20093424, 2300, 516
MV, 20093432, 2318, 514
MV, 20093440, 2328, 516
MV, 20093448, 2333, 518
MV, 20093456, 2335, 522
MV, 20093464, 2335, 528
MV, 20093472, 2332, 534
MV, 20093480, 2325, 541
MV, 20093488, 2312, 550
MV, 20093496, 2295, 559
MV, 20093504, 2275, 565
MV, 20093512, 2255, 569
MV, 20093520, 2235, 571
MV, 20093528, 2219, 573
MV, 20093536, 2209, 573
MV, 20093544, 2204, 570
MV, 20093552, 2203, 568
MV, 20093560, 2204, 565
MV, 20093568, 2209, 559
MV, 20093576, 2216, 550
MV, 20093584, 2225, 540
MV, 20093592, 2232, 532
MV, 20093600, 2237, 527
MV, 20093608, 2240, 523
